# file_id, revision, paper_id, file_name, file_type, file_size, original_file_name, type, stage, viewable, date_uploaded, date_modified
'34', '1', '43', '43-34-1-SM.doc', 'application/msword', '2071552', '00Final paper with EcoDesign2017.doc', 'submission/original', '2', NULL, '2017-06-19 20:07:30', '2017-06-19 20:07:30'
'35', '1', '43', '43-35-1-RV.doc', 'application/msword', '2071552', '43-34-1-SM.doc', 'submission/review', '2', NULL, '2017-06-19 20:08:12', '2017-06-19 20:08:12'
'188', '1', '45', '45-188-1-SM.doc', 'application/msword', '88064', 'Iwamoto.doc', 'submission/original', '2', NULL, '2017-09-18 14:11:31', '2017-09-18 14:11:31'
'189', '1', '45', '45-189-1-RV.doc', 'application/msword', '88064', '45-188-1-SM.doc', 'submission/review', '2', NULL, '2017-09-18 14:11:53', '2017-09-18 14:11:53'
'151', '2', '46', '46-151-2-SM.doc', 'application/msword', '143360', 'Kato_2017_PR5.doc', 'submission/original', '2', NULL, '2017-08-27 15:23:58', '2017-08-27 15:23:58'
'152', '1', '46', '46-152-1-RV.doc', 'application/msword', '143360', '46-151-2-SM.doc', 'submission/review', '2', NULL, '2017-08-27 15:24:55', '2017-08-27 15:24:55'
'243', '1', '48', '48-243-1-SM.docx', 'application/vnd.openxmlformats-officedocument.wordprocessingml.document', '172037', 'Ecodesign2017_Eco-design methodology suitable for display module industry.docx', 'submission/original', '2', NULL, '2017-09-27 13:15:22', '2017-09-27 13:15:22'
'244', '1', '48', '48-244-1-RV.docx', 'application/vnd.openxmlformats-officedocument.wordprocessingml.document', '172037', '48-243-1-SM.docx', 'submission/review', '2', NULL, '2017-09-27 13:18:09', '2017-09-27 13:18:09'
'217', '1', '50', '50-217-1-SP.pdf', 'application/pdf', '38195', 'Responses to reviewers\' comments - Ho and Chui.pdf', 'supp', '2', NULL, '2017-09-25 13:39:15', '2017-09-25 13:39:15'
'51', '1', '50', '50-51-1-SM.pdf', 'application/pdf', '2317951', 'Full Paper - AR energy monitoring - N Ho and CK Chui.pdf', 'submission/original', '2', NULL, '2017-07-03 18:53:06', '2017-07-03 18:53:06'
'218', '1', '50', '50-218-1-SP.docx', 'application/vnd.openxmlformats-officedocument.wordprocessingml.document', '5404140', 'AR energy monitoring - Ho and Chui - Springer.docx', 'supp', '2', NULL, '2017-09-25 13:42:14', '2017-09-25 13:42:14'
'52', '1', '50', '50-52-1-RV.pdf', 'application/pdf', '2317951', '50-51-1-SM.pdf', 'submission/review', '2', NULL, '2017-07-03 18:53:26', '2017-07-03 18:53:26'
'219', '1', '50', '50-219-1-SP.pdf', 'application/pdf', '135172', 'Consent_to_Publish_(Springer) - Ho and Chui.pdf', 'supp', '2', NULL, '2017-09-25 13:45:19', '2017-09-25 13:45:19'
'216', '1', '50', '50-216-1-DR.pdf', 'application/pdf', '2303644', 'Revised Paper - AR energy monitoring - Ho and Chui.pdf', 'submission/director', '2', NULL, '2017-09-25 13:33:59', '2017-09-25 13:33:59'
'81', '1', '52', '52-81-1-SM.doc', 'application/msword', '1591296', 'ZOLOTOVA_novel_solar_passive_air_conditioner.doc', 'submission/original', '2', NULL, '2017-07-09 19:02:22', '2017-07-09 19:02:22'
'82', '1', '52', '52-82-1-RV.doc', 'application/msword', '1591296', '52-81-1-SM.doc', 'submission/review', '2', NULL, '2017-07-09 19:02:42', '2017-07-09 19:02:42'
'59', '1', '53', '53-59-1-RV.doc', 'application/msword', '835584', '53-58-1-SM.doc', 'submission/review', '2', NULL, '2017-07-07 17:23:15', '2017-07-07 17:23:15'
'269', '1', '53', '53-269-1-SP.pdf', 'application/pdf', '343378', 'Springer_Consent toPublish＃53Shohei_Kuroda.pdf', 'supp', '2', NULL, '2017-09-29 11:02:12', '2017-09-29 11:02:12'
'380', '1', '53', '53-380-1-SP.docx', 'application/vnd.openxmlformats-officedocument.wordprocessingml.document', '2691798', 'Springer.docx', 'supp', '2', NULL, '2017-09-30 14:58:11', '2017-09-30 14:58:11'
'58', '1', '53', '53-58-1-SM.doc', 'application/msword', '835584', 'Kuroda_Ecodesign.doc', 'submission/original', '2', NULL, '2017-07-07 17:22:13', '2017-07-07 17:22:13'
'381', '1', '53', '53-381-1-DR.doc', 'application/msword', '836096', 'Kuroda_Ecodesign(Ver.2).doc', 'submission/director', '2', NULL, '2017-09-30 15:10:25', '2017-09-30 15:10:25'
'211', '1', '55', '55-211-1-SP.pdf', 'application/pdf', '399106', 'Wehner_Final_Paper_Springer.pdf', 'supp', '2', NULL, '2017-09-21 19:39:07', '2017-09-21 19:39:07'
'47', '1', '55', '55-47-1-SM.docx', 'application/vnd.openxmlformats-officedocument.wordprocessingml.document', '235927', '20170630_CPPS_Data_Gold_Mine.docx', 'submission/original', '2', NULL, '2017-07-01 14:25:18', '2017-07-01 14:25:18'
'48', '1', '55', '55-48-1-RV.docx', 'application/vnd.openxmlformats-officedocument.wordprocessingml.document', '235927', '55-47-1-SM.docx', 'submission/review', '2', NULL, '2017-07-01 14:26:33', '2017-07-01 14:26:33'
'209', '1', '55', '55-209-1-SP.pdf', 'application/pdf', '1384865', 'Wehner_Consent_to_publish.pdf', 'supp', '2', NULL, '2017-09-21 14:13:36', '2017-09-21 14:13:36'
'212', '1', '55', '55-212-1-SP.docx', 'application/vnd.openxmlformats-officedocument.wordprocessingml.document', '2121173', 'Wehner_Final_Paper_Springer.docx', 'supp', '2', NULL, '2017-09-21 19:39:55', '2017-09-21 19:39:55'
'173', '1', '55', '55-173-1-DR.docx', 'application/vnd.openxmlformats-officedocument.wordprocessingml.document', '235923', '55-48-1-RV.docx', 'submission/director', '2', NULL, '2017-09-13 21:38:55', '2017-09-13 21:38:55'
'210', '1', '55', '55-210-1-SP.pdf', 'application/pdf', '333531', 'Wehner_Final_Paper.pdf', 'supp', '2', NULL, '2017-09-21 14:23:20', '2017-09-21 14:23:20'
'39', '1', '60', '60-39-1-RV.docx', 'application/vnd.openxmlformats-officedocument.wordprocessingml.document', '3496897', '60-38-1-SM.docx', 'submission/review', '2', NULL, '2017-06-26 22:32:10', '2017-06-26 22:32:10'
'38', '1', '60', '60-38-1-SM.docx', 'application/vnd.openxmlformats-officedocument.wordprocessingml.document', '3496897', 'E-book_20170625.docx', 'submission/original', '2', NULL, '2017-06-26 22:30:38', '2017-06-26 22:30:38'
'158', '1', '61', '61-158-1-RV.pdf', 'application/pdf', '1233606', '61-153-2-SM.pdf', 'submission/review', '2', NULL, '2017-09-04 16:47:17', '2017-09-04 16:47:17'
'153', '2', '61', '61-153-2-SM.pdf', 'application/pdf', '1233606', 'ecodesign2017_tj.pdf', 'submission/original', '2', NULL, '2017-09-04 16:47:06', '2017-09-04 16:47:06'
'340', '1', '63', '63-340-1-DR.pdf', 'application/pdf', '99253', 'The adverse consequence induced by swift fashion.pdf', 'submission/director', '2', NULL, '2017-09-30 09:06:52', '2017-09-30 09:06:52'
'149', '1', '63', '63-149-1-SM.pdf', 'application/pdf', '99253', 'ok-The adverse consequence induced by swift fashion.pdf', 'submission/original', '2', NULL, '2017-08-24 10:11:30', '2017-08-24 10:11:30'
'150', '1', '63', '63-150-1-RV.pdf', 'application/pdf', '99253', '63-149-1-SM.pdf', 'submission/review', '2', NULL, '2017-08-24 10:12:27', '2017-08-24 10:12:27'
'329', '1', '68', '68-329-1-SM.doc', 'application/msword', '389632', 'ECD17-MitsutakaMatsumoto.doc', 'submission/original', '2', NULL, '2017-09-30 00:25:34', '2017-09-30 00:25:34'
'330', '1', '68', '68-330-1-RV.doc', 'application/msword', '389632', '68-329-1-SM.doc', 'submission/review', '2', NULL, '2017-09-30 00:27:42', '2017-09-30 00:27:42'
'280', '1', '70', '70-280-1-DR.pdf', 'application/pdf', '441719', 'RenaKondo_EcoDesign_Finalpaper.pdf', 'submission/director', '2', NULL, '2017-09-29 14:35:30', '2017-09-29 14:35:30'
'308', '1', '70', '70-308-1-SP.pdf', 'application/pdf', '226849', 'RenaKondo_Consent_to_Publish_(Springer).pdf', 'supp', '2', NULL, '2017-09-29 17:57:07', '2017-09-29 17:57:07'
'111', '3', '70', '70-111-3-SM.pdf', 'application/pdf', '499237', 'Kondo_EcoDesign_Fullpaper.pdf', 'submission/original', '2', NULL, '2017-07-10 19:01:30', '2017-07-10 19:01:30'
'304', '1', '70', '70-304-1-SP.docx', 'application/vnd.openxmlformats-officedocument.wordprocessingml.document', '4080220', 'RenaKondo_EcoDesign_FinalPaper_Springer format.docx', 'supp', '2', NULL, '2017-09-29 17:49:28', '2017-09-29 17:49:28'
'112', '1', '70', '70-112-1-RV.pdf', 'application/pdf', '499237', '70-111-3-SM.pdf', 'submission/review', '2', NULL, '2017-07-10 19:11:52', '2017-07-10 19:11:52'
'305', '1', '70', '70-305-1-SP.pdf', 'application/pdf', '204051', 'RenaKondo_EcoDesign_Description of the paper revisions.pdf', 'supp', '2', NULL, '2017-09-29 17:55:32', '2017-09-29 17:55:32'
'190', '1', '71', '71-190-1-SM.pdf', 'application/pdf', '46947', 'ID71_Life cycle assessment in fused deposition modeling (FDM) 3D printer.pdf', 'submission/original', '2', NULL, '2017-09-18 21:29:30', '2017-09-18 21:29:30'
'191', '1', '71', '71-191-1-RV.pdf', 'application/pdf', '46947', '71-190-1-SM.pdf', 'submission/review', '2', NULL, '2017-09-18 21:30:05', '2017-09-18 21:30:05'
'132', '3', '73', '73-132-3-SM.pdf', 'application/pdf', '452704', 'ED17_GRIMAUD_Performance indicators A04.pdf', 'submission/original', '2', NULL, '2017-07-18 20:45:55', '2017-07-18 20:45:55'
'133', '1', '73', '73-133-1-RV.pdf', 'application/pdf', '452704', '73-132-3-SM.pdf', 'submission/review', '2', NULL, '2017-07-18 20:46:14', '2017-07-18 20:46:14'
'227', '1', '73', '73-227-1-DR.docx', 'application/vnd.openxmlformats-officedocument.wordprocessingml.document', '1075118', 'ED17_GRIMAUD_Performance indicators B01.docx', 'submission/director', '2', NULL, '2017-09-26 18:20:46', '2017-09-26 18:20:46'
'159', '3', '74', '74-159-3-SM.pdf', 'application/pdf', '322114', 'Proceeding paper Characterization Labels NM 170904.pdf', 'submission/original', '2', NULL, '2017-09-04 21:16:02', '2017-09-04 21:16:02'
'160', '1', '74', '74-160-1-RV.pdf', 'application/pdf', '322114', '74-159-3-SM.pdf', 'submission/review', '2', NULL, '2017-09-04 21:16:55', '2017-09-04 21:16:55'
'319', '1', '75', '75-319-1-RV.doc', 'application/msword', '458240', '75-318-1-SM.doc', 'submission/review', '2', NULL, '2017-09-29 20:45:02', '2017-09-29 20:45:02'
'318', '1', '75', '75-318-1-SM.doc', 'application/msword', '458240', 'ECODESIGN (Ihwan Ghazali).doc', 'submission/original', '2', NULL, '2017-09-29 20:44:36', '2017-09-29 20:44:36'
'161', '1', '76', '76-161-1-SM.pdf', 'application/pdf', '366483', 'ecodesign_2017 - cheng han.pdf', 'submission/original', '2', NULL, '2017-09-05 14:58:00', '2017-09-05 14:58:00'
'162', '1', '76', '76-162-1-RV.pdf', 'application/pdf', '366483', '76-161-1-SM.pdf', 'submission/review', '2', NULL, '2017-09-05 14:58:49', '2017-09-05 14:58:49'
'23', '1', '77', '77-23-1-SM.docx', 'application/vnd.openxmlformats-officedocument.wordprocessingml.document', '169427', 'Development of an Environmental Management System Framework for Hong Kong Higher Education Institutions.docx', 'submission/original', '2', NULL, '2017-05-26 15:20:59', '2017-05-26 15:20:59'
'24', '1', '77', '77-24-1-RV.docx', 'application/vnd.openxmlformats-officedocument.wordprocessingml.document', '169427', '77-23-1-SM.docx', 'submission/review', '2', NULL, '2017-05-26 15:22:05', '2017-05-26 15:22:05'
'180', '1', '77', '77-180-1-DR.docx', 'application/vnd.openxmlformats-officedocument.wordprocessingml.document', '169097', 'Final Paper - Development of an Environmental Management System Framework for Hong Kong Higher Education Institutions.docx', 'submission/director', '2', NULL, '2017-09-16 13:21:47', '2017-09-16 13:21:47'
'234', '1', '82', '82-234-1-SM.doc', 'application/msword', '966144', '170926_Application of environmental monitoring techniques for K-IPPC_Kim,JongMin.doc', 'submission/original', '2', NULL, '2017-09-27 08:49:09', '2017-09-27 08:49:09'
'235', '1', '82', '82-235-1-RV.doc', 'application/msword', '966144', '82-234-1-SM.doc', 'submission/review', '2', NULL, '2017-09-27 08:52:05', '2017-09-27 08:52:05'
'267', '1', '83', '83-267-1-RV.doc', 'application/msword', '1931264', '83-266-1-SM.doc', 'submission/review', '2', NULL, '2017-09-29 08:01:25', '2017-09-29 08:01:25'
'266', '1', '83', '83-266-1-SM.doc', 'application/msword', '1931264', 'Economic Analysis of Indoor Air Quality Management Service.doc', 'submission/original', '2', NULL, '2017-09-29 07:56:11', '2017-09-29 07:56:11'
'379', '1', '84', '84-379-1-SP.pdf', 'application/pdf', '3136930', 'SCN_0001.pdf', 'supp', '2', NULL, '2017-09-30 14:35:46', '2017-09-30 14:35:46'
'40', '1', '84', '84-40-1-SM.doc', 'application/msword', '656896', 'E-Book Chapman.doc', 'submission/original', '2', NULL, '2017-06-28 07:28:48', '2017-06-28 07:28:48'
'421', '1', '84', '84-421-1-SP.docx', 'application/vnd.openxmlformats-officedocument.wordprocessingml.document', '4439460', 'Chapman (84) Springer Format.docx', 'supp', '2', NULL, '2017-09-30 22:35:17', '2017-09-30 22:35:17'
'41', '1', '84', '84-41-1-RV.doc', 'application/msword', '656896', '84-40-1-SM.doc', 'submission/review', '2', NULL, '2017-06-28 07:29:04', '2017-06-28 07:29:04'
'74', '1', '85', '85-74-1-RV.docx', 'application/vnd.openxmlformats-officedocument.wordprocessingml.document', '156282', '85-73-3-SM.docx', 'submission/review', '2', NULL, '2017-07-08 15:58:03', '2017-07-08 15:58:03'
'349', '1', '85', '85-349-1-SP.PDF', 'application/pdf', '630902', 'Consent_to_Publish_(Springer)　HaoHU.PDF', 'supp', '2', NULL, '2017-09-30 11:06:33', '2017-09-30 11:06:33'
'339', '1', '85', '85-339-1-DR.docx', 'application/vnd.openxmlformats-officedocument.wordprocessingml.document', '172181', 'Draft_HU - Revision.docx', 'submission/director', '2', NULL, '2017-09-30 08:26:36', '2017-09-30 08:26:36'
'367', '1', '85', '85-367-1-SP.pdf', 'application/pdf', '353923', 'Description of the paper revisions.pdf', 'supp', '2', NULL, '2017-09-30 12:54:27', '2017-09-30 12:54:27'
'73', '3', '85', '85-73-3-SM.docx', 'application/vnd.openxmlformats-officedocument.wordprocessingml.document', '156282', 'Draft_HU - Final.docx', 'submission/original', '2', NULL, '2017-07-08 15:57:05', '2017-07-08 15:57:05'
'341', '1', '85', '85-341-1-SP.docx', 'application/vnd.openxmlformats-officedocument.wordprocessingml.document', '2529669', 'Draft_HU - Springer.docx', 'supp', '2', NULL, '2017-09-30 09:58:24', '2017-09-30 09:58:24'
'68', '1', '86', '86-68-1-RV.pdf', 'application/pdf', '124866', '86-67-1-SM.pdf', 'submission/review', '2', NULL, '2017-07-08 00:59:03', '2017-07-08 00:59:03'
'336', '1', '86', '86-336-1-SP.pdf', 'application/pdf', '1506024', 'Concent to Publish_Springer_EcoDesign2017_paper_Paulson Sundin.pdf', 'supp', '2', NULL, '2017-09-30 03:24:58', '2017-09-30 03:24:58'
'148', '1', '86', '86-148-1-RV.pdf', 'application/pdf', '264332', '86-68-1-RV reviewed by Chen-Fu Chen-1.pdf', 'submission/review', '2', NULL, '2017-08-18 11:22:03', '2017-08-18 11:22:03'
'337', '1', '86', '86-337-1-SP.docx', 'application/vnd.openxmlformats-officedocument.wordprocessingml.document', '3139232', 'Paulson Sundin 2017 (Springer) Challenges when including sustainability aspects in product development at two large manufa.docx', 'supp', '2', NULL, '2017-09-30 03:29:29', '2017-09-30 03:29:29'
'67', '1', '86', '86-67-1-SM.pdf', 'application/pdf', '124866', 'Paulson Sundin 2017 Challenges when including SustAspects in PD 20170707.pdf', 'submission/original', '2', NULL, '2017-07-08 00:57:52', '2017-07-08 00:57:52'
'335', '1', '86', '86-335-1-DR.pdf', 'application/pdf', '127996', 'Paulson Sundin 2017 (Ecodesign) Challenges when including sustainability aspects in product development at two large manufa.pdf', 'submission/director', '2', NULL, '2017-09-30 03:17:31', '2017-09-30 03:17:31'
'338', '1', '86', '86-338-1-SP.pdf', 'application/pdf', '30155', 'Revisions made_Paulson Sundin 2017 Challenges when including sustainability aspects in product development at two large man.pdf', 'supp', '2', NULL, '2017-09-30 03:31:19', '2017-09-30 03:31:19'
'457', '1', '89', '89-457-1-SP.pdf', 'application/pdf', '762131', 'Ecodesign_2017_Clemm_etal_Circular_Economy_Product_Design_FINAL_PROCEEDINGS.pdf', 'supp', '2', NULL, '2017-10-02 16:44:04', '2017-10-02 16:44:04'
'136', '1', '89', '89-136-1-SM.doc', 'application/msword', '1841152', 'Ecodesign_2017_Clemm_etal_Circular_Economy_Product_Design_(submit).doc', 'submission/original', '2', NULL, '2017-07-21 01:01:53', '2017-07-21 01:01:53'
'455', '1', '89', '89-455-1-SP.pdf', 'application/pdf', '441983', 'Description of the paper revisions (paper #89 Clemm).pdf', 'supp', '2', NULL, '2017-10-02 16:41:39', '2017-10-02 16:41:39'
'137', '1', '89', '89-137-1-RV.doc', 'application/msword', '1841152', '89-136-1-SM.doc', 'submission/review', '2', NULL, '2017-07-21 01:02:06', '2017-07-21 01:02:06'
'456', '1', '89', '89-456-1-SP.pdf', 'application/pdf', '1010059', 'Ecodesign_2017_Clemm_etal_Circular_Economy_Product_Design_FINAL_EBOOK.pdf', 'supp', '2', NULL, '2017-10-02 16:43:07', '2017-10-02 16:43:07'
'454', '1', '89', '89-454-1-SP.pdf', 'application/pdf', '1398803', 'Consent_to_Publish__89_Christian_signed.pdf', 'supp', '2', NULL, '2017-10-02 16:40:47', '2017-10-02 16:40:47'
'201', '1', '92', '92-201-1-SM.pdf', 'application/pdf', '408622', 'Eco-design methods applied the scenario analysis of lifestyle research.pdf', 'submission/original', '2', NULL, '2017-09-19 17:27:11', '2017-09-19 17:27:11'
'203', '1', '92', '92-203-1-RV.pdf', 'application/pdf', '408622', '92-201-1-SM.pdf', 'submission/review', '2', NULL, '2017-09-19 17:27:45', '2017-09-19 17:27:45'
'198', '2', '93', '93-198-2-SM.pdf', 'application/pdf', '458344', 'Trust-Factor Analysis of Green Brand for Food Enterprise From Consumer Point of View.pdf', 'submission/original', '2', NULL, '2017-09-19 17:25:30', '2017-09-19 17:25:30'
'202', '1', '93', '93-202-1-RV.pdf', 'application/pdf', '458344', '93-198-2-SM.pdf', 'submission/review', '2', NULL, '2017-09-19 17:27:43', '2017-09-19 17:27:43'
'157', '1', '94', '94-157-1-RV.pdf', 'application/pdf', '233441', '94-156-2-SM.pdf', 'submission/review', '2', NULL, '2017-09-04 08:49:35', '2017-09-04 08:49:35'
'156', '2', '94', '94-156-2-SM.pdf', 'application/pdf', '233441', 'Komenami et al_reviesed.pdf', 'submission/original', '2', NULL, '2017-09-04 08:49:05', '2017-09-04 08:49:05'
'121', '1', '95', '95-121-1-RV.doc', 'application/msword', '348160', '95-120-1-SM.doc', 'submission/review', '2', NULL, '2017-07-10 21:39:09', '2017-07-10 21:39:09'
'120', '1', '95', '95-120-1-SM.doc', 'application/msword', '348160', 'Energy-Metering Systems for Digital Factory Twins - Full Text v3.1.doc', 'submission/original', '2', NULL, '2017-07-10 21:38:50', '2017-07-10 21:38:50'
'199', '1', '96', '96-199-1-SM.pdf', 'application/pdf', '389531', 'Factor Analysis of Packaging Visual Design for Happiness on Organic Food – Middle-aged and Elderly as Example.pdf', 'submission/original', '2', NULL, '2017-09-19 17:20:32', '2017-09-19 17:20:32'
'200', '1', '96', '96-200-1-RV.pdf', 'application/pdf', '389531', '96-199-1-SM.pdf', 'submission/review', '2', NULL, '2017-09-19 17:23:17', '2017-09-19 17:23:17'
'163', '1', '97', '97-163-1-RV.docx', 'application/vnd.openxmlformats-officedocument.wordprocessingml.document', '21961', 'paper 97-135-1-RV - comments - Shen.docx', 'submission/review', '2', NULL, '2017-09-05 18:12:03', '2017-09-05 18:12:03'
'134', '3', '97', '97-134-3-SM.doc', 'application/msword', '1759232', 'ecodesign2017 paper Nissen et al (submit).doc', 'submission/original', '2', NULL, '2017-07-21 00:59:00', '2017-07-21 00:59:00'
'135', '1', '97', '97-135-1-RV.doc', 'application/msword', '1759232', '97-134-3-SM.doc', 'submission/review', '2', NULL, '2017-07-21 00:59:30', '2017-07-21 00:59:30'
'363', '1', '100', '100-363-1-DR.doc', 'application/msword', '5270016', 'Final paper Eco2017_gwyntorn.doc', 'submission/director', '2', NULL, '2017-09-30 12:30:29', '2017-09-30 12:30:29'
'366', '1', '100', '100-366-1-SP.pdf', 'application/pdf', '531927', '2.4_Consent_to_Publish_(Springer).pdf', 'supp', '2', NULL, '2017-09-30 12:45:06', '2017-09-30 12:45:06'
'71', '1', '100', '100-71-1-SM.pdf', 'application/pdf', '777065', '2.1_Final paper Eco2017_gwyntorn.pdf', 'submission/original', '2', NULL, '2017-07-08 15:24:01', '2017-07-08 15:24:01'
'363', '2', '100', '100-363-2-DR.pdf', 'application/pdf', '338272', 'Final paper Eco2017_gwyntorn.pdf', 'submission/director', '2', NULL, '2017-09-30 12:33:29', '2017-09-30 12:33:29'
'72', '1', '100', '100-72-1-RV.pdf', 'application/pdf', '777065', '100-71-1-SM.pdf', 'submission/review', '2', NULL, '2017-07-08 15:25:57', '2017-07-08 15:25:57'
'365', '1', '100', '100-365-1-SP.docx', 'application/vnd.openxmlformats-officedocument.wordprocessingml.document', '693268', '2.3_Final paper Springer_gwyntorn.docx', 'supp', '2', NULL, '2017-09-30 12:42:47', '2017-09-30 12:42:47'
'401', '1', '101', '101-401-1-DR.pdf', 'application/pdf', '1331163', 'Proc_inano_ecodesign2017_4.pdf', 'submission/director', '2', NULL, '2017-09-30 21:48:18', '2017-09-30 21:48:18'
'53', '1', '101', '101-53-1-SM.docx', 'application/vnd.openxmlformats-officedocument.wordprocessingml.document', '889344', 'エコデProc提出用170704段組変更.docx', 'submission/original', '2', NULL, '2017-07-04 17:26:56', '2017-07-04 17:26:56'
'417', '2', '101', '101-417-2-SP.docx', 'application/vnd.openxmlformats-officedocument.wordprocessingml.document', '5137067', 'Springer_inano_2017.docx', 'supp', '2', NULL, '2017-09-30 22:11:01', '2017-09-30 22:11:01'
'57', '1', '101', '101-57-1-RV.docx', 'application/vnd.openxmlformats-officedocument.wordprocessingml.document', '889344', '101-53-1-SM.docx', 'submission/review', '2', NULL, '2017-07-05 13:53:28', '2017-07-05 13:53:28'
'422', '1', '101', '101-422-1-SP.pdf', 'application/pdf', '249515', 'consent_to_publish_inano.pdf', 'supp', '2', NULL, '2017-09-30 22:39:04', '2017-09-30 22:39:04'
'174', '1', '102', '102-174-1-SM.pdf', 'application/pdf', '260874', 'Paper Recycling as a Service Ecodesign 2017.pdf', 'submission/original', '2', NULL, '2017-09-14 11:49:18', '2017-09-14 11:49:18'
'175', '1', '102', '102-175-1-RV.pdf', 'application/pdf', '260874', '102-174-1-SM.pdf', 'submission/review', '2', NULL, '2017-09-14 11:49:47', '2017-09-14 11:49:47'
'155', '1', '105', '105-155-1-SM.pdf', 'application/pdf', '658719', 'Design and LCA of food packaging focusing on their protective effect izumi.pdf', 'submission/original', '2', NULL, '2017-08-31 17:10:59', '2017-08-31 17:10:59'
'91', '1', '106', '106-91-1-SM.doc', 'application/msword', '113152', 'manuscript for reviewing.doc', 'submission/original', '2', NULL, '2017-07-10 09:05:09', '2017-07-10 09:05:09'
'254', '2', '106', '106-254-2-DR.docx', 'application/vnd.openxmlformats-officedocument.wordprocessingml.document', '18801', 'Replies_to_reviewers.docx', 'submission/director', '2', NULL, '2017-09-28 08:36:14', '2017-09-28 08:36:14'
'92', '1', '106', '106-92-1-RV.doc', 'application/msword', '113152', '106-91-1-SM.doc', 'submission/review', '2', NULL, '2017-07-10 09:08:04', '2017-07-10 09:08:04'
'254', '3', '106', '106-254-3-DR.docx', 'application/vnd.openxmlformats-officedocument.wordprocessingml.document', '1877451', '106-92-1-RV2(springer_format).docx', 'submission/director', '2', NULL, '2017-09-28 08:36:57', '2017-09-28 08:36:57'
'254', '1', '106', '106-254-1-DR.doc', 'application/msword', '119296', '106-92-1-RV2.doc', 'submission/director', '2', NULL, '2017-09-28 08:33:59', '2017-09-28 08:33:59'
'254', '4', '106', '106-254-4-DR.pdf', 'application/pdf', '2603285', 'Consent_to_Publish_Masui.pdf', 'submission/director', '2', NULL, '2017-09-28 08:37:22', '2017-09-28 08:37:22'
'224', '1', '109', '109-224-1-SM.pdf', 'application/pdf', '170516', 'Key Findings on Potential Environmental Impacts of Tablet PC_F_Samsung.pdf', 'submission/original', '2', NULL, '2017-09-26 12:08:53', '2017-09-26 12:08:53'
'225', '1', '109', '109-225-1-RV.pdf', 'application/pdf', '170516', '109-224-1-SM.pdf', 'submission/review', '2', NULL, '2017-09-26 12:10:46', '2017-09-26 12:10:46'
'298', '1', '111', '111-298-1-SP.pdf', 'application/pdf', '324859', 'Consent_to_Publish_(Springer).pdf', 'supp', '2', NULL, '2017-09-29 16:38:44', '2017-09-29 16:38:44'
'106', '1', '111', '111-106-1-RV.pdf', 'application/pdf', '213806', '111-105-1-SM.pdf', 'submission/review', '2', NULL, '2017-07-10 14:53:22', '2017-07-10 14:53:22'
'296', '1', '111', '111-296-1-DR.pdf', 'application/pdf', '215418', 'EcoDesign2017 Proceedings.pdf', 'submission/director', '2', NULL, '2017-09-29 16:20:28', '2017-09-29 16:20:28'
'105', '1', '111', '111-105-1-SM.pdf', 'application/pdf', '213806', 'EcoDesign2017.pdf', 'submission/original', '2', NULL, '2017-07-10 14:52:08', '2017-07-10 14:52:08'
'297', '1', '111', '111-297-1-SP.docx', 'application/vnd.openxmlformats-officedocument.wordprocessingml.document', '56874', 'EcoDesign 2017 eBook.docx', 'supp', '2', NULL, '2017-09-29 16:34:56', '2017-09-29 16:34:56'
'164', '1', '113', '113-164-1-RV.docx', 'application/vnd.openxmlformats-officedocument.wordprocessingml.document', '19225', 'paper 113-46-1-RV - comments - Shen.docx', 'submission/review', '2', NULL, '2017-09-05 23:13:28', '2017-09-05 23:13:28'
'45', '1', '113', '113-45-1-SM.doc', 'application/msword', '159232', 'Towards a Circular Economy：An Analysis of Innovation in Taiwanese SME.doc', 'submission/original', '2', NULL, '2017-06-29 08:40:19', '2017-06-29 08:40:19'
'164', '2', '113', '113-164-2-RV.docx', 'application/vnd.openxmlformats-officedocument.wordprocessingml.document', '14538', 'paper 113-46-1-RV - comments - Shen.docx', 'submission/review', '2', NULL, '2017-09-05 23:23:45', '2017-09-05 23:23:45'
'46', '1', '113', '113-46-1-RV.doc', 'application/msword', '159232', '113-45-1-SM.doc', 'submission/review', '2', NULL, '2017-06-29 08:43:42', '2017-06-29 08:43:42'
'177', '1', '113', '113-177-1-DR.doc', 'application/msword', '159232', 'Towards a Circular Economy：An Analysis of Innovation in Taiwanese SME.doc', 'submission/director', '2', NULL, '2017-09-15 16:36:05', '2017-09-15 16:36:05'
'171', '1', '115', '115-171-1-SM.pdf', 'application/pdf', '935737', '170913_Full Paper_RS_EcoDesign 2017.pdf', 'submission/original', '2', NULL, '2017-09-13 17:22:49', '2017-09-13 17:22:49'
'172', '1', '115', '115-172-1-RV.pdf', 'application/pdf', '935737', '115-171-1-SM.pdf', 'submission/review', '2', NULL, '2017-09-13 17:23:50', '2017-09-13 17:23:50'
'233', '1', '117', '117-233-1-RV.doc', 'application/msword', '1664000', '117-232-1-SM.doc', 'submission/review', '2', NULL, '2017-09-27 01:52:20', '2017-09-27 01:52:20'
'232', '1', '117', '117-232-1-SM.doc', 'application/msword', '1664000', 'Conference Paper Ecodesign Taiwan.doc', 'submission/original', '2', NULL, '2017-09-27 01:51:53', '2017-09-27 01:51:53'
'273', '4', '119', '119-273-4-SM.doc', 'application/msword', '749568', 'Study on the Attractive Factor of Environmental Bamboo Products.doc', 'submission/original', '2', NULL, '2017-09-29 12:49:59', '2017-09-29 12:49:59'
'274', '1', '119', '119-274-1-RV.doc', 'application/msword', '749568', '119-273-4-SM.doc', 'submission/review', '2', NULL, '2017-09-29 12:53:57', '2017-09-29 12:53:57'
'30', '1', '120', '120-30-1-SM.docx', 'application/vnd.openxmlformats-officedocument.wordprocessingml.document', '2664026', 'Sustainability think design think CLEAN.docx', 'submission/original', '2', NULL, '2017-06-16 16:10:49', '2017-06-16 16:10:49'
'409', '1', '120', '120-409-1-SP.pdf', 'application/pdf', '1822011', 'Permission to publish.pdf', 'supp', '2', NULL, '2017-09-30 21:06:20', '2017-09-30 21:06:20'
'31', '1', '120', '120-31-1-RV.docx', 'application/vnd.openxmlformats-officedocument.wordprocessingml.document', '2664026', '120-30-1-SM.docx', 'submission/review', '2', NULL, '2017-06-16 16:12:16', '2017-06-16 16:12:16'
'412', '1', '120', '120-412-1-SP.docx', 'application/vnd.openxmlformats-officedocument.wordprocessingml.document', '4780081', 'EcoDesign2017 Springer version -Sust dev design thinking.docx', 'supp', '2', NULL, '2017-09-30 21:36:47', '2017-09-30 21:36:47'
'334', '1', '120', '120-334-1-DR.docx', 'application/vnd.openxmlformats-officedocument.wordprocessingml.document', '2666778', 'Gould et al Sust dev design thinking.docx', 'submission/director', '2', NULL, '2017-09-30 02:10:32', '2017-09-30 02:10:32'
'223', '1', '122', '122-223-1-RV.pdf', 'application/pdf', '896348', '122-221-1-SM.pdf', 'submission/review', '2', NULL, '2017-09-25 22:31:48', '2017-09-25 22:31:48'
'346', '1', '122', '122-346-1-DR.pdf', 'application/pdf', '896348', 'R1706646-2A_taka_v07i_s.pdf', 'submission/director', '2', NULL, '2017-09-30 10:46:38', '2017-09-30 10:46:38'
'221', '1', '122', '122-221-1-SM.pdf', 'application/pdf', '896348', 'R1706646-2A_taka_v07i_s.pdf', 'submission/original', '2', NULL, '2017-09-25 22:16:23', '2017-09-25 22:16:23'
'65', '1', '125', '125-65-1-RV.pdf', 'application/pdf', '506659', '125-64-1-SM.pdf', 'submission/review', '2', NULL, '2017-07-07 17:31:36', '2017-07-07 17:31:36'
'64', '1', '125', '125-64-1-SM.pdf', 'application/pdf', '506659', 'SHOTAKONDO.pdf', 'submission/original', '2', NULL, '2017-07-07 17:31:27', '2017-07-07 17:31:27'
'63', '1', '126', '126-63-1-RV.doc', 'application/msword', '390144', '126-62-1-SM.doc', 'submission/review', '2', NULL, '2017-07-07 17:30:13', '2017-07-07 17:30:13'
'176', '1', '126', '126-176-1-RV.docx', 'application/vnd.openxmlformats-officedocument.wordprocessingml.document', '14155', 'Review comments for the paper No 126.docx', 'submission/review', '2', NULL, '2017-09-15 11:41:50', '2017-09-15 11:41:50'
'62', '1', '126', '126-62-1-SM.doc', 'application/msword', '390144', 'Kiyofumi_Sato_2017.doc', 'submission/original', '2', NULL, '2017-07-07 17:30:02', '2017-07-07 17:30:02'
'70', '1', '127', '127-70-1-RV.pdf', 'application/pdf', '1337574', '127-69-2-SM.pdf', 'submission/review', '2', NULL, '2017-07-08 11:15:44', '2017-07-08 11:15:44'
'69', '2', '127', '127-69-2-SM.pdf', 'application/pdf', '1337574', 'Full paper - Xiuyue Zhang.pdf', 'submission/original', '2', NULL, '2017-07-08 11:07:31', '2017-07-08 11:07:31'
'434', '1', '128', '128-434-1-SP.doc', 'application/msword', '602624', 'The research for the eco-efficiency assessment of cosmetics containers_Ebook paper V1.doc', 'supp', '2', NULL, '2017-09-30 23:28:22', '2017-09-30 23:28:22'
'126', '2', '128', '128-126-2-SM.doc', 'application/msword', '523264', 'The research for the eco-efficiency assessment of cosmetics containers_Ebook paper.doc', 'submission/original', '2', NULL, '2017-07-10 23:35:08', '2017-07-10 23:35:08'
'437', '1', '128', '128-437-1-DR.doc', 'application/msword', '602624', 'The research for the eco-efficiency assessment of cosmetics containers_Ebook paper V1.doc', 'submission/director', '2', NULL, '2017-09-30 23:32:25', '2017-09-30 23:32:25'
'127', '1', '128', '128-127-1-RV.doc', 'application/msword', '523264', '128-126-2-SM.doc', 'submission/review', '2', NULL, '2017-07-10 23:35:28', '2017-07-10 23:35:28'
'279', '1', '129', '129-279-1-SM.pdf', 'application/pdf', '266297', 'The Development Trends of International Green Certification and the Experience to Assist Taiwanese Corporations.pdf', 'submission/original', '2', NULL, '2017-09-29 14:31:09', '2017-09-29 14:31:09'
'60', '1', '130', '130-60-1-SM.doc', 'application/msword', '663552', 'yasukowatanabe_2017.doc', 'submission/original', '2', NULL, '2017-07-07 17:24:58', '2017-07-07 17:24:58'
'61', '1', '130', '130-61-1-RV.doc', 'application/msword', '663552', '130-60-1-SM.doc', 'submission/review', '2', NULL, '2017-07-07 17:25:17', '2017-07-07 17:25:17'
'344', '1', '130', '130-344-1-SP.docx', 'application/vnd.openxmlformats-officedocument.wordprocessingml.document', '2860300', 'yasukowatanabe_2017_sample2.docx', 'supp', '2', NULL, '2017-09-30 10:33:54', '2017-09-30 10:33:54'
'342', '1', '130', '130-342-1-DR.pdf', 'application/pdf', '393338', 'yasukowatanabe_2017_submission_RV2.pdf', 'submission/director', '2', NULL, '2017-09-30 10:25:37', '2017-09-30 10:25:37'
'345', '1', '130', '130-345-1-SP.pdf', 'application/pdf', '1944772', 'Consent of publish.pdf', 'supp', '2', NULL, '2017-09-30 10:36:49', '2017-09-30 10:36:49'
'343', '1', '130', '130-343-1-SP.pdf', 'application/pdf', '34932', 'Description of the paper revisions_yasukowatanabe.pdf', 'supp', '2', NULL, '2017-09-30 10:31:56', '2017-09-30 10:31:56'
'282', '1', '132', '132-282-1-RV.pdf', 'application/pdf', '220916', '132-281-1-SM.pdf', 'submission/review', '2', NULL, '2017-09-29 14:41:52', '2017-09-29 14:41:52'
'286', '1', '132', '132-286-1-DR.pdf', 'application/pdf', '220916', 'Ecodesign2017Komoto_v03.pdf', 'submission/director', '2', NULL, '2017-09-29 15:00:07', '2017-09-29 15:00:07'
'281', '1', '132', '132-281-1-SM.pdf', 'application/pdf', '220916', 'Ecodesign2017Komoto_v03.pdf', 'submission/original', '2', NULL, '2017-09-29 14:39:59', '2017-09-29 14:39:59'
'300', '1', '134', '134-300-1-SP.doc', 'application/msword', '202752', 'ED_2017kondohSubmit.doc', 'supp', '2', NULL, '2017-09-29 16:57:31', '2017-09-29 16:57:31'
'301', '1', '134', '134-301-1-RV.pdf', 'application/pdf', '711807', '134-299-1-SM.pdf', 'submission/review', '2', NULL, '2017-09-29 17:01:09', '2017-09-29 17:01:09'
'299', '1', '134', '134-299-1-SM.pdf', 'application/pdf', '711807', 'ED2017KondohSubmit.pdf', 'submission/original', '2', NULL, '2017-09-29 16:55:15', '2017-09-29 16:55:15'
'459', '1', '135', '135-459-1-SP.doc', 'application/msword', '1532928', '135-93-1-SM_final.doc', 'supp', '2', NULL, '2017-10-02 16:47:33', '2017-10-02 16:47:33'
'94', '1', '135', '135-94-1-RV.doc', 'application/msword', '1531392', '135-93-1-SM.doc', 'submission/review', '2', NULL, '2017-07-10 09:22:17', '2017-07-10 09:22:17'
'458', '1', '135', '135-458-1-SP.pdf', 'application/pdf', '2729626', 'Consent_signed.pdf', 'supp', '2', NULL, '2017-10-02 16:46:24', '2017-10-02 16:46:24'
'93', '1', '135', '135-93-1-SM.doc', 'application/msword', '1531392', 'Framework_CFP_blockchain.doc', 'submission/original', '2', NULL, '2017-07-10 09:21:34', '2017-07-10 09:21:34'
'25', '10', '137', '137-25-10-SM.pdf', 'application/pdf', '379206', 'Yuyin, Chen.pdf', 'submission/original', '2', NULL, '2017-09-25 00:10:54', '2017-09-25 00:10:54'
'214', '1', '137', '137-214-1-RV.pdf', 'application/pdf', '379206', '137-25-10-SM.pdf', 'submission/review', '2', NULL, '2017-09-25 00:11:57', '2017-09-25 00:11:57'
'66', '1', '138', '138-66-1-SM.pdf', 'application/pdf', '355356', 'E_Book_Ecodesign_2017_T_Ishiyama.pdf', 'submission/original', '2', NULL, '2017-07-07 17:32:21', '2017-07-07 17:32:21'
'194', '1', '138', '138-194-1-RV.pdf', 'application/pdf', '355356', '138-66-1-SM.pdf', 'submission/review', '2', NULL, '2017-09-19 12:47:25', '2017-09-19 12:47:25'
'420', '1', '141', '141-420-1-RV.docx', 'application/vnd.openxmlformats-officedocument.wordprocessingml.document', '37074', '141-419-1-SM.docx', 'submission/review', '2', NULL, '2017-09-30 22:12:15', '2017-09-30 22:12:15'
'419', '1', '141', '141-419-1-SM.docx', 'application/vnd.openxmlformats-officedocument.wordprocessingml.document', '37074', 'Discussion on the Sustainable Design of Healing Products.docx', 'submission/original', '2', NULL, '2017-09-30 22:11:23', '2017-09-30 22:11:23'
'314', '1', '142', '142-314-1-SM.pdf', 'application/pdf', '315584', 'EcoDesign_proceeding_Chen.pdf', 'submission/original', '2', NULL, '2017-09-29 19:47:01', '2017-09-29 19:47:01'
'315', '1', '142', '142-315-1-RV.pdf', 'application/pdf', '315584', '142-314-1-SM.pdf', 'submission/review', '2', NULL, '2017-09-29 19:47:37', '2017-09-29 19:47:37'
'230', '1', '148', '148-230-1-SP.pdf', 'application/pdf', '2611968', 'SPRINGER Consent to publish Ecodesign 2017.pdf', 'supp', '2', NULL, '2017-09-27 00:37:33', '2017-09-27 00:37:33'
'220', '3', '148', '148-220-3-SM.pdf', 'application/pdf', '1024108', 'ED17_Article_RR Indicator Calculation_FINAL.pdf', 'submission/original', '2', NULL, '2017-09-27 00:21:49', '2017-09-27 00:21:49'
'231', '1', '148', '148-231-1-RV.pdf', 'application/pdf', '1024108', '148-220-3-SM.pdf', 'submission/review', '2', NULL, '2017-09-27 00:39:52', '2017-09-27 00:39:52'
'229', '1', '148', '148-229-1-SP.doc', 'application/msword', '3073024', 'ED17_Article_RR Indicator Calculation_FINAL (Springer).doc', 'supp', '2', NULL, '2017-09-27 00:36:45', '2017-09-27 00:36:45'
'313', '1', '149', '149-313-1-RV.doc', 'application/msword', '441856', '149-312-2-SM.doc', 'submission/review', '2', NULL, '2017-09-29 19:44:32', '2017-09-29 19:44:32'
'312', '2', '149', '149-312-2-SM.doc', 'application/msword', '441856', 'Estimation of lifetime functions of plastic products.doc', 'submission/original', '2', NULL, '2017-09-29 19:43:13', '2017-09-29 19:43:13'
'407', '1', '151', '151-407-1-SM.docx', 'application/vnd.openxmlformats-officedocument.wordprocessingml.document', '691993', 'Full Paper-3D Printing.docx', 'submission/original', '2', NULL, '2017-09-30 21:04:02', '2017-09-30 21:04:02'
'408', '1', '151', '151-408-1-RV.docx', 'application/vnd.openxmlformats-officedocument.wordprocessingml.document', '691993', '151-407-1-SM.docx', 'submission/review', '2', NULL, '2017-09-30 21:04:22', '2017-09-30 21:04:22'
'331', '1', '152', '152-331-1-SM.docx', 'application/vnd.openxmlformats-officedocument.wordprocessingml.document', '208772', 'Full Paper-AIS Base Station Location-r1.docx', 'submission/original', '2', NULL, '2017-09-30 01:33:27', '2017-09-30 01:33:27'
'333', '1', '152', '152-333-1-RV.docx', 'application/vnd.openxmlformats-officedocument.wordprocessingml.document', '208772', '152-331-1-SM.docx', 'submission/review', '2', NULL, '2017-09-30 01:44:16', '2017-09-30 01:44:16'
'277', '1', '153', '153-277-1-RV.doc', 'application/msword', '279040', '153-276-1-SM.doc', 'submission/review', '2', NULL, '2017-09-29 13:40:48', '2017-09-29 13:40:48'
'276', '1', '153', '153-276-1-SM.doc', 'application/msword', '279040', 'yilin.doc', 'submission/original', '2', NULL, '2017-09-29 13:40:24', '2017-09-29 13:40:24'
'410', '1', '154', '154-410-1-SP.docx', 'application/vnd.openxmlformats-officedocument.wordprocessingml.document', '2514068', 'Springer -Designing sustainable functional economy business models - takeaways from a case study in the small household eq.docx', 'supp', '2', NULL, '2017-09-30 21:15:57', '2017-09-30 21:15:57'
'388', '1', '154', '154-388-1-DR.docx', 'application/vnd.openxmlformats-officedocument.wordprocessingml.document', '96583', 'designing sustainable functional economy business models - takeaways from a case study in the small household equipment in.docx', 'submission/director', '2', NULL, '2017-09-30 21:21:16', '2017-09-30 21:21:16'
'411', '1', '154', '154-411-1-SP.pdf', 'application/pdf', '483428', 'Springer -Designing sustainable functional economy business models - takeaways from a case study in the small household equ.pdf', 'supp', '2', NULL, '2017-09-30 21:16:44', '2017-09-30 21:16:44'
'49', '1', '154', '154-49-1-SM.pdf', 'application/pdf', '471418', 'Designing sustainable functional economy business models - takeaways from a case study in the small household equipment ind.pdf', 'submission/original', '2', NULL, '2017-07-01 17:53:13', '2017-07-01 17:53:13'
'389', '1', '154', '154-389-1-SP.pdf', 'application/pdf', '298753', 'Consent_to_Publish_(Springer)_Edvin_Lindgren.pdf', 'supp', '2', NULL, '2017-09-30 16:09:08', '2017-09-30 16:09:08'
'50', '1', '154', '154-50-1-RV.pdf', 'application/pdf', '471418', '154-49-1-SM.pdf', 'submission/review', '2', NULL, '2017-07-01 17:54:17', '2017-07-01 17:54:17'
'55', '1', '156', '156-55-1-RV.doc', 'application/msword', '776192', '156-54-1-SM.doc', 'submission/review', '2', NULL, '2017-07-05 00:36:21', '2017-07-05 00:36:21'
'213', '1', '156', '156-213-1-SP.docx', 'application/vnd.openxmlformats-officedocument.wordprocessingml.document', '2175919', 'ID156-e-book format-final.docx', 'supp', '2', NULL, '2017-09-22 17:05:52', '2017-09-22 17:05:52'
'204', '1', '156', '156-204-1-DR.doc', 'application/msword', '775680', '156-55-1-final.doc', 'submission/director', '2', NULL, '2017-09-20 15:56:44', '2017-09-20 15:56:44'
'54', '1', '156', '156-54-1-SM.doc', 'application/msword', '776192', 'ED-Mishima_2017.doc', 'submission/original', '2', NULL, '2017-07-05 00:35:55', '2017-07-05 00:35:55'
'208', '1', '156', '156-208-1-SP.pdf', 'application/pdf', '2268569', 'Consent to publish ID156.pdf', 'supp', '2', NULL, '2017-09-20 16:36:27', '2017-09-20 16:36:27'
'140', '1', '157', '157-140-1-RV.docx', 'application/vnd.openxmlformats-officedocument.wordprocessingml.document', '13235', 'Review of e-waste.docx', 'submission/review', '2', NULL, '2017-08-01 04:42:46', '2017-08-01 04:42:46'
'356', '1', '157', '157-356-1-SP.pdf', 'application/pdf', '1408002', 'Consent to publish.pdf', 'supp', '2', NULL, '2017-09-30 11:41:24', '2017-09-30 11:41:24'
'75', '1', '157', '157-75-1-SM.pdf', 'application/pdf', '382465', 'Modeling and analysis of material flow towards better e-waste recycling system in Malaysia.pdf', 'submission/original', '2', NULL, '2017-07-09 13:00:43', '2017-07-09 13:00:43'
'351', '1', '157', '157-351-1-DR.pdf', 'application/pdf', '290418', 'Modeling and analysis of material flow towards better e-waste recycling system in Malaysia.pdf', 'submission/director', '2', NULL, '2017-09-30 11:26:35', '2017-09-30 11:26:35'
'361', '1', '157', '157-361-1-SP.pdf', 'application/pdf', '100780', 'Review\'s Comment.pdf', 'supp', '2', NULL, '2017-09-30 12:07:59', '2017-09-30 12:07:59'
'76', '1', '157', '157-76-1-RV.pdf', 'application/pdf', '382465', '157-75-1-SM.pdf', 'submission/review', '2', NULL, '2017-07-09 13:01:03', '2017-07-09 13:01:03'
'354', '1', '157', '157-354-1-SP.docx', 'application/vnd.openxmlformats-officedocument.wordprocessingml.document', '3803090', 'Springer Ebook - Modeling and analysis of material flow towards better e-waste recycling system in Malaysia.docx', 'supp', '2', NULL, '2017-09-30 11:38:34', '2017-09-30 11:38:34'
'251', '1', '158', '158-251-1-RV.doc', 'application/msword', '117248', '158-250-1-SM.doc', 'submission/review', '2', NULL, '2017-09-27 20:02:41', '2017-09-27 20:02:41'
'250', '1', '158', '158-250-1-SM.doc', 'application/msword', '117248', '2017 Recycled Ocean Plastic Product Design for Local Based Remanufacturing Technology.doc', 'submission/original', '2', NULL, '2017-09-27 20:01:36', '2017-09-27 20:01:36'
'359', '1', '159', '159-359-1-SM.pdf', 'application/pdf', '602329', 'iNEMI EcoDesign Paper - HDDs and Circular Economy Final.pdf', 'submission/original', '2', NULL, '2017-09-30 11:57:03', '2017-09-30 11:57:03'
'360', '1', '159', '159-360-1-RV.pdf', 'application/pdf', '602329', '159-359-1-SM.pdf', 'submission/review', '2', NULL, '2017-09-30 11:57:14', '2017-09-30 11:57:14'
'109', '1', '161', '161-109-1-SM.pdf', 'application/pdf', '602373', 'Ecodesign_2017-Hirose2.pdf', 'submission/original', '2', NULL, '2017-07-10 16:05:54', '2017-07-10 16:05:54'
'168', '1', '161', '161-168-1-RV.docx', 'application/vnd.openxmlformats-officedocument.wordprocessingml.document', '19175', 'Comments-161.docx', 'submission/review', '2', NULL, '2017-09-07 00:01:13', '2017-09-07 00:01:13'
'391', '1', '161', '161-391-1-SP.pdf', 'application/pdf', '603868', 'Ecodesign_2017-Hirose-modified.pdf', 'supp', '2', NULL, '2017-09-30 16:18:14', '2017-09-30 16:18:14'
'110', '1', '161', '161-110-1-RV.pdf', 'application/pdf', '602373', '161-109-1-SM.pdf', 'submission/review', '2', NULL, '2017-07-10 16:06:09', '2017-07-10 16:06:09'
'362', '1', '161', '161-362-1-DR.pdf', 'application/pdf', '603868', 'Ecodesign_2017-Hirose-modified.pdf', 'submission/director', '2', NULL, '2017-09-30 12:14:09', '2017-09-30 12:14:09'
'154', '1', '161', '161-154-1-RV.docx', 'application/vnd.openxmlformats-officedocument.wordprocessingml.document', '69855', 'Review161.docx', 'submission/review', '2', NULL, '2017-08-29 18:55:08', '2017-08-29 18:55:08'
'390', '1', '161', '161-390-1-SP.pdf', 'application/pdf', '1396731', 'Consent_to_Publish_(Springer) .pdf', 'supp', '2', NULL, '2017-09-30 16:17:12', '2017-09-30 16:17:12'
'406', '1', '162', '162-406-1-SP.pdf', 'application/pdf', '2365484', 'copyright-chiba.pdf', 'supp', '2', NULL, '2017-09-30 19:05:58', '2017-09-30 19:05:58'
'116', '1', '162', '162-116-1-SM.pdf', 'application/pdf', '363914', 'EcoDesign_2017Chiba.pdf', 'submission/original', '2', NULL, '2017-07-10 21:25:09', '2017-07-10 21:25:09'
'405', '1', '162', '162-405-1-SP.docx', 'application/vnd.openxmlformats-officedocument.wordprocessingml.document', '2959186', 'Ecodesign2017-Chiba-Ebook.docx', 'supp', '2', NULL, '2017-09-30 19:04:36', '2017-09-30 19:04:36'
'117', '1', '162', '162-117-1-RV.pdf', 'application/pdf', '363914', '162-116-1-SM.pdf', 'submission/review', '2', NULL, '2017-07-10 21:25:22', '2017-07-10 21:25:22'
'102', '1', '164', '164-102-1-RV.doc', 'application/msword', '261632', '164-101-1-SM.doc', 'submission/review', '2', NULL, '2017-07-10 13:34:09', '2017-07-10 13:34:09'
'192', '1', '164', '164-192-1-DR.doc', 'application/msword', '262144', 'Attributes of carbon labelling_FINAL.doc', 'submission/director', '2', NULL, '2017-09-19 09:08:02', '2017-09-19 09:08:02'
'101', '1', '164', '164-101-1-SM.doc', 'application/msword', '261632', 'Carbon labelling_ebook_Khan and Lan.doc', 'submission/original', '2', NULL, '2017-07-10 13:33:41', '2017-07-10 13:33:41'
'428', '1', '170', '170-428-1-RV.doc', 'application/msword', '3356160', '170-427-1-SM.doc', 'submission/review', '2', NULL, '2017-09-30 23:05:44', '2017-09-30 23:05:44'
'427', '1', '170', '170-427-1-SM.doc', 'application/msword', '3356160', 'Akihiro Oikawa Proceeding Papaer.doc', 'submission/original', '2', NULL, '2017-09-30 23:05:06', '2017-09-30 23:05:06'
'264', '1', '172', '172-264-1-DR.pdf', 'application/pdf', '510981', 'Jute based Np.pdf', 'submission/director', '2', NULL, '2017-09-28 22:09:49', '2017-09-28 22:09:49'
'128', '2', '172', '172-128-2-SM.doc', 'application/msword', '417280', 'Sustainable Rotproof Nursery Pot.doc', 'submission/original', '2', NULL, '2017-07-12 01:56:14', '2017-07-12 01:56:14'
'129', '1', '172', '172-129-1-RV.doc', 'application/msword', '417280', '172-128-2-SM.doc', 'submission/review', '2', NULL, '2017-07-12 01:56:36', '2017-07-12 01:56:36'
'165', '1', '173', '173-165-1-SM.pdf', 'application/pdf', '444750', 'Ecodesign_2017 cheng jay.pdf', 'submission/original', '2', NULL, '2017-09-06 10:43:14', '2017-09-06 10:43:14'
'166', '1', '173', '173-166-1-RV.pdf', 'application/pdf', '444750', '173-165-1-SM.pdf', 'submission/review', '2', NULL, '2017-09-06 10:43:38', '2017-09-06 10:43:38'
'415', '1', '176', '176-415-1-SM.pdf', 'application/pdf', '354086', 'EcoDesign2017 Min-Hua Wu.pdf', 'submission/original', '2', NULL, '2017-09-30 22:01:53', '2017-09-30 22:01:53'
'418', '1', '176', '176-418-1-RV.pdf', 'application/pdf', '354086', '176-415-1-SM.pdf', 'submission/review', '2', NULL, '2017-09-30 22:08:20', '2017-09-30 22:08:20'
'430', '1', '176', '176-430-1-DR.pdf', 'application/pdf', '354086', 'EcoDesign2017 Min-Hua Wu.pdf', 'submission/director', '2', NULL, '2017-09-30 23:11:52', '2017-09-30 23:11:52'
'436', '1', '176', '176-436-1-SP.pdf', 'application/pdf', '4729567', '版權文件.pdf', 'supp', '2', NULL, '2017-09-30 23:29:09', '2017-09-30 23:29:09'
'215', '1', '178', '178-215-1-DR.pdf', 'application/pdf', '943189', 'full paper：Research on Ecological Aesthetics Design Strategy of Campus Landscape .pdf', 'submission/director', '2', NULL, '2017-09-25 00:46:08', '2017-09-25 00:46:08'
'179', '1', '182', '182-179-1-RV.pdf', 'application/pdf', '93689', '182-178-1-SM.pdf', 'submission/review', '2', NULL, '2017-09-15 23:02:26', '2017-09-15 23:02:26'
'178', '1', '182', '182-178-1-SM.pdf', 'application/pdf', '93689', 'Sakao.pdf', 'submission/original', '2', NULL, '2017-09-15 21:59:44', '2017-09-15 21:59:44'
'226', '1', '184', '184-226-1-DR.doc', 'application/msword', '465408', 'ATTH4YZ5.doc', 'submission/director', '2', NULL, '2017-09-26 16:13:10', '2017-09-26 16:13:10'
'32', '1', '184', '184-32-1-SM.doc', 'application/msword', '460800', 'Sample1_2017.doc', 'submission/original', '2', NULL, '2017-06-19 05:42:02', '2017-06-19 05:42:02'
'226', '2', '184', '184-226-2-DR.doc', 'application/msword', '465408', 'ATTH4YZ5.doc', 'submission/director', '2', NULL, '2017-09-26 16:18:05', '2017-09-26 16:18:05'
'33', '1', '184', '184-33-1-RV.doc', 'application/msword', '460800', '184-32-1-SM.doc', 'submission/review', '2', NULL, '2017-06-19 05:42:35', '2017-06-19 05:42:35'
'237', '1', '185', '185-237-1-SP.pdf', 'application/pdf', '420354', 'paper2_2017.pdf', 'supp', '2', NULL, '2017-09-27 10:07:22', '2017-09-27 10:07:22'
'238', '1', '185', '185-238-1-RV.pdf', 'application/pdf', '420354', '185-236-1-SM.pdf', 'submission/review', '2', NULL, '2017-09-27 10:08:04', '2017-09-27 10:08:04'
'236', '1', '185', '185-236-1-SM.pdf', 'application/pdf', '420354', 'paper2_2017.pdf', 'submission/original', '2', NULL, '2017-09-27 10:06:57', '2017-09-27 10:06:57'
'249', '1', '185', '185-249-1-SP.pdf', 'application/pdf', '419681', 'paper2_2017.pdf', 'supp', '2', NULL, '2017-09-27 17:51:10', '2017-09-27 17:51:10'
'205', '2', '188', '188-205-2-DR.pdf', 'application/pdf', '109692', 'Description of the paper revisions Juntao Wang.pdf', 'submission/director', '2', NULL, '2017-09-20 16:09:45', '2017-09-20 16:09:45'
'42', '1', '188', '188-42-1-SM.doc', 'application/msword', '268288', 'Ecodesign _2017_Juntao Wang .doc', 'submission/original', '2', NULL, '2017-06-28 08:38:51', '2017-06-28 08:38:51'
'206', '1', '188', '188-206-1-SP.docx', 'application/vnd.openxmlformats-officedocument.wordprocessingml.document', '2859771', 'Springer Format-Ecodesign2017 Juntao Wang.docx', 'supp', '2', NULL, '2017-09-20 16:26:55', '2017-09-20 16:26:55'
'43', '1', '188', '188-43-1-RV.doc', 'application/msword', '268288', '188-42-1-SM.doc', 'submission/review', '2', NULL, '2017-06-28 08:42:07', '2017-06-28 08:42:07'
'167', '1', '188', '188-167-1-RV.docx', 'application/vnd.openxmlformats-officedocument.wordprocessingml.document', '19226', 'Comments-188.docx', 'submission/review', '2', NULL, '2017-09-06 23:17:00', '2017-09-06 23:17:00'
'205', '1', '188', '188-205-1-DR.pdf', 'application/pdf', '670873', 'Conference Format-Ecodesign2017 Juntao Wang.pdf', 'submission/director', '2', NULL, '2017-09-20 16:09:26', '2017-09-20 16:09:26'
'207', '1', '188', '188-207-1-SP.pdf', 'application/pdf', '209223', 'Consent to Publish(Springer) Juntao Wang.pdf', 'supp', '2', NULL, '2017-09-20 16:28:40', '2017-09-20 16:28:40'
'384', '1', '190', '190-384-1-SP.docx', 'application/vnd.openxmlformats-officedocument.wordprocessingml.document', '14373', 'Response to the reviewer (naito).docx', 'supp', '2', NULL, '2017-09-30 15:16:08', '2017-09-30 15:16:08'
'97', '1', '190', '190-97-1-SM.doc', 'application/msword', '702976', 'Ecodesign_2017-naito .doc', 'submission/original', '2', NULL, '2017-07-10 10:10:55', '2017-07-10 10:10:55'
'382', '1', '190', '190-382-1-SP.docx', 'application/vnd.openxmlformats-officedocument.wordprocessingml.document', '2395966', 'E-book #190.docx', 'supp', '2', NULL, '2017-09-30 15:14:49', '2017-09-30 15:14:49'
'385', '1', '190', '190-385-1-SP.pdf', 'application/pdf', '2355926', 'IMG_0002_NEW.pdf', 'supp', '2', NULL, '2017-09-30 15:16:40', '2017-09-30 15:16:40'
'98', '1', '190', '190-98-1-RV.doc', 'application/msword', '702976', '190-97-1-SM.doc', 'submission/review', '2', NULL, '2017-07-10 10:11:17', '2017-07-10 10:11:17'
'383', '1', '190', '190-383-1-SP.pdf', 'application/pdf', '674760', 'Ecodesign_2017-naito-modified.pdf', 'supp', '2', NULL, '2017-09-30 15:15:47', '2017-09-30 15:15:47'
'141', '1', '190', '190-141-1-RV.pdf', 'application/pdf', '175518', 'Review  for 190-98-1-RV.pdf', 'submission/review', '2', NULL, '2017-08-03 15:33:49', '2017-08-03 15:33:49'
'78', '1', '192', '192-78-1-RV.pdf', 'application/pdf', '478075', '192-77-2-SM.pdf', 'submission/review', '2', NULL, '2017-07-09 15:05:09', '2017-07-09 15:05:09'
'352', '1', '192', '192-352-1-DR.pdf', 'application/pdf', '475991', '192-77-1-SM revised20170930.pdf', 'submission/director', '2', NULL, '2017-09-30 11:27:39', '2017-09-30 11:27:39'
'77', '2', '192', '192-77-2-SM.pdf', 'application/pdf', '478075', '192- Chen-Fu Chen_Eco-Design 2017.pdf', 'submission/original', '2', NULL, '2017-07-09 15:04:44', '2017-07-09 15:04:44'
'353', '1', '192', '192-353-1-SP.pdf', 'application/pdf', '123167', '192 Consent_to_Publish_(Springer) Chen-Fu Chen.pdf', 'supp', '2', NULL, '2017-09-30 11:38:08', '2017-09-30 11:38:08'
'424', '1', '193', '193-424-1-SP.docx', 'application/vnd.openxmlformats-officedocument.wordprocessingml.document', '13641', 'Responses_to_Reviewers.docx', 'supp', '2', NULL, '2017-09-30 22:55:41', '2017-09-30 22:55:41'
'143', '1', '193', '193-143-1-RV.pdf', 'application/pdf', '604670', '193-142-2-SM.pdf', 'submission/review', '2', NULL, '2017-08-07 19:08:02', '2017-08-07 19:08:02'
'425', '1', '193', '193-425-1-SP.docx', 'application/vnd.openxmlformats-officedocument.wordprocessingml.document', '5982977', 'EcoDesign_Springer.docx', 'supp', '2', NULL, '2017-09-30 22:57:05', '2017-09-30 22:57:05'
'423', '1', '193', '193-423-1-DR.docx', 'application/vnd.openxmlformats-officedocument.wordprocessingml.document', '2658138', 'ecodesign_saiki0930.docx', 'submission/director', '2', NULL, '2017-09-30 22:51:34', '2017-09-30 22:51:34'
'426', '1', '193', '193-426-1-SP.pdf', 'application/pdf', '4095799', 'Consent_to_Publish.pdf', 'supp', '2', NULL, '2017-09-30 22:59:01', '2017-09-30 22:59:01'
'142', '2', '193', '193-142-2-SM.pdf', 'application/pdf', '604670', 'ecodesign_fullpaper_saiki.pdf', 'submission/original', '2', NULL, '2017-08-07 19:06:13', '2017-08-07 19:06:13'
'83', '1', '195', '195-83-1-SM.doc', 'application/msword', '198144', 'Business LCA-XCHEN-Ecodesign 2017.doc', 'submission/original', '2', NULL, '2017-07-09 20:33:17', '2017-07-09 20:33:17'
'265', '2', '195', '195-265-2-DR.doc', 'application/msword', '198144', 'Ecodesign conference format.doc', 'submission/director', '2', NULL, '2017-09-29 06:24:31', '2017-09-29 06:24:31'
'285', '1', '195', '195-285-1-SP.pdf', 'application/pdf', '882198', 'consent to publish_XB.pdf', 'supp', '2', NULL, '2017-09-29 14:57:10', '2017-09-29 14:57:10'
'84', '1', '195', '195-84-1-RV.doc', 'application/msword', '198144', '195-83-1-SM.doc', 'submission/review', '2', NULL, '2017-07-09 20:33:56', '2017-07-09 20:33:56'
'265', '3', '195', '195-265-3-DR.pdf', 'application/pdf', '882198', 'consent to publish_XB.pdf', 'submission/director', '2', NULL, '2017-09-29 06:25:14', '2017-09-29 06:25:14'
'265', '1', '195', '195-265-1-DR.docx', 'application/vnd.openxmlformats-officedocument.wordprocessingml.document', '57775', 'Ecodesign Ebook format.docx', 'submission/director', '2', NULL, '2017-09-29 06:24:08', '2017-09-29 06:24:08'
'284', '1', '195', '195-284-1-SP.docx', 'application/vnd.openxmlformats-officedocument.wordprocessingml.document', '57775', 'Ecodesign Ebook format.docx', 'supp', '2', NULL, '2017-09-29 14:56:39', '2017-09-29 14:56:39'
'260', '1', '197', '197-260-1-SM.doc', 'application/msword', '297472', 'Eco_design2017_paper fin.doc', 'submission/original', '2', NULL, '2017-09-28 15:25:55', '2017-09-28 15:25:55'
'261', '1', '197', '197-261-1-RV.doc', 'application/msword', '297472', '197-260-1-SM.doc', 'submission/review', '2', NULL, '2017-09-28 15:28:28', '2017-09-28 15:28:28'
'350', '2', '200', '200-350-2-SM.docx', 'application/vnd.openxmlformats-officedocument.wordprocessingml.document', '238720', 'The Low-carbon Air Cleaner Product Development by Low-carbon Decision Making System  full 20170929 final.docx', 'submission/original', '2', NULL, '2017-09-30 11:41:15', '2017-09-30 11:41:15'
'358', '1', '200', '200-358-1-RV.docx', 'application/vnd.openxmlformats-officedocument.wordprocessingml.document', '238720', '200-350-2-SM.docx', 'submission/review', '2', NULL, '2017-09-30 11:43:30', '2017-09-30 11:43:30'
'369', '1', '203', '203-369-1-RV.pdf', 'application/pdf', '342371', '203-368-1-SM.pdf', 'submission/review', '2', NULL, '2017-09-30 13:14:46', '2017-09-30 13:14:46'
'368', '1', '203', '203-368-1-SM.pdf', 'application/pdf', '342371', 'EcoDesign2017 Arai.pdf', 'submission/original', '2', NULL, '2017-09-30 13:02:08', '2017-09-30 13:02:08'
'252', '1', '207', '207-252-1-SM.pdf', 'application/pdf', '222206', 'Ecodesgin_Proceeding_Paper_Huang.pdf', 'submission/original', '2', NULL, '2017-09-27 21:17:31', '2017-09-27 21:17:31'
'253', '1', '207', '207-253-1-RV.pdf', 'application/pdf', '222206', '207-252-1-SM.pdf', 'submission/review', '2', NULL, '2017-09-27 21:17:52', '2017-09-27 21:17:52'
'113', '2', '210', '210-113-2-SM.pdf', 'application/pdf', '910080', '210_Kimura Ecodesign2017.pdf', 'submission/original', '2', NULL, '2017-09-29 15:55:04', '2017-09-29 15:55:04'
'293', '1', '210', '210-293-1-RV.pdf', 'application/pdf', '910080', '210-113-2-SM.pdf', 'submission/review', '2', NULL, '2017-09-29 15:57:48', '2017-09-29 15:57:48'
'256', '1', '212', '212-256-1-SP.doc', 'application/msword', '274944', 'Stakeholder Engagement - Soo Tyng.doc', 'supp', '2', NULL, '2017-09-28 13:01:41', '2017-09-28 13:01:41'
'257', '1', '212', '212-257-1-RV.pdf', 'application/pdf', '179626', '212-255-2-SM.pdf', 'submission/review', '2', NULL, '2017-09-28 13:02:42', '2017-09-28 13:02:42'
'255', '2', '212', '212-255-2-SM.pdf', 'application/pdf', '179626', 'Stakeholder Engagement - Soo Tyng.pdf', 'submission/original', '2', NULL, '2017-09-28 13:00:47', '2017-09-28 13:00:47'
'387', '1', '214', '214-387-1-RV.pdf', 'application/pdf', '395127', '214-386-1-SM.pdf', 'submission/review', '2', NULL, '2017-09-30 15:44:42', '2017-09-30 15:44:42'
'386', '1', '214', '214-386-1-SM.pdf', 'application/pdf', '395127', 'main.pdf', 'submission/original', '2', NULL, '2017-09-30 15:44:16', '2017-09-30 15:44:16'
'104', '1', '215', '215-104-1-RV.pdf', 'application/pdf', '230627', '215-103-1-SM.pdf', 'submission/review', '2', NULL, '2017-07-10 14:08:06', '2017-07-10 14:08:06'
'287', '1', '215', '215-287-1-SP.docx', 'application/vnd.openxmlformats-officedocument.wordprocessingml.document', '61259', 'paper_ver0.2_20170928.docx', 'supp', '2', NULL, '2017-09-29 15:08:52', '2017-09-29 15:08:52'
'290', '1', '215', '215-290-1-SP.pdf', 'application/pdf', '2019581', 'Consent_Ranaporn.pdf', 'supp', '2', NULL, '2017-09-29 15:13:15', '2017-09-29 15:13:15'
'288', '1', '215', '215-288-1-SP.pdf', 'application/pdf', '266706', 'Ranaporn_pdf.pdf', 'supp', '2', NULL, '2017-09-29 15:10:23', '2017-09-29 15:10:23'
'289', '1', '215', '215-289-1-SP.pdf', 'application/pdf', '19876', 'Description of the paper revisions_Ranaporn.pdf', 'supp', '2', NULL, '2017-09-29 15:12:28', '2017-09-29 15:12:28'
'103', '1', '215', '215-103-1-SM.pdf', 'application/pdf', '230627', 'Ranaporn_20170710.pdf', 'submission/original', '2', NULL, '2017-07-10 14:07:44', '2017-07-10 14:07:44'
'322', '3', '216', '216-322-3-SM.docx', 'application/vnd.openxmlformats-officedocument.wordprocessingml.document', '59819', 'EcoDesign2017_(proceeding) Minhyeok Lee 170929,.docx', 'submission/original', '2', NULL, '2017-09-29 22:25:19', '2017-09-29 22:25:19'
'323', '1', '216', '216-323-1-RV.docx', 'application/vnd.openxmlformats-officedocument.wordprocessingml.document', '59819', '216-322-3-SM.docx', 'submission/review', '2', NULL, '2017-09-29 22:25:59', '2017-09-29 22:25:59'
'448', '1', '217', '217-448-1-SM.doc', 'application/msword', '1280000', '2017 ecodesignPSS__v2.doc', 'submission/original', '2', NULL, '2017-10-01 11:16:09', '2017-10-01 11:16:09'
'449', '1', '217', '217-449-1-RV.doc', 'application/msword', '1280000', '217-448-1-SM.doc', 'submission/review', '2', NULL, '2017-10-01 11:16:30', '2017-10-01 11:16:30'
'447', '1', '218', '218-447-1-RV.doc', 'application/msword', '1525248', '218-446-1-SM.doc', 'submission/review', '2', NULL, '2017-10-01 10:50:27', '2017-10-01 10:50:27'
'446', '1', '218', '218-446-1-SM.doc', 'application/msword', '1525248', '2017 ecodesign_v2.doc', 'submission/original', '2', NULL, '2017-10-01 10:50:13', '2017-10-01 10:50:13'
'295', '1', '220', '220-295-1-SP.pdf', 'application/pdf', '1301043', 'Grasping_LaserMarking_EcoDesign_2017_Ebook_format_3a.pdf', 'supp', '2', NULL, '2017-09-29 16:14:10', '2017-09-29 16:14:10'
'294', '1', '220', '220-294-1-DR.pdf', 'application/pdf', '1301043', 'Grasping_LaserMarking_EcoDesign_2017_Ebook_format_3a.pdf', 'submission/director', '2', NULL, '2017-09-29 16:01:14', '2017-09-29 16:01:14'
'79', '1', '220', '220-79-1-SM.pdf', 'application/pdf', '1683681', 'Grasping & Laser Marking_EcoDesign_2017.pdf', 'submission/original', '2', NULL, '2017-07-09 17:41:15', '2017-07-09 17:41:15'
'294', '2', '220', '220-294-2-DR.pdf', 'application/pdf', '1747368', 'Grasping & Laser Marking_EcoDesign_2017_r1.1.pdf', 'submission/director', '2', NULL, '2017-09-29 16:01:31', '2017-09-29 16:01:31'
'80', '1', '220', '220-80-1-RV.pdf', 'application/pdf', '1683681', '220-79-1-SM.pdf', 'submission/review', '2', NULL, '2017-07-09 17:41:42', '2017-07-09 17:41:42'
'413', '1', '221', '221-413-1-SM.docx', 'application/vnd.openxmlformats-officedocument.wordprocessingml.document', '91290', 'Joo Young LEE.docx', 'submission/original', '2', NULL, '2017-09-30 21:43:27', '2017-09-30 21:43:27'
'414', '1', '221', '221-414-1-RV.docx', 'application/vnd.openxmlformats-officedocument.wordprocessingml.document', '91290', '221-413-1-SM.docx', 'submission/review', '2', NULL, '2017-09-30 21:43:48', '2017-09-30 21:43:48'
'145', '1', '222', '222-145-1-RV.doc', 'application/msword', '448000', '222-144-1-SM.doc', 'submission/review', '2', NULL, '2017-08-15 17:12:07', '2017-08-15 17:12:07'
'186', '1', '222', '222-186-1-SP.pdf', 'application/pdf', '365515', 'ID_222_Quality assessment of Plastics Recyclates from Waste Electrical and Electronic Equipment (WEEE)_EcoDesign format.pdf', 'supp', '2', NULL, '2017-09-16 21:10:01', '2017-09-16 21:10:01'
'184', '1', '222', '222-184-1-SP.pdf', 'application/pdf', '600713', 'ID_222_Consent to Publish.pdf', 'supp', '2', NULL, '2017-09-16 21:03:16', '2017-09-16 21:03:16'
'144', '1', '222', '222-144-1-SM.doc', 'application/msword', '448000', 'ID 222 Quality assessment of Plastics Recyclates from Waste Electrical and Electronic Equipment (WEEE).doc', 'submission/original', '2', NULL, '2017-08-15 17:11:41', '2017-08-15 17:11:41'
'185', '1', '222', '222-185-1-SP.docx', 'application/vnd.openxmlformats-officedocument.wordprocessingml.document', '2155698', 'ID_222_Quality assessment of Plastics Recyclates from Waste Electrical and Electronic Equipment (WEEE)_Springer format.docx', 'supp', '2', NULL, '2017-09-16 21:07:28', '2017-09-16 21:07:28'
'450', '1', '223', '223-450-1-SM.doc', 'application/msword', '541184', 'ED2017_Proc_rev0.doc', 'submission/original', '2', NULL, '2017-10-01 13:49:43', '2017-10-01 13:49:43'
'451', '1', '223', '223-451-1-RV.doc', 'application/msword', '541184', '223-450-1-SM.doc', 'submission/review', '2', NULL, '2017-10-01 13:50:11', '2017-10-01 13:50:11'
'347', '1', '224', '224-347-1-SM.docx', 'application/vnd.openxmlformats-officedocument.wordprocessingml.document', '213573', '170930_Ecodesgn2017_proceedings_G.docx', 'submission/original', '2', NULL, '2017-09-30 10:50:54', '2017-09-30 10:50:54'
'348', '1', '224', '224-348-1-RV.docx', 'application/vnd.openxmlformats-officedocument.wordprocessingml.document', '213573', '224-347-1-SM.docx', 'submission/review', '2', NULL, '2017-09-30 10:52:54', '2017-09-30 10:52:54'
'393', '1', '225', '225-393-1-RV.docx', 'application/vnd.openxmlformats-officedocument.wordprocessingml.document', '59924', '225-392-1-SM.docx', 'submission/review', '2', NULL, '2017-09-30 16:38:00', '2017-09-30 16:38:00'
'392', '1', '225', '225-392-1-SM.docx', 'application/vnd.openxmlformats-officedocument.wordprocessingml.document', '59924', 'Jongseok LEE.docx', 'submission/original', '2', NULL, '2017-09-30 16:37:26', '2017-09-30 16:37:26'
'193', '1', '231', '231-193-1-SM.pdf', 'application/pdf', '404726', 'ecodesign2017_nakano170919.pdf', 'submission/original', '2', NULL, '2017-09-19 09:53:40', '2017-09-19 09:53:40'
'268', '1', '231', '231-268-1-RV.pdf', 'application/pdf', '404726', '231-193-1-SM.pdf', 'submission/review', '2', NULL, '2017-09-29 10:18:26', '2017-09-29 10:18:26'
'309', '1', '233', '233-309-1-RV.pdf', 'application/pdf', '298846', '233-306-4-SM.pdf', 'submission/review', '2', NULL, '2017-09-29 18:16:08', '2017-09-29 18:16:08'
'306', '4', '233', '233-306-4-SM.pdf', 'application/pdf', '298846', 'iwami.pdf', 'submission/original', '2', NULL, '2017-09-29 18:15:34', '2017-09-29 18:15:34'
'440', '1', '235', '235-440-1-SM.docx', 'application/vnd.openxmlformats-officedocument.wordprocessingml.document', '373668', '2017Eco-design_Full paper_Environmental Impact Assessment of Semiconductor Packaging Technologies A Case Study of a Semico.docx', 'submission/original', '2', NULL, '2017-09-30 23:48:49', '2017-09-30 23:48:49'
'442', '1', '235', '235-442-1-RV.docx', 'application/vnd.openxmlformats-officedocument.wordprocessingml.document', '373668', '235-440-1-SM.docx', 'submission/review', '2', NULL, '2017-09-30 23:50:41', '2017-09-30 23:50:41'
'138', '1', '236', '236-138-1-SM.pdf', 'application/pdf', '397910', 'Submission_The Potential of Blockchain & IIOT Technology on Applied to Green Process Automation Industries and Its Role for.pdf', 'submission/original', '2', NULL, '2017-07-29 16:41:47', '2017-07-29 16:41:47'
'139', '1', '236', '236-139-1-RV.pdf', 'application/pdf', '397910', '236-138-1-SM.pdf', 'submission/review', '2', NULL, '2017-07-29 16:43:31', '2017-07-29 16:43:31'
'355', '1', '237', '237-355-1-SM.pdf', 'application/pdf', '695118', '170930_paper.pdf', 'submission/original', '2', NULL, '2017-09-30 11:41:04', '2017-09-30 11:41:04'
'357', '1', '237', '237-357-1-RV.pdf', 'application/pdf', '695118', '237-355-1-SM.pdf', 'submission/review', '2', NULL, '2017-09-30 11:41:56', '2017-09-30 11:41:56'
'240', '2', '239', '239-240-2-SP.pdf', 'application/pdf', '849463', 'EcoDesignDocument2017_AyakaKimura_(ProceedingsPaper).pdf', 'supp', '2', NULL, '2017-09-30 08:28:38', '2017-09-30 08:28:38'
'124', '2', '241', '241-124-2-SM.docx', 'application/vnd.openxmlformats-officedocument.wordprocessingml.document', '2370693', 'Hidetaka-Hayashi_2017-rev1.docx', 'submission/original', '2', NULL, '2017-07-17 15:26:19', '2017-07-17 15:26:19'
'181', '1', '241', '241-181-1-DR.docx', 'application/vnd.openxmlformats-officedocument.wordprocessingml.document', '216274', '241-130-2-RV.docx', 'submission/director', '2', NULL, '2017-09-16 20:49:37', '2017-09-16 20:49:37'
'130', '1', '241', '241-130-1-RV.docx', 'application/vnd.openxmlformats-officedocument.wordprocessingml.document', '2370693', '241-124-2-SM.docx', 'submission/review', '2', NULL, '2017-07-17 15:26:40', '2017-07-17 15:26:40'
'183', '1', '241', '241-183-1-SP.pdf', 'application/pdf', '904233', 'Hayashi-et-al-Consent-s.pdf', 'supp', '2', NULL, '2017-09-16 20:58:29', '2017-09-16 20:58:29'
'130', '2', '241', '241-130-2-RV.docx', 'application/vnd.openxmlformats-officedocument.wordprocessingml.document', '216274', 'Hidetaka-Hayashi_Ecodesign2017-rev3.docx', 'submission/review', '2', NULL, '2017-09-16 20:49:37', '2017-09-16 20:49:37'
'187', '1', '241', '241-187-1-RV.docx', 'application/vnd.openxmlformats-officedocument.wordprocessingml.document', '12464', 'Review commnts on No. 241.docx', 'submission/review', '2', NULL, '2017-09-17 23:52:52', '2017-09-17 23:52:52'
'302', '1', '242', '242-302-1-SM.pdf', 'application/pdf', '302224', 'An Eco-Innovative design method of Machinery for Energy Conserva-tion and Carbon Reduction by using TRIZ method.pdf', 'submission/original', '2', NULL, '2017-09-29 17:29:32', '2017-09-29 17:29:32'
'303', '1', '242', '242-303-1-RV.pdf', 'application/pdf', '302224', '242-302-1-SM.pdf', 'submission/review', '2', NULL, '2017-09-29 17:30:50', '2017-09-29 17:30:50'
'96', '1', '244', '244-96-1-RV.pdf', 'application/pdf', '511583', '244-95-1-SM.pdf', 'submission/review', '2', NULL, '2017-07-10 10:03:15', '2017-07-10 10:03:15'
'95', '1', '244', '244-95-1-SM.pdf', 'application/pdf', '511583', 'HirotoTAKAKI.pdf', 'submission/original', '2', NULL, '2017-07-10 09:58:59', '2017-07-10 09:58:59'
'452', '1', '245', '245-452-1-SM.doc', 'application/msword', '1195008', '修正-A Decision Support Tool for Critical Material Screening and Management f.._ V2.doc', 'submission/original', '2', NULL, '2017-10-02 15:44:23', '2017-10-02 15:44:23'
'453', '1', '245', '245-453-1-RV.doc', 'application/msword', '1195008', '245-452-1-SM.doc', 'submission/review', '2', NULL, '2017-10-02 15:45:16', '2017-10-02 15:45:16'
'146', '1', '246', '246-146-1-SM.doc', 'application/msword', '2036736', 'ID 246 Eco-Design OGAWA.doc', 'submission/original', '2', NULL, '2017-08-15 17:14:31', '2017-08-15 17:14:31'
'147', '1', '246', '246-147-1-RV.doc', 'application/msword', '2036736', '246-146-1-SM.doc', 'submission/review', '2', NULL, '2017-08-15 17:14:39', '2017-08-15 17:14:39'
'321', '1', '247', '247-321-1-RV.doc', 'application/msword', '86528', '247-320-1-SM.doc', 'submission/review', '2', NULL, '2017-09-29 21:22:07', '2017-09-29 21:22:07'
'320', '1', '247', '247-320-1-SM.doc', 'application/msword', '86528', '2017 Case Study for Recycled Ocean Plastic Product Design.doc', 'submission/original', '2', NULL, '2017-09-29 21:21:53', '2017-09-29 21:21:53'
'258', '1', '248', '248-258-1-SM.pdf', 'application/pdf', '212073', 'MKojimaTradeRegulation.pdf', 'submission/original', '2', NULL, '2017-09-28 14:48:26', '2017-09-28 14:48:26'
'259', '1', '248', '248-259-1-RV.pdf', 'application/pdf', '212073', '248-258-1-SM.pdf', 'submission/review', '2', NULL, '2017-09-28 14:49:08', '2017-09-28 14:49:08'
'89', '1', '251', '251-89-1-SM.docx', 'application/vnd.openxmlformats-officedocument.wordprocessingml.document', '413141', 'Renewable Energy Substitution Model and Environmental Preservation.docx', 'submission/original', '2', NULL, '2017-07-10 08:49:02', '2017-07-10 08:49:02'
'90', '1', '251', '251-90-1-RV.docx', 'application/vnd.openxmlformats-officedocument.wordprocessingml.document', '413141', '251-89-1-SM.docx', 'submission/review', '2', NULL, '2017-07-10 08:49:32', '2017-07-10 08:49:32'
'275', '1', '251', '251-275-1-DR.docx', 'application/vnd.openxmlformats-officedocument.wordprocessingml.document', '415362', 'Renewable Energy Substitution Model_Completed Version_1.docx', 'submission/director', '2', NULL, '2017-09-29 13:26:48', '2017-09-29 13:26:48'
'278', '1', '251', '251-278-1-SP.docx', 'application/vnd.openxmlformats-officedocument.wordprocessingml.document', '415362', 'Renewable Energy Substitution Model_Completed Version_1.docx', 'supp', '2', NULL, '2017-09-29 13:51:58', '2017-09-29 13:51:58'
'291', '1', '253', '253-291-1-SM.pdf', 'application/pdf', '186686', 'Proposal of a life cycle simulation method focusing on global reuse.pdf', 'submission/original', '2', NULL, '2017-09-29 15:33:50', '2017-09-29 15:33:50'
'292', '1', '253', '253-292-1-RV.pdf', 'application/pdf', '186686', '253-291-1-SM.pdf', 'submission/review', '2', NULL, '2017-09-29 15:36:53', '2017-09-29 15:36:53'
'99', '1', '257', '257-99-1-SM.doc', 'application/msword', '120832', '257_20170710.doc', 'submission/original', '2', NULL, '2017-07-10 11:47:05', '2017-07-10 11:47:05'
'100', '1', '257', '257-100-1-RV.doc', 'application/msword', '120832', '257-99-1-SM.doc', 'submission/review', '2', NULL, '2017-07-10 11:47:53', '2017-07-10 11:47:53'
'364', '1', '257', '257-364-1-DR.doc', 'application/msword', '125952', '257_20170929.doc', 'submission/director', '2', NULL, '2017-09-30 12:38:00', '2017-09-30 12:38:00'
'44', '3', '258', '258-44-3-SM.doc', 'application/msword', '190976', 'E-book Full Paper.doc', 'submission/original', '2', NULL, '2017-06-28 15:06:44', '2017-06-28 15:06:44'
'324', '2', '258', '258-324-2-DR.doc', 'application/msword', '190976', 'Final Paper.doc', 'submission/director', '2', NULL, '2017-09-29 23:28:34', '2017-09-29 23:28:34'
'328', '1', '258', '258-328-1-SP.pdf', 'application/pdf', '1221106', 'consent.pdf', 'supp', '2', NULL, '2017-09-29 23:38:32', '2017-09-29 23:38:32'
'56', '1', '258', '258-56-1-RV.doc', 'application/msword', '190976', '258-44-3-SM.doc', 'submission/review', '2', NULL, '2017-07-05 08:34:33', '2017-07-05 08:34:33'
'326', '1', '258', '258-326-1-SP.PNG', 'image/png', '260745', 'consent 1.PNG', 'supp', '2', NULL, '2017-09-29 23:33:08', '2017-09-29 23:33:08'
'324', '1', '258', '258-324-1-DR.pdf', 'application/pdf', '337571', 'Final Paper PDF.pdf', 'submission/director', '2', NULL, '2017-09-29 23:28:07', '2017-09-29 23:28:07'
'327', '1', '258', '258-327-1-SP.PNG', 'image/png', '303262', 'consent 2.PNG', 'supp', '2', NULL, '2017-09-29 23:34:07', '2017-09-29 23:34:07'
'376', '1', '259', '259-376-1-SP.pdf', 'application/pdf', '33439', 'suggestionHH.pdf', 'supp', '2', NULL, '2017-09-30 14:08:20', '2017-09-30 14:08:20'
'107', '1', '259', '259-107-1-SM.doc', 'application/msword', '877056', 'nagasawaEcodesign20170710.doc', 'submission/original', '2', NULL, '2017-07-10 15:19:37', '2017-07-10 15:19:37'
'108', '1', '259', '259-108-1-RV.doc', 'application/msword', '877056', '259-107-1-SM.doc', 'submission/review', '2', NULL, '2017-07-10 15:20:21', '2017-07-10 15:20:21'
'374', '1', '259', '259-374-1-DR.pdf', 'application/pdf', '659097', 'nagasawaEcodesign20170930final.pdf', 'submission/director', '2', NULL, '2017-09-30 14:04:53', '2017-09-30 14:04:53'
'378', '1', '259', '259-378-1-SP.PDF', 'application/pdf', '206263', 'SCAN0004.PDF', 'supp', '2', NULL, '2017-09-30 14:23:07', '2017-09-30 14:23:07'
'375', '1', '259', '259-375-1-SP.doc', 'application/msword', '838144', 'nagasawaEcodesign20170930_ebook_formatfinal.doc', 'supp', '2', NULL, '2017-09-30 14:07:53', '2017-09-30 14:07:53'
'123', '1', '261', '261-123-1-SM.pdf', 'application/pdf', '381390', '2017EcoDesign_E-book Paper_Hui-TingTANG.pdf', 'submission/original', '2', NULL, '2017-07-10 22:49:50', '2017-07-10 22:49:50'
'245', '1', '261', '261-245-1-DR.pdf', 'application/pdf', '211429', 'Reply to Reviewer_Final Paper #261(E-book).pdf', 'submission/director', '2', NULL, '2017-09-27 13:53:27', '2017-09-27 13:53:27'
'247', '1', '261', '261-247-1-SP.doc', 'application/msword', '2148864', 'Springer Format_Final Paper #261(E-book).doc', 'supp', '2', NULL, '2017-09-27 13:56:24', '2017-09-27 13:56:24'
'125', '1', '261', '261-125-1-RV.pdf', 'application/pdf', '381390', '261-123-1-SM.pdf', 'submission/review', '2', NULL, '2017-07-10 22:53:21', '2017-07-10 22:53:21'
'245', '2', '261', '261-245-2-DR.pdf', 'application/pdf', '133621', 'EcoDesign2017 Format_Final Paper #261(E-book).pdf', 'submission/director', '2', NULL, '2017-09-27 13:53:50', '2017-09-27 13:53:50'
'248', '1', '261', '261-248-1-SP.pdf', 'application/pdf', '133621', 'EcoDesign2017 Format_Final Paper #261(E-book).pdf', 'supp', '2', NULL, '2017-09-27 13:57:16', '2017-09-27 13:57:16'
'125', '2', '261', '261-125-2-RV.pdf', 'application/pdf', '133621', 'EcoDesign2017 Format_Final Paper #261(E-book).pdf', 'submission/review', '2', NULL, '2017-09-27 11:07:07', '2017-09-27 11:07:07'
'246', '1', '261', '261-246-1-SP.pdf', 'application/pdf', '1058267', 'Springer Consent to Publish_Final Paper #261(E-book).pdf', 'supp', '2', NULL, '2017-09-27 13:54:53', '2017-09-27 13:54:53'
'444', '1', '263', '263-444-1-SM.pdf', 'application/pdf', '136784', 'ID 263.pdf', 'submission/original', '2', NULL, '2017-10-01 00:04:20', '2017-10-01 00:04:20'
'445', '1', '263', '263-445-1-RV.pdf', 'application/pdf', '136784', '263-444-1-SM.pdf', 'submission/review', '2', NULL, '2017-10-01 00:06:57', '2017-10-01 00:06:57'
'86', '1', '267', '267-86-1-RV.docx', 'application/vnd.openxmlformats-officedocument.wordprocessingml.document', '679471', '267-85-1-SM.docx', 'submission/review', '2', NULL, '2017-07-10 00:35:42', '2017-07-10 00:35:42'
'85', '1', '267', '267-85-1-SM.docx', 'application/vnd.openxmlformats-officedocument.wordprocessingml.document', '679471', 'eco design Fukunaga　Yoshinori.docx', 'submission/original', '2', NULL, '2017-07-10 00:34:59', '2017-07-10 00:34:59'
'283', '3', '275', '275-283-3-SP.pdf', 'application/pdf', '913687', 'consent to publish.2017.09.29.pdf', 'supp', '2', NULL, '2017-09-29 14:55:41', '2017-09-29 14:55:41'
'372', '1', '275', '275-372-1-SP.pdf', 'application/pdf', '2938936', ' Springer v1.paper.2017.09.29.pdf', 'supp', '2', NULL, '2017-09-30 13:29:05', '2017-09-30 13:29:05'
'270', '2', '275', '275-270-2-DR.docx', 'application/vnd.openxmlformats-officedocument.wordprocessingml.document', '2885273', ' Springer v1.paper.2017.09.29.docx', 'submission/director', '2', NULL, '2017-09-29 14:57:15', '2017-09-29 14:57:15'
'370', '1', '275', '275-370-1-SP.pdf', 'application/pdf', '3282775', 'Ueda E.(Ecodesign2017).2017.09.29.pdf', 'supp', '2', NULL, '2017-09-30 13:26:10', '2017-09-30 13:26:10'
'36', '2', '275', '275-36-2-SM.pdf', 'application/pdf', '2042581', 'Ueda E.(Ecodesign2017).pdf', 'submission/original', '2', NULL, '2017-06-26 13:08:53', '2017-06-26 13:08:53'
'373', '1', '275', '275-373-1-SP.doc', 'application/msword', '2958336', 'Ueda E.(Ecodesign2017).2017.09.29.doc', 'supp', '2', NULL, '2017-09-30 13:29:50', '2017-09-30 13:29:50'
'270', '3', '275', '275-270-3-DR.pdf', 'application/pdf', '2938936', ' Springer v1.paper.2017.09.29.pdf', 'submission/director', '2', NULL, '2017-09-29 14:57:33', '2017-09-29 14:57:33'
'371', '1', '275', '275-371-1-SP.docx', 'application/vnd.openxmlformats-officedocument.wordprocessingml.document', '2885273', ' Springer v1.paper.2017.09.29.docx', 'supp', '2', NULL, '2017-09-30 13:27:26', '2017-09-30 13:27:26'
'37', '1', '275', '275-37-1-RV.pdf', 'application/pdf', '2042581', '275-36-2-SM.pdf', 'submission/review', '2', NULL, '2017-06-26 13:09:12', '2017-06-26 13:09:12'
'270', '1', '275', '275-270-1-DR.pdf', 'application/pdf', '3282775', 'Ueda E.(Ecodesign2017).2017.09.29.pdf', 'submission/director', '2', NULL, '2017-09-29 14:41:33', '2017-09-29 14:41:33'
'398', '1', '276', '276-398-1-SP.pdf', 'application/pdf', '835851', 'EcoDesign2017_Murai_.pdf', 'supp', '2', NULL, '2017-09-30 18:27:25', '2017-09-30 18:27:25'
'399', '1', '276', '276-399-1-RV.pdf', 'application/pdf', '835851', '276-397-1-SM.pdf', 'submission/review', '2', NULL, '2017-09-30 18:40:57', '2017-09-30 18:40:57'
'397', '1', '276', '276-397-1-SM.pdf', 'application/pdf', '835851', 'EcoDesign2017_Murai_.pdf', 'submission/original', '2', NULL, '2017-09-30 18:26:51', '2017-09-30 18:26:51'
'433', '1', '282', '282-433-1-SP.pdf', 'application/pdf', '644347', 'Hirokazu Sato_2.pdf', 'supp', '2', NULL, '2017-09-30 23:26:06', '2017-09-30 23:26:06'
'435', '1', '282', '282-435-1-RV.pdf', 'application/pdf', '644347', '282-432-3-SM.pdf', 'submission/review', '2', NULL, '2017-09-30 23:28:30', '2017-09-30 23:28:30'
'432', '3', '282', '282-432-3-SM.pdf', 'application/pdf', '644347', 'Hirokazu Sato_2.pdf', 'submission/original', '2', NULL, '2017-09-30 23:25:31', '2017-09-30 23:25:31'
'115', '1', '283', '283-115-1-RV.pdf', 'application/pdf', '436478', '283-114-1-SM.pdf', 'submission/review', '2', NULL, '2017-07-10 21:24:29', '2017-07-10 21:24:29'
'396', '1', '283', '283-396-1-SP.docx', 'application/vnd.openxmlformats-officedocument.wordprocessingml.document', '5645612', 'Springer Format.docx', 'supp', '2', NULL, '2017-09-30 18:22:33', '2017-09-30 18:22:33'
'394', '1', '283', '283-394-1-DR.pdf', 'application/pdf', '429148', 'Exchange of modules among robot manipulators.pdf', 'submission/director', '2', NULL, '2017-09-30 18:18:36', '2017-09-30 18:18:36'
'400', '1', '283', '283-400-1-SP.PDF', 'application/pdf', '219603', 'SCAN0000.PDF', 'supp', '2', NULL, '2017-09-30 18:45:04', '2017-09-30 18:45:04'
'395', '1', '283', '283-395-1-SP.pdf', 'application/pdf', '9420', 'Description of the paper revisions.pdf', 'supp', '2', NULL, '2017-09-30 18:21:16', '2017-09-30 18:21:16'
'114', '1', '283', '283-114-1-SM.pdf', 'application/pdf', '436478', 'Exchange of modules among robot manipulators.pdf', 'submission/original', '2', NULL, '2017-07-10 21:21:52', '2017-07-10 21:21:52'
'272', '1', '284', '284-272-1-RV.pdf', 'application/pdf', '405324', '284-271-1-SM.pdf', 'submission/review', '2', NULL, '2017-09-29 12:07:52', '2017-09-29 12:07:52'
'271', '1', '284', '284-271-1-SM.pdf', 'application/pdf', '405324', 'Final paper（英訳）.pdf', 'submission/original', '2', NULL, '2017-09-29 12:01:41', '2017-09-29 12:01:41'
'316', '1', '286', '286-316-1-SM.pdf', 'application/pdf', '560573', 'Effect of Fuel Consumption Information.pdf', 'submission/original', '2', NULL, '2017-09-29 20:04:01', '2017-09-29 20:04:01'
'317', '1', '286', '286-317-1-RV.pdf', 'application/pdf', '560573', '286-316-1-SM.pdf', 'submission/review', '2', NULL, '2017-09-29 20:09:27', '2017-09-29 20:09:27'
'310', '1', '294', '294-310-1-SM.pdf', 'application/pdf', '161361', 'EcoDesign2017-0930(final).pdf', 'submission/original', '2', NULL, '2017-09-29 19:36:06', '2017-09-29 19:36:06'
'311', '1', '294', '294-311-1-RV.pdf', 'application/pdf', '161361', '294-310-1-SM.pdf', 'submission/review', '2', NULL, '2017-09-29 19:36:42', '2017-09-29 19:36:42'
'242', '1', '296', '296-242-1-RV.pdf', 'application/pdf', '429622', '296-241-1-SM.pdf', 'submission/review', '2', NULL, '2017-09-27 12:33:10', '2017-09-27 12:33:10'
'241', '1', '296', '296-241-1-SM.pdf', 'application/pdf', '429622', 'EcoDesign-YukiMataga(Proceedingpaper).pdf', 'submission/original', '2', NULL, '2017-09-27 12:32:42', '2017-09-27 12:32:42'
'416', '6', '297', '297-416-6-SM.pdf', 'application/pdf', '225972', 'EcodesignAbstract_9.pdf', 'submission/original', '2', NULL, '2017-09-30 23:02:28', '2017-09-30 23:02:28'
'119', '1', '300', '300-119-1-RV.doc', 'application/msword', '541696', '300-118-2-SM.doc', 'submission/review', '2', NULL, '2017-07-10 21:37:14', '2017-07-10 21:37:14'
'325', '1', '300', '300-325-1-DR.doc', 'application/msword', '545280', 'Polcirkeln articel Ecodesign 2017 2017-09-28 FINALE.doc', 'submission/director', '2', NULL, '2017-09-30 00:35:18', '2017-09-30 00:35:18'
'118', '2', '300', '300-118-2-SM.doc', 'application/msword', '541696', 'Jonbrink et al Polcirkeln 2017.doc', 'submission/original', '2', NULL, '2017-07-10 21:36:59', '2017-07-10 21:36:59'
'325', '2', '300', '300-325-2-DR.pdf', 'application/pdf', '271005', 'Polcirkeln articel Ecodesign 2017 2017-09-28 FINALE.pdf', 'submission/director', '2', NULL, '2017-09-30 00:35:37', '2017-09-30 00:35:37'
'429', '1', '301', '301-429-1-SM.docx', 'application/vnd.openxmlformats-officedocument.wordprocessingml.document', '279360', 'Eco_design2017_paper_Wun-Hui Huang.docx', 'submission/original', '2', NULL, '2017-09-30 23:10:48', '2017-09-30 23:10:48'
'443', '1', '306', '306-443-1-SM.pdf', 'application/pdf', '237347', 'EcoDesign2017_Nagase_ENG.pdf', 'submission/original', '2', NULL, '2017-09-30 23:58:13', '2017-09-30 23:58:13'
'402', '3', '307', '307-402-3-SM.pdf', 'application/pdf', '158274', 'BRATEC_Ecodesign_2017.pdf', 'submission/original', '2', NULL, '2017-09-30 18:54:59', '2017-09-30 18:54:59'
'403', '1', '307', '307-403-1-SP.doc', 'application/msword', '388096', 'BRATEC_Ecodesign_2017.doc', 'supp', '2', NULL, '2017-09-30 18:55:48', '2017-09-30 18:55:48'
'404', '1', '307', '307-404-1-RV.pdf', 'application/pdf', '158274', '307-402-3-SM.pdf', 'submission/review', '2', NULL, '2017-09-30 18:56:52', '2017-09-30 18:56:52'
'438', '1', '312', '312-438-1-SM.pdf', 'application/pdf', '762378', 'Proceeding paper_,Pi-Cheng Chen.pdf', 'submission/original', '2', NULL, '2017-09-30 23:34:32', '2017-09-30 23:34:32'
'439', '1', '312', '312-439-1-RV.pdf', 'application/pdf', '762378', '312-438-1-SM.pdf', 'submission/review', '2', NULL, '2017-09-30 23:37:26', '2017-09-30 23:37:26'
'170', '1', '315', '315-170-1-RV.docx', 'application/vnd.openxmlformats-officedocument.wordprocessingml.document', '251488', '315-169-1-SM.docx', 'submission/review', '2', NULL, '2017-09-07 01:55:38', '2017-09-07 01:55:38'
'169', '1', '315', '315-169-1-SM.docx', 'application/vnd.openxmlformats-officedocument.wordprocessingml.document', '251488', 'conference_paper_file_submit.docx', 'submission/original', '2', NULL, '2017-09-07 00:35:44', '2017-09-07 00:35:44'
'29', '1', '316', '316-29-1-SP.pdf', 'application/pdf', '1233509', 'Consent.pdf', 'supp', '2', NULL, '2017-06-09 23:56:02', '2017-06-09 23:56:02'
'28', '1', '316', '316-28-1-SP.pdf', 'application/pdf', '393840', 'Buchert_2017_Springer_v1.pdf', 'supp', '2', NULL, '2017-06-09 23:47:46', '2017-06-09 23:47:46'
'26', '1', '316', '316-26-1-SM.pdf', 'application/pdf', '250310', 'Final_Buchert.pdf', 'submission/original', '2', NULL, '2017-06-09 17:30:35', '2017-06-09 17:30:35'
'27', '1', '316', '316-27-1-RV.pdf', 'application/pdf', '250310', '316-26-1-SM.pdf', 'submission/review', '2', NULL, '2017-06-09 17:31:19', '2017-06-09 17:31:19'
'87', '1', '318', '318-87-1-SM.docx', 'application/haansoftdocx', '16332', 'Regional Background Emission Information and Integration with life cycle assessment in food and agriculture system_Junbeum.docx', 'submission/original', '2', NULL, '2017-07-10 08:17:58', '2017-07-10 08:17:58'
'88', '1', '318', '318-88-1-RV.docx', 'application/haansoftdocx', '16332', '318-87-1-SM.docx', 'submission/review', '2', NULL, '2017-07-10 08:18:19', '2017-07-10 08:18:19'
'122', '1', '324', '324-122-1-SM.doc', 'application/msword', '1535488', 'EcoDesign2017 -Novita.doc', 'submission/original', '2', NULL, '2017-07-10 21:50:13', '2017-07-10 21:50:13'
'377', '2', '324', '324-377-2-DR.docx', 'application/vnd.openxmlformats-officedocument.wordprocessingml.document', '16440', 'Author Respond Paper #324 Taiwan.docx', 'submission/director', '2', NULL, '2017-09-30 14:18:05', '2017-09-30 14:18:05'
'131', '1', '324', '324-131-1-RV.doc', 'application/msword', '1535488', '324-122-1-SM.doc', 'submission/review', '2', NULL, '2017-07-18 10:25:40', '2017-07-18 10:25:40'
'377', '1', '324', '324-377-1-DR.doc', 'application/msword', '1560576', 'Paper Eco Design Taiwan-NS.doc', 'submission/director', '2', NULL, '2017-09-30 14:17:50', '2017-09-30 14:17:50'
'197', '1', '325', '325-197-1-SP.docx', 'application/vnd.openxmlformats-officedocument.wordprocessingml.document', '0', 'Consent_To_Publish.docx', 'supp', '2', NULL, '2017-09-19 14:41:06', '2017-09-19 14:41:06'
'195', '1', '325', '325-195-1-SM.docx', 'application/vnd.openxmlformats-officedocument.wordprocessingml.document', '0', 'test0919.docx', 'submission/original', '2', NULL, '2017-09-19 13:56:58', '2017-09-19 13:56:58'
'196', '1', '325', '325-196-1-RV.docx', 'application/vnd.openxmlformats-officedocument.wordprocessingml.document', '0', '325-195-1-SM.docx', 'submission/review', '2', NULL, '2017-09-19 13:57:06', '2017-09-19 13:57:06'
'262', '1', '327', '327-262-1-SM.pdf', 'application/pdf', '842477', 'Paper - EcoDesign Conference.pdf', 'submission/original', '2', NULL, '2017-09-28 17:57:46', '2017-09-28 17:57:46'
'263', '1', '327', '327-263-1-RV.pdf', 'application/pdf', '842477', '327-262-1-SM.pdf', 'submission/review', '2', NULL, '2017-09-28 17:57:57', '2017-09-28 17:57:57'
