# user_id, paper_id, paper_status, paper_pay_status, original_paper_type, username, paper_title
'28', '42', '1', '0', 'Proceeding', 'veekola0403', 'Happy Design and Development Strategy of Sustainable Products for Elderly From the Bottom of Pyramid Point of View'
'29', '43', '3', '1', 'E-book', 'seikichiba', 'Recent Progress on Soft Transducers for Sensor Networks'
'30', '45', '3', '1', 'E-book', 'tiwamoto', 'Study on business models for sustainable infrastructure'
'31', '46', '3', '1', 'Proceeding', 'nekopin', 'Recycling of plastic trays: Consumers’ habits and acceptance of new recycling techniques'
'33', '47', '1', '0', 'E-book', 'lisa', 'Design rules for customer satisfaction of sustainable product development'
'34', '48', '3', '1', 'Proceeding', 'byunghee', 'Eco-design methodology suitable for display module industry'
'36', '50', '3', '0', 'E-book', 'mpecck', 'Monitoring energy consumption of individual equipment in a workcell using augmented reality'
'39', '52', '3', '0', 'Proceeding', 'aurumdesign', 'Smart window: a convenient way of sustainable domestic air conditioning'
'43', '53', '3', '1', 'E-book', 'shoheikuroda', 'Life-cycle assessment-directed optimization of hydrogen sulfide removal during biomass-derived hydrogen production'
'42', '55', '3', '1', 'E-book', 'danielwehner', 'Turning the cyber physical production system of the world’s largest automotive research factoy ARENA2036 into a data-gold-mine for eco-design'
'24', '60', '3', '1', 'E-book', 'shihchenshi', 'Sustainable application analysis of biopolymer'
'45', '61', '3', '1', 'Proceeding', 'j_tao', 'Development of LCA module integrated with CAD for eco-design of machined products'
'47', '63', '3', '1', 'Proceeding', 'baby', 'The adverse consequence induced by swift fashion'
'57', '68', '3', '1', 'Proceeding', 'mitsutaka7239', 'A study on cross-border product refurbish and remanufacturing practices in Asia'
'56', '69', '1', '0', 'E-book', 'kent504', 'Comparison between different products by disassembly system design with parts selection for cost, recycling and CO2 saving rates using multi criteria optimization'
'44', '70', '1', '1', 'E-book', 'rena0728', 'Effects of Carbon Tax on Low-Carbon and Economic Supplier Selection for Asian Assembly Product'
'50', '71', '3', '0', 'Proceeding', 'chengjung', 'Life cycle assessment in fused deposition modeling (FDM) 3D printer'
'58', '72', '1', '0', 'E-book', 'amicolier', 'Coupling the assessment of environmental performance and air quality in residential buildings in a decision making support tool'
'59', '73', '3', '1', 'E-book', 'guigrim', 'How to Develop Indicators to Assess the Sustainability of Recycling Processes?'
'40', '74', '3', '1', 'Proceeding', 'minkoff', 'Environmental labels: characterization beyond the ISO 14020-series'
'60', '75', '3', '0', 'Proceeding', 'ihwan_ugm1986', 'CULTURAL INFLUENCES IN DESIGNING GREEN PRODUCT: CASE STUDY IN MALAYSIA'
'7', '76', '3', '1', 'Proceeding', 'lhshih', 'Persuasive design for more energy saving behavior considering users psychological factors'
'61', '77', '3', '1', 'E-book', 'yclan', 'An Environmental Management System Framework for Hong Kong Higher Education Institutions'
'23', '78', '1', '0', 'Proceeding', 'azureqin0118', 'Characterisation of Emerging Sustainable Packaging solutions for E-commerce Logistics'
'64', '79', '1', '0', 'Proceeding', 'tguidat', 'A multi-level framework for identifying best practices to improve competitiveness of remanufacturing strategies in the automotive parts sector'
'67', '81', '1', '0', 'Proceeding', 'shimajahani', 'Cultural and psychological effects of green facades in the developing countries (case study in Tehran)'
'69', '82', '3', '1', 'Proceeding', 'kimjongmin', 'Application of environmental monitoring techniques for K-IPPC'
'70', '83', '3', '1', 'Proceeding', 'joasj77', 'Economic analysis of indoor air quality management service'
'71', '84', '3', '1', 'E-book', 'chappy81', 'Energy system design incorporating socio-technical regimes and sustainability: Energy use, knowledge and choice in a liberalizing energy market'
'72', '85', '1', '1', 'E-book', 'huhao', 'Development of a municipal waste management system from environmental and economic evaluation perspectives:  a Best Available System methodology'
'75', '86', '3', '1', 'E-book', 'fp_ecodesign2017', 'Challenges when including sustainability aspects in product development – a multiple case study at three large manufacturing companies in Sweden'
'68', '87', '1', '0', 'Proceeding', 'benmclellan', 'Resource recovery in recycling networks: potential for sustainable consumption in Southeast Asia'
'45', '88', '1', '0', 'Proceeding', 'j_tao', 'A Meta-model based Approach for LCA-oriented Product Life Cycle Related Data Management'
'74', '89', '3', '1', 'E-book', 'nilsnissen', 'Implications of the Circular Economy for Electronic Products'
'27', '92', '3', '1', 'Proceeding', 'm10530010', 'Eco-design methods applied the scenario analysis of lifestyle research'
'53', '93', '3', '1', 'Proceeding', 'm10530007', 'Trust-Factor Analysis of Green Brand for Food Enterprise From Consumer Point of View'
'76', '94', '3', '0', 'Proceeding', 'akihiro_yoshimura', 'Development of Recycling System of Precious Metals and Rare Metals from WEEEs Using “Organic Aqua Regius” – Propylene Carbonate Solvent Containing CuBr2'
'77', '95', '3', '0', 'E-book', 'halstenberg', 'Implementation of an energy metering system for smart production'
'54', '96', '3', '1', 'Proceeding', 'linshenghuei', 'Factor Analysis of Packaging Visual Design for Happiness on Organic—Middle-aged and Elderly as Example'
'74', '97', '3', '1', 'E-book', 'nilsnissen', 'Between the User and the Cloud: Assessing the Energy Footprint of the Access Network Devices'
'79', '98', '1', '0', 'Proceeding', 'weichen', 'Sustainability Analysis and Development of Ecodesign for Green Culture'
'81', '99', '1', '0', 'Proceeding', 'feng9730808', 'Self-Reference Green Advertising Effects: the Moderating Argument Quality and Emotion influences'
'85', '100', '3', '1', 'E-book', 'gwyntorn', 'Exploring the environmental movement for the preservation of big trees: a case study of urban areas in Thailand'
'84', '101', '1', '1', 'E-book', 'inanohiroyuki', 'Metal recovery from printed circuit board by using CRT lead glass'
'87', '102', '1', '1', 'E-book', 'bkopacek', 'Recovery of critical metals as a service - advanced treatment of e-waste as a model for emerging economies'
'86', '103', '1', '0', 'E-book', 'kevin_ho', 'Determining Recycle Value of Automotive Designs Using Fuzzy Decision Model'
'83', '104', '1', '1', 'E-book', 'szepeilim', 'Pb-free Die Attach Material For High Temperature and Harsh Environment Applications'
'65', '105', '1', '1', 'Proceeding', 'peacefulspring', 'Design and LCA of Food Packaging Focusing on Their Protective Effect'
'89', '106', '1', '1', 'E-book', 'masuikjr', 'A study on specification of information system for product life cycle management in IoT era'
'82', '109', '3', '1', 'Proceeding', 'iamdongsik', 'Key Findings on Potential Environmental Impacts of Tablet PC'
'40', '110', '1', '0', 'Proceeding', 'minkoff', 'Application of Blockchain Distributed Database Technology in Environmental Labelling'
'52', '111', '1', '1', 'E-book', 'ecodesignotto58', 'Perspectives of Knowledge Translation within Sustainable Product Development'
'94', '112', '1', '0', 'E-book', 'tom_buchert', 'An engineering decision support system to drive sustainability targets in the design process'
'55', '113', '3', '1', 'E-book', 'dasdy546', 'Towards a Circular Economy：An Analysis of Innovation in Taiwanese Small and Medium-sized Enterprises'
'98', '115', '3', '1', 'Proceeding', 'simca1100', 'New Technologies for more Sustainable Automotive Services 2020'
'100', '117', '3', '0', 'Proceeding', 'ellenbracquene', 'Development of harmonized reparability criteria and assessment methodology for a circular economy'
'101', '118', '1', '0', 'E-book', 'phanhoangthuthao', 'DEVELOPMENT AND PROMOTION OF SOLID WASTE MANAGEMENT EDUCATION IN ELEMENTARY SCHOOLS USING THE JAPANESE MODEL; CASE STUDY IN DA NANG, VIETNAM.'
'102', '119', '3', '1', 'Proceeding', 'mj23339', 'Study on the Attractive Factors of Environmental Bamboo Products'
'103', '120', '3', '1', 'E-book', 'rgo', 'Integrating sustainability in design thinking based product design'
'105', '122', '1', '1', 'E-book', 'takato39', 'Development of a 3D-printed Device for Evaluating the Aerodynamic Performance of a Rotary Wing'
'106', '123', '1', '0', 'Proceeding', 'curieous', 'Interdisciplinary Ecodesign Innovation for Textile Waste in Sri Lanka'
'51', '124', '1', '1', 'Proceeding', 'yusukekishita', 'Creating Visions of Asian Sustainable Consumption and Production in 2050'
'90', '125', '1', '0', 'E-book', 'shotakondo', 'A proposal of Bio-H2 production through the sewage sludge biomass gasification'
'107', '126', '3', '1', 'E-book', 'kiyofumisato', 'The proposal of the eco-indicator for Fuel Cell cogeneration system'
'63', '127', '3', '1', 'Proceeding', 'sherry', 'A Study on the Communication of Networking Design for Natural Indigo Dyeing Workshops in Taiwan'
'97', '128', '3', '1', 'Proceeding', 'damon17', 'The research for the eco-efficiency assessment of cosmetics containers'
'108', '129', '1', '1', 'E-book', 'bellalin', 'Trends in International Green Certification and Experience Sharing on Counselling Cases in Taiwan'
'109', '130', '3', '1', 'E-book', 'yasukowatanabe', 'A Proposal of the LCA index consideration of environmental burden and health information'
'110', '131', '1', '0', 'E-book', 'bustan', 'A new eco-composite based on leather residues and hemp'
'112', '132', '3', '1', 'Proceeding', 'hkomoto', 'Simulation-based analysis of impacts of dynamic data acquisition and integration on the realization of an efficient recycling process chain for small electric and electrical equipment'
'96', '133', '1', '0', 'E-book', 'durva', 'A Study on Affordance-based Ecodesign'
'113', '134', '3', '1', 'E-book', 'skondoh', 'Toward a sustainable business design: a problem formulaton'
'114', '135', '3', '1', 'E-book', 'khliu', 'The framework of the integration of carbon footprint and blockchain: using blockchain as a carbon emission management tool'
'91', '137', '3', '1', 'Proceeding', 'eco1201', 'The study of the relationships between consumer\'s life style and green  marketing.'
'116', '138', '1', '1', 'E-book', 'tomoyuki_ishiyama', 'LCA of bio-methanol production system in consideration of CO2 sequestration'
'119', '141', '3', '1', 'Proceeding', 'carol', 'Discussion on the Sustainable Design of Healing Products'
'62', '142', '3', '1', 'Proceeding', 'ichingchen', 'Implementation of a novel biodiesel production system in local community'
'120', '143', '1', '0', 'Proceeding', 'foroogh_zaman_68', 'Smart and usable home energy management systems in produce  Water'
'121', '145', '1', '0', 'E-book', 'faezeh', 'A Study of the Effect of Embodied Experience on Sustainable Lifestyle'
'122', '146', '1', '0', 'Proceeding', 'maryam', 'Importance of service design in subway stations with eco-design approach'
'123', '147', '1', '0', 'Proceeding', 'baharjs', 'Sustainability in jewelry by design; is it possible for consumers to sustain a beloved product?'
'124', '148', '1', '0', 'E-book', 'jorgeml', 'Scope Definition on End-of-Life Chain Performance Assessment: Recycling Rate and French E-Waste Chain Case Study'
'125', '149', '3', '1', 'Proceeding', 'maruyama5588', 'Estimation of Lifetime Functions of Plastic Products'
'127', '151', '3', '1', 'Proceeding', 'wxc218', 'Economic and Environmental Analysis of 3D Printing Hybrid Production Mode'
'127', '152', '3', '0', 'Proceeding', 'wxc218', 'AIS Base Station Location Optimization for the Prevention of Maritime Environmental Disasters'
'115', '153', '3', '0', 'Proceeding', 'cacaca710', 'The study of service design system for solving food wastage problem in Taiwan'
'128', '154', '3', '1', 'E-book', 'edvinl', 'Designing Functional Economy Business Models - Takeaways from a Case Study in the Small Household Electronic Equipment Industry'
'131', '156', '3', '1', 'E-book', 'norm75120', 'Residents’ Reactions against Wind Turbines and Influence of Will of Investment'
'132', '157', '3', '1', 'E-book', 'afunandesu', 'Modeling and analysis of material flow towards establishment of e-waste recycling system in Malaysia'
'111', '158', '3', '1', 'Proceeding', 'tingfen1210', 'Recycled Ocean Plastic Product Design for Local Based Remanufacturing Technology'
'134', '159', '3', '1', 'Proceeding', 'wrifer', 'A Vision for the Circular Economy in Hard Disk Drives Based on Self-Management of Common Pool Resources'
'136', '161', '3', '1', 'E-book', 'hirose', 'Examination of Effectiveness of Remote Recycling through Material Composition Measurement of Used Small Electronics'
'135', '162', '3', '0', 'E-book', 'chiaki', 'Design and Control of Remote Operation Devices for Remote Recycling'
'26', '164', '1', '0', 'E-book', 'ailakhan', 'Attributes of carbon-labelling to drive consumer purchase intentions'
'138', '166', '1', '0', 'Proceeding', 'fouram', 'Life Cycle Implications of Lightweighting the US Vehicle Fleet: Estimates based on Multi-Material Lightweight Vehicle (MMLV)'
'139', '167', '1', '0', 'Proceeding', 'ydjung', 'Case Studies of Innovative EcoDesign-focusing on development background, technical features and sustainable points'
'141', '170', '3', '1', 'Proceeding', 'oikawa', 'Remote Operating Experiment towards Realization of Remote Recycling'
'130', '172', '1', '0', 'E-book', 'bjrishamina', 'Studies on the suitable rot-proof processes for manufacturing more sustainable jute based nursery pot'
'7', '173', '3', '1', 'Proceeding', 'lhshih', 'Design for LOHAS products with persuasive technology and gamification'
'35', '176', '1', '1', 'E-book', 'e814033', 'Investigating the difference of the consumer cognition and purchase intention of possessing a green message product on the viewpoint of  Kansei Engineering'
'143', '178', '3', '1', 'Proceeding', 'olivexu', 'Development of Ecological Aesthetics-based University Campus Landscape Planning and Design Strategies – Taking University Campus Landscape Planning and Design in Mainland China for Example'
'88', '180', '1', '0', 'Proceeding', 'ktoki2', 'Energy modeling approach to the global energy-mineral nexus: A case of hydrogen fuel cell in transport'
'146', '182', '3', '1', 'Proceeding', 'tomsakao', 'Communication, Collaboration, and Co-creation for implementing PSS'
'147', '184', '3', '0', 'E-book', 'elasli', 'Design of a wetlands as an environmental friendly system for wastewater treatment in Al Akhawayn University in Ifrane Morocco'
'10', '185', '3', '0', 'Proceeding', 'ssmith', 'An Integrated Immersive Augmented Reality Disassembly Training System with Natural User Interface'
'78', '188', '3', '1', 'E-book', 'wangjt', 'The Effects of Collection Promotions on Resources Efficient Utilization and Resources Sustainability of Mobile Phone Market: A System Dynamics Approach'
'137', '190', '3', '1', 'E-book', 'naito1224', 'Environmental Impact Assessment of Functional and Visual Design Features of Smartphones'
'93', '192', '1', '1', 'E-book', 'chenfu007', 'An Approach for Establishing Eco-Product Value Indicators'
'148', '193', '1', '1', 'E-book', 'ks_001', 'Describing Diffusion Scenarios for Low-Carbon Products Using Life Cycle Simulation'
'145', '194', '1', '0', 'E-book', 'sittha', 'User Insight Discovery in Design of Assistive Furniture for Elders'
'150', '195', '3', '1', 'E-book', 'xiaobosurrey', 'How to create a business relevant LCA'
'152', '197', '3', '1', 'Proceeding', 'gaia', 'Introduction of Carbon Footprint Calculation platform'
'151', '200', '3', '1', 'Proceeding', 'yinghsien', 'The Low-carbon Air Cleaner Product Development by Low-carbon Decision Making System'
'8', '201', '3', '1', 'Proceeding', 'pcwang', 'An Eco-innovation Design Method by Integrating New TRIZ Eco-matrix with Biomimetic Concepts'
'154', '203', '3', '1', 'Proceeding', 'shota', 'A Compatible Study in Different Regions for Locally Oriented Design'
'156', '204', '1', '0', 'Proceeding', 'kaveh_t', 'Iran\'s carpet weaving industry : problems and solutions'
'155', '205', '1', '0', 'Proceeding', 'thomas_williamson', 'Interaction Prediction of Deep Neural Network: Macro-Micro Design Feature of Products with Its Carbon Emission'
'13', '207', '3', '1', 'Proceeding', 'hao-jhang', 'Product Carbon Footprint Standard Calculation Procedure for Display Industry'
'157', '208', '1', '0', 'E-book', 'h_bayadi', 'A Nanotechnology approach in line with Sustainable design to produce kitchen ware'
'159', '210', '1', '0', 'E-book', 'dai-64', 'Promotion of EcoDesign products, understanding the relationship between pro-environmental behavior and value standard of public'
'162', '212', '3', '0', 'Proceeding', 'sootyng', 'From Stakeholder participation to Stakeholder Engagement, Emotion leads to Action through Eco Art Festival (EAF)'
'144', '213', '1', '0', 'Proceeding', 'tomoyasato', 'Spatially-defined electroless copper plating on microstructured PDMS surfaces'
'161', '214', '3', '1', 'Proceeding', 'umeda', 'On the circularity of remanufactured products in Asia – their market competitiveness'
'163', '215', '3', '1', 'E-book', 'ranaporn', 'Solar photovoltaic market adoption: Dilemma of technological exploitation vs technological exploration'
'48', '216', '3', '0', 'Proceeding', 'wcwsky', 'Uncertainty analysis for developing the emission factor of the enteric fermentation of dairy cow in Korea'
'165', '217', '3', '0', 'Proceeding', 'skychiu64', 'Design of Personalized Product Service System Utilizing Multi-Agent System'
'165', '218', '3', '0', 'Proceeding', 'skychiu64', 'PRODUCT PACKAGING SYSTEM IN A SUPPLY CHAIN CONSIDERING SUSTAINABILITY'
'164', '220', '1', '1', 'E-book', 'chliu', 'An Intelligent Robotic System for Handling and Laser Marking Fruits'
'166', '221', '3', '0', 'Proceeding', 'jooyounglee', 'Identification of environmentally weak points of the manufacturing processes and optimization of the combination of the end-of-pipe technologies for treating process environmental emissions'
'167', '222', '3', '1', 'E-book', 'florianwagner', 'Quality Assessment of Plastic Recyclates from Waste Electrical and Electronic Equipment (WEEE): A Case Study for Desktop Computers, Laptops and Tablets'
'168', '223', '3', '1', 'Proceeding', 'yuji_mizuno_iae', 'A Scenario Analysis on Hydrogen Society Transition as an Analogy of Introduction of LNG to Japan in 1960\'s'
'38', '224', '3', '1', 'Proceeding', 'lcz16888', 'Selective zinc chlorination volatilization for iron recycling from zinc contaminated sludge'
'92', '225', '3', '0', 'Proceeding', 'jongseok007', 'Uncertainty analysis in water scarcity footprint for AWARE model'
'153', '226', '1', '0', 'Proceeding', 'dreamerof', 'Ecodesign of hair dryer focusing on stakeholder requirements'
'170', '227', '1', '0', 'E-book', 'jef', 'Evaluating recycling scenarios: a case study for photovoltaic (PV) panels'
'129', '228', '1', '0', 'E-book', 'ych3993', 'Exploring the gap between the consumer\' value cognition of shopping bags and using behavior'
'172', '230', '1', '0', 'Proceeding', 'sllin', 'The study of environmental considerations in the processes of recycled printed wiring boards'
'173', '231', '3', '1', 'Proceeding', 'katz', 'Mitigation and adaptation strategy to climate change based on life cycle thinking: a case study of electric vehicle in Japan'
'174', '232', '1', '0', 'E-book', 'shripuneet', 'Environmental Conscious Design of Electronic products and its evaluation with a case study'
'140', '233', '3', '1', 'Proceeding', 'asako', 'Local Residents\' Awareness of the Value of Regional Resources -A Case Study of Traditional Food “Heshiko” of Kutsuki District, Shiga Prefecture –'
'175', '234', '1', '0', 'E-book', 'marcom82', 'How industrial companies perceive EcoDesign? An Italian survey'
'133', '235', '3', '1', 'Proceeding', 'kevinkuo', 'Environmental Impact Assessment of Semiconductors Packaging technology-A Case Study of Ball Grid Array Series Product from Semiconductors Company in Taiwan'
'177', '236', '3', '0', 'Proceeding', 'kelvincheng', 'The Standard and Potential of Blockchain & IIOT Technology on Applied to Green Process Automation Industries and the Its Role for Business Modal'
'178', '237', '3', '1', 'Proceeding', 'takezawa_hiroaki', 'Consumer Exposure Estimation of Chemicals of Concern  from Plastic Products in Electronical and Electronic Equipment'
'16', '238', '1', '0', 'Proceeding', 'tckuocycu', 'The study of environmental footprint to support the Eco Design'
'46', '239', '3', '1', 'Proceeding', 'a-kimura', 'EFFECT of LIFE STAGE and HOUSEHOLD EQUIPMENT in SMART COMMUNITY DESIGN'
'179', '240', '1', '0', 'E-book', 'chaipipat', 'User satisfaction of small solar food dehydrator by using vegetable oil as heat transmission media for SMEs in Thailand'
'180', '241', '1', '0', 'E-book', 'hidetaka', 'Circular economy in business strategy of manufacturing company'
'22', '242', '3', '1', 'Proceeding', 'ryan830815', 'An Eco-Innovative design method of Machinery for Energy Conservation and Carbon Reduction by using TRIZ method'
'160', '243', '1', '0', 'Proceeding', 'tomoyuki_tamura', 'A design support method for local oriented manufacturing based on task based model'
'183', '244', '3', '1', 'E-book', 'hiroto_takaki', 'Study on a Model to Support Decision Making for Determining Feed in Tariff Price'
'41', '245', '1', '0', 'E-book', 'paperjeff', 'A Decision Supporting Tool of Critical Material Screening and Management for Sustainable Materials Management'
'186', '246', '1', '1', 'Proceeding', 'hogawa2017', 'Possibility of the use of agriculture of the waste water from a biological cheap ventilation deodorant device of the shield type pigpen'
'111', '247', '3', '1', 'Proceeding', 'tingfen1210', 'Case Study for Recycled Ocean Plastic Product Design'
'188', '248', '3', '0', 'Proceeding', 'michikazukojima', 'Trade Restriction and Extending Product Life Time'
'32', '250', '1', '1', 'E-book', 'keitasasaki', 'Environmental impacts of Japanese micro van electrification based on real-world use cases'
'189', '251', '3', '1', 'E-book', 'rezanadimi', 'Renewable Energy Substitution Model and Environment Saving'
'191', '253', '3', '1', 'Proceeding', 'naoyayokono', 'A life cycle simulation model focusing on multi-system interactions'
'192', '254', '1', '0', 'Proceeding', 'shahabhd', 'The effects of card magic on encouraging social interaction in a university community:  A study of social pillar of sustainable development'
'190', '256', '1', '0', 'E-book', 'flychu', 'Research on Innovative Design of Green craft products'
'181', '257', '1', '0', 'Proceeding', 'beatricetsai', 'A Study on the Relationship between Social Entrepreneurs\' Characteristics and the Establishment of Business Models in Social Enterprises'
'193', '258', '3', '1', 'E-book', 'khalid', 'Global Practices of the Implementation of Solar Energy'
'182', '259', '1', '1', 'E-book', 'nagasawa-4', 'Disassembly support for reuse of mechanical products based on a part agent system'
'194', '261', '1', '1', 'E-book', 'htthtt', 'Rethinking Sustainability Assessment: Incorporating the Ethical Dimension into Decision Making'
'195', '262', '1', '0', 'E-book', 'chia-chen', 'Exploring the Difference Between Young People Consumers’ Green Consumption and Cognition for Green Packing'
'4', '263', '1', '1', 'E-book', 'jahaulewischen', 'Eco-innovation by integrating Technologies for the Future with TRIZ'
'196', '266', '1', '0', 'E-book', 'marszl521', 'Analysis on Present Situation of Sewage Treatment in Rural Areas of China'
'117', '267', '1', '1', 'E-book', 'yoshi777', 'Bayesian estimation for the reuse of mechanical parts using part agents'
'197', '268', '1', '0', 'E-book', 'jvdbank', 'Bridging the gap between product development and sustainable business models: theoretical promises and practical applications. (working title)'
'176', '269', '1', '0', 'E-book', 'faheemak', 'The role of internal collaborations in DfS implementation in companies'
'199', '270', '1', '0', 'Proceeding', 'michi46', 'Role of future generations in deliberation: A case study of Suita city’s energy workshop'
'104', '273', '1', '0', 'E-book', 'liang_073', 'Study on Evaluation and Screening Index System for Processing Technology in Rural Domestic Sewage in China'
'201', '275', '3', '1', 'E-book', 'shindi2017', 'Sustainability Integrating in Industrial Design Education - A Case Study of  Japanese Universities'
'202', '276', '3', '1', 'Proceeding', 'murai', 'Life cycle simulation for maintenance services of POS terminals'
'7', '278', '1', '0', 'E-book', 'lhshih', 'A novel design method for sustainable service systems implementing emerging technologies'
'3', '279', '1', '1', 'Proceeding', 'htchang', 'Instant Water Footprint Assessment on Electronic Products'
'185', '282', '3', '0', 'Proceeding', 'hirokazu-19', 'Uncovering fate of carbon contained in highly-fabricated products'
'200', '283', '3', '1', 'E-book', 'fukumashi', 'Exchange of modules among robot manipulators using part agents'
'187', '284', '3', '0', 'Proceeding', 'knm486946', 'Organizational Life Cycle Assessment (OLCA) of Kogakuin University'
'203', '286', '3', '0', 'Proceeding', 'liyunjui', 'Effect of Fuel Consumption Information - A Methods on Fuel Consumption Reduction'
'206', '287', '1', '0', 'Proceeding', 'thomaschen', 'A competitiveness based RoHS of green product in Taiwan'
'207', '288', '1', '0', 'Proceeding', 'minakiani', 'Natural cooling installations using renewable energy based on inspiration from the history of civilization in Iran'
'208', '289', '1', '0', 'E-book', 'hot0922hot', 'Explore the commercial design elements of Aquaponics'
'206', '290', '1', '0', 'Proceeding', 'thomaschen', 'A VOCs issue to Improve plastic materials from 3D Printing'
'210', '291', '1', '0', 'E-book', 'curtisskimo', 'Exploring the green express packaging design of online shopping in Taiwan'
'169', '294', '3', '1', 'Proceeding', 'fukushige', 'A Virtualized Reality Environment for the Immersive Evaluation of Locally-Oriented Product Design'
'49', '296', '3', '1', 'Proceeding', 'yukimataga', 'Long-term evaluation of building energy efficiency by cutting edge BEMS'
'211', '297', '1', '0', 'Proceeding', 'ryotaronakamura', 'Evaluation of integrated agro-industrial systems considering expected frequencies of interannual weather variability'
'205', '298', '1', '0', 'Proceeding', 'hoyihsien', 'From the feelings of residents to discuss how to build a bike friendly city - taking Taipei City as an example'
'212', '299', '1', '1', 'Proceeding', 'ihehong', 'Impact of Subsidy Policies on Green Products with Consideration of Reference-dependent Preferences'
'171', '300', '1', '1', 'E-book', 'annakarin', 'Policy for Circular Economy: Prestudy for improved policy development.'
'214', '301', '1', '1', 'Proceeding', 'huangwunhui', 'Study on the calculation of carbon footprint of WEEE recycled materials for promoting circular economy'
'216', '302', '1', '0', 'Proceeding', 'minahejazi', 'The Characteristics of Timeless Design in Sustainable Fashion'
'213', '303', '1', '0', 'E-book', 'kattwinkel', 'Correlations and interrelation of influencing factors on the environmental impacts during the product usage'
'218', '305', '1', '0', 'Proceeding', 'debonaire', 'Developments in Eco-Feedback Technology applying Manufacturing Facilities of SMEs as a Part of Korean Smart Factory Dissemination Policy'
'37', '306', '1', '1', 'E-book', 'may29', 'Development of a new database for the design of efficient recycling processes: the case study of tantalum'
'219', '307', '3', '0', 'Proceeding', 'florian_bratec', 'Towards the creation of an impact seriousness indicator to assist the designer.'
'220', '308', '1', '0', 'Proceeding', 'shen-vera2363', 'Study on Case Statistics of Environmental Declaration of Products'
'184', '309', '1', '0', 'Proceeding', 'khmahmoudi', 'Co-Design and Product lifetime: How instruments of participatory design can improve sustainability?'
'204', '310', '1', '0', 'E-book', 'jhanafi', 'A Case Study of Life Cycle Assessment of Household Waste Management in Bekasi,  Indonesia'
'221', '311', '1', '0', 'Proceeding', 'kianoosh', 'Title: Design for Upcycling: A Design approach to make upcycling applicable in industrial scale'
'222', '312', '3', '1', 'Proceeding', 'vincent_chen', 'Growing environmental benefits of shifting passengers from riding vehicles to public bikes'
'209', '313', '1', '0', 'Proceeding', 'benchao', 'An innovative cleaner production in ICT industry- Replacing electroplating by 3D printing technology'
'223', '314', '1', '0', 'Proceeding', 'weitinghsiao', 'Study on the Mode of Use of electric breast pump'
'224', '315', '3', '1', 'Proceeding', 'daniel', 'Modeling of reverse logistics system for modular products under emission consideration'
'94', '316', '3', '1', 'E-book', 'tom_buchert', 'Integration of sustainability targets in the development process of german manufacturing companies'
'228', '318', '3', '0', 'Proceeding', 'jun0716', 'Regional Background Emission Information and Integration with Life Cycle Assessment in Food and Agriculture System'
'227', '319', '1', '1', 'Proceeding', 'mkano', 'Circular Economy and Satoyama Capitalism under the Recent Situations of Protectionism and Populism'
'228', '320', '1', '0', 'Proceeding', 'jun0716', 'End-of-life management of light-emitting diode (LED) lamps'
'225', '321', '1', '0', 'E-book', 'singhman', 'Managing Hospital Wastes with Upcycling'
'198', '322', '1', '0', 'E-book', 'javidmoazami1975', 'Strategies and systematic approaches for PET waste management in  the developing countries'
'217', '323', '1', '1', 'Proceeding', 'mshinozuka', 'Assessment of impacts on CO2 emissions and GDP of ICT services in Japan using computable general equilibrium model'
'231', '324', '3', '0', 'E-book', 'nsakundarini', 'Component Recoverability Analysis in Product Design  Using System Dynamics Modelling'
'1', '325', '4', '0', 'E-book', 'root', '0820_Manager_Test_Paper'
'257', '327', '1', '0', 'Proceeding', 'srouini', 'Wastewater Treatment Ponds in the Moroccan WaterEnergy Nexus: Life Cycle Assessment & Energy Recovery Potentials'
