# file_id, revision, paper_id, file_name, file_type, file_size, original_file_name, type, stage, viewable, date_uploaded, date_modified
'219', '1', '50', '50-219-1-SP.pdf', 'application/pdf', '135172', 'Consent_to_Publish_(Springer) - Ho and Chui.pdf', 'supp', '2', NULL, '2017-09-25 13:45:19', '2017-09-25 13:45:19'
'217', '1', '50', '50-217-1-SP.pdf', 'application/pdf', '38195', 'Responses to reviewers\' comments - Ho and Chui.pdf', 'supp', '2', NULL, '2017-09-25 13:39:15', '2017-09-25 13:39:15'
'218', '1', '50', '50-218-1-SP.docx', 'application/vnd.openxmlformats-officedocument.wordprocessingml.document', '5404140', 'AR energy monitoring - Ho and Chui - Springer.docx', 'supp', '2', NULL, '2017-09-25 13:42:14', '2017-09-25 13:42:14'
'269', '1', '53', '53-269-1-SP.pdf', 'application/pdf', '343378', 'Springer_Consent toPublish＃53Shohei_Kuroda.pdf', 'supp', '2', NULL, '2017-09-29 11:02:12', '2017-09-29 11:02:12'
'380', '1', '53', '53-380-1-SP.docx', 'application/vnd.openxmlformats-officedocument.wordprocessingml.document', '2691798', 'Springer.docx', 'supp', '2', NULL, '2017-09-30 14:58:11', '2017-09-30 14:58:11'
'210', '1', '55', '55-210-1-SP.pdf', 'application/pdf', '333531', 'Wehner_Final_Paper.pdf', 'supp', '2', NULL, '2017-09-21 14:23:20', '2017-09-21 14:23:20'
'211', '1', '55', '55-211-1-SP.pdf', 'application/pdf', '399106', 'Wehner_Final_Paper_Springer.pdf', 'supp', '2', NULL, '2017-09-21 19:39:07', '2017-09-21 19:39:07'
'209', '1', '55', '55-209-1-SP.pdf', 'application/pdf', '1384865', 'Wehner_Consent_to_publish.pdf', 'supp', '2', NULL, '2017-09-21 14:13:36', '2017-09-21 14:13:36'
'212', '1', '55', '55-212-1-SP.docx', 'application/vnd.openxmlformats-officedocument.wordprocessingml.document', '2121173', 'Wehner_Final_Paper_Springer.docx', 'supp', '2', NULL, '2017-09-21 19:39:55', '2017-09-21 19:39:55'
'304', '1', '70', '70-304-1-SP.docx', 'application/vnd.openxmlformats-officedocument.wordprocessingml.document', '4080220', 'RenaKondo_EcoDesign_FinalPaper_Springer format.docx', 'supp', '2', NULL, '2017-09-29 17:49:28', '2017-09-29 17:49:28'
'305', '1', '70', '70-305-1-SP.pdf', 'application/pdf', '204051', 'RenaKondo_EcoDesign_Description of the paper revisions.pdf', 'supp', '2', NULL, '2017-09-29 17:55:32', '2017-09-29 17:55:32'
'308', '1', '70', '70-308-1-SP.pdf', 'application/pdf', '226849', 'RenaKondo_Consent_to_Publish_(Springer).pdf', 'supp', '2', NULL, '2017-09-29 17:57:07', '2017-09-29 17:57:07'
'379', '1', '84', '84-379-1-SP.pdf', 'application/pdf', '3136930', 'SCN_0001.pdf', 'supp', '2', NULL, '2017-09-30 14:35:46', '2017-09-30 14:35:46'
'421', '1', '84', '84-421-1-SP.docx', 'application/vnd.openxmlformats-officedocument.wordprocessingml.document', '4439460', 'Chapman (84) Springer Format.docx', 'supp', '2', NULL, '2017-09-30 22:35:17', '2017-09-30 22:35:17'
'341', '1', '85', '85-341-1-SP.docx', 'application/vnd.openxmlformats-officedocument.wordprocessingml.document', '2529669', 'Draft_HU - Springer.docx', 'supp', '2', NULL, '2017-09-30 09:58:24', '2017-09-30 09:58:24'
'349', '1', '85', '85-349-1-SP.PDF', 'application/pdf', '630902', 'Consent_to_Publish_(Springer)　HaoHU.PDF', 'supp', '2', NULL, '2017-09-30 11:06:33', '2017-09-30 11:06:33'
'367', '1', '85', '85-367-1-SP.pdf', 'application/pdf', '353923', 'Description of the paper revisions.pdf', 'supp', '2', NULL, '2017-09-30 12:54:27', '2017-09-30 12:54:27'
'336', '1', '86', '86-336-1-SP.pdf', 'application/pdf', '1506024', 'Concent to Publish_Springer_EcoDesign2017_paper_Paulson Sundin.pdf', 'supp', '2', NULL, '2017-09-30 03:24:58', '2017-09-30 03:24:58'
'337', '1', '86', '86-337-1-SP.docx', 'application/vnd.openxmlformats-officedocument.wordprocessingml.document', '3139232', 'Paulson Sundin 2017 (Springer) Challenges when including sustainability aspects in product development at two large manufa.docx', 'supp', '2', NULL, '2017-09-30 03:29:29', '2017-09-30 03:29:29'
'338', '1', '86', '86-338-1-SP.pdf', 'application/pdf', '30155', 'Revisions made_Paulson Sundin 2017 Challenges when including sustainability aspects in product development at two large man.pdf', 'supp', '2', NULL, '2017-09-30 03:31:19', '2017-09-30 03:31:19'
'365', '1', '100', '100-365-1-SP.docx', 'application/vnd.openxmlformats-officedocument.wordprocessingml.document', '693268', '2.3_Final paper Springer_gwyntorn.docx', 'supp', '2', NULL, '2017-09-30 12:42:47', '2017-09-30 12:42:47'
'366', '1', '100', '100-366-1-SP.pdf', 'application/pdf', '531927', '2.4_Consent_to_Publish_(Springer).pdf', 'supp', '2', NULL, '2017-09-30 12:45:06', '2017-09-30 12:45:06'
'422', '1', '101', '101-422-1-SP.pdf', 'application/pdf', '249515', 'consent_to_publish_inano.pdf', 'supp', '2', NULL, '2017-09-30 22:39:04', '2017-09-30 22:39:04'
'417', '2', '101', '101-417-2-SP.docx', 'application/vnd.openxmlformats-officedocument.wordprocessingml.document', '5137067', 'Springer_inano_2017.docx', 'supp', '2', NULL, '2017-09-30 22:11:01', '2017-09-30 22:11:01'
'297', '1', '111', '111-297-1-SP.docx', 'application/vnd.openxmlformats-officedocument.wordprocessingml.document', '56874', 'EcoDesign 2017 eBook.docx', 'supp', '2', NULL, '2017-09-29 16:34:56', '2017-09-29 16:34:56'
'298', '1', '111', '111-298-1-SP.pdf', 'application/pdf', '324859', 'Consent_to_Publish_(Springer).pdf', 'supp', '2', NULL, '2017-09-29 16:38:44', '2017-09-29 16:38:44'
'409', '1', '120', '120-409-1-SP.pdf', 'application/pdf', '1822011', 'Permission to publish.pdf', 'supp', '2', NULL, '2017-09-30 21:06:20', '2017-09-30 21:06:20'
'412', '1', '120', '120-412-1-SP.docx', 'application/vnd.openxmlformats-officedocument.wordprocessingml.document', '4780081', 'EcoDesign2017 Springer version -Sust dev design thinking.docx', 'supp', '2', NULL, '2017-09-30 21:36:47', '2017-09-30 21:36:47'
'344', '1', '130', '130-344-1-SP.docx', 'application/vnd.openxmlformats-officedocument.wordprocessingml.document', '2860300', 'yasukowatanabe_2017_sample2.docx', 'supp', '2', NULL, '2017-09-30 10:33:54', '2017-09-30 10:33:54'
'345', '1', '130', '130-345-1-SP.pdf', 'application/pdf', '1944772', 'Consent of publish.pdf', 'supp', '2', NULL, '2017-09-30 10:36:49', '2017-09-30 10:36:49'
'343', '1', '130', '130-343-1-SP.pdf', 'application/pdf', '34932', 'Description of the paper revisions_yasukowatanabe.pdf', 'supp', '2', NULL, '2017-09-30 10:31:56', '2017-09-30 10:31:56'
'300', '1', '134', '134-300-1-SP.doc', 'application/msword', '202752', 'ED_2017kondohSubmit.doc', 'supp', '2', NULL, '2017-09-29 16:57:31', '2017-09-29 16:57:31'
'229', '1', '148', '148-229-1-SP.doc', 'application/msword', '3073024', 'ED17_Article_RR Indicator Calculation_FINAL (Springer).doc', 'supp', '2', NULL, '2017-09-27 00:36:45', '2017-09-27 00:36:45'
'230', '1', '148', '148-230-1-SP.pdf', 'application/pdf', '2611968', 'SPRINGER Consent to publish Ecodesign 2017.pdf', 'supp', '2', NULL, '2017-09-27 00:37:33', '2017-09-27 00:37:33'
'389', '1', '154', '154-389-1-SP.pdf', 'application/pdf', '298753', 'Consent_to_Publish_(Springer)_Edvin_Lindgren.pdf', 'supp', '2', NULL, '2017-09-30 16:09:08', '2017-09-30 16:09:08'
'410', '1', '154', '154-410-1-SP.docx', 'application/vnd.openxmlformats-officedocument.wordprocessingml.document', '2514068', 'Springer -Designing sustainable functional economy business models - takeaways from a case study in the small household eq.docx', 'supp', '2', NULL, '2017-09-30 21:15:57', '2017-09-30 21:15:57'
'411', '1', '154', '154-411-1-SP.pdf', 'application/pdf', '483428', 'Springer -Designing sustainable functional economy business models - takeaways from a case study in the small household equ.pdf', 'supp', '2', NULL, '2017-09-30 21:16:44', '2017-09-30 21:16:44'
'208', '1', '156', '156-208-1-SP.pdf', 'application/pdf', '2268569', 'Consent to publish ID156.pdf', 'supp', '2', NULL, '2017-09-20 16:36:27', '2017-09-20 16:36:27'
'213', '1', '156', '156-213-1-SP.docx', 'application/vnd.openxmlformats-officedocument.wordprocessingml.document', '2175919', 'ID156-e-book format-final.docx', 'supp', '2', NULL, '2017-09-22 17:05:52', '2017-09-22 17:05:52'
'354', '1', '157', '157-354-1-SP.docx', 'application/vnd.openxmlformats-officedocument.wordprocessingml.document', '3803090', 'Springer Ebook - Modeling and analysis of material flow towards better e-waste recycling system in Malaysia.docx', 'supp', '2', NULL, '2017-09-30 11:38:34', '2017-09-30 11:38:34'
'356', '1', '157', '157-356-1-SP.pdf', 'application/pdf', '1408002', 'Consent to publish.pdf', 'supp', '2', NULL, '2017-09-30 11:41:24', '2017-09-30 11:41:24'
'361', '1', '157', '157-361-1-SP.pdf', 'application/pdf', '100780', 'Review\'s Comment.pdf', 'supp', '2', NULL, '2017-09-30 12:07:59', '2017-09-30 12:07:59'
'390', '1', '161', '161-390-1-SP.pdf', 'application/pdf', '1396731', 'Consent_to_Publish_(Springer) .pdf', 'supp', '2', NULL, '2017-09-30 16:17:12', '2017-09-30 16:17:12'
'391', '1', '161', '161-391-1-SP.pdf', 'application/pdf', '603868', 'Ecodesign_2017-Hirose-modified.pdf', 'supp', '2', NULL, '2017-09-30 16:18:14', '2017-09-30 16:18:14'
'406', '1', '162', '162-406-1-SP.pdf', 'application/pdf', '2365484', 'copyright-chiba.pdf', 'supp', '2', NULL, '2017-09-30 19:05:58', '2017-09-30 19:05:58'
'405', '1', '162', '162-405-1-SP.docx', 'application/vnd.openxmlformats-officedocument.wordprocessingml.document', '2959186', 'Ecodesign2017-Chiba-Ebook.docx', 'supp', '2', NULL, '2017-09-30 19:04:36', '2017-09-30 19:04:36'
'436', '1', '176', '176-436-1-SP.pdf', 'application/pdf', '4729567', '版權文件.pdf', 'supp', '2', NULL, '2017-09-30 23:29:09', '2017-09-30 23:29:09'
'207', '1', '188', '188-207-1-SP.pdf', 'application/pdf', '209223', 'Consent to Publish(Springer) Juntao Wang.pdf', 'supp', '2', NULL, '2017-09-20 16:28:40', '2017-09-20 16:28:40'
'206', '1', '188', '188-206-1-SP.docx', 'application/vnd.openxmlformats-officedocument.wordprocessingml.document', '2859771', 'Springer Format-Ecodesign2017 Juntao Wang.docx', 'supp', '2', NULL, '2017-09-20 16:26:55', '2017-09-20 16:26:55'
'384', '1', '190', '190-384-1-SP.docx', 'application/vnd.openxmlformats-officedocument.wordprocessingml.document', '14373', 'Response to the reviewer (naito).docx', 'supp', '2', NULL, '2017-09-30 15:16:08', '2017-09-30 15:16:08'
'382', '1', '190', '190-382-1-SP.docx', 'application/vnd.openxmlformats-officedocument.wordprocessingml.document', '2395966', 'E-book #190.docx', 'supp', '2', NULL, '2017-09-30 15:14:49', '2017-09-30 15:14:49'
'385', '1', '190', '190-385-1-SP.pdf', 'application/pdf', '2355926', 'IMG_0002_NEW.pdf', 'supp', '2', NULL, '2017-09-30 15:16:40', '2017-09-30 15:16:40'
'383', '1', '190', '190-383-1-SP.pdf', 'application/pdf', '674760', 'Ecodesign_2017-naito-modified.pdf', 'supp', '2', NULL, '2017-09-30 15:15:47', '2017-09-30 15:15:47'
'353', '1', '192', '192-353-1-SP.pdf', 'application/pdf', '123167', '192 Consent_to_Publish_(Springer) Chen-Fu Chen.pdf', 'supp', '2', NULL, '2017-09-30 11:38:08', '2017-09-30 11:38:08'
'424', '1', '193', '193-424-1-SP.docx', 'application/vnd.openxmlformats-officedocument.wordprocessingml.document', '13641', 'Responses_to_Reviewers.docx', 'supp', '2', NULL, '2017-09-30 22:55:41', '2017-09-30 22:55:41'
'425', '1', '193', '193-425-1-SP.docx', 'application/vnd.openxmlformats-officedocument.wordprocessingml.document', '5982977', 'EcoDesign_Springer.docx', 'supp', '2', NULL, '2017-09-30 22:57:05', '2017-09-30 22:57:05'
'426', '1', '193', '193-426-1-SP.pdf', 'application/pdf', '4095799', 'Consent_to_Publish.pdf', 'supp', '2', NULL, '2017-09-30 22:59:01', '2017-09-30 22:59:01'
'284', '1', '195', '195-284-1-SP.docx', 'application/vnd.openxmlformats-officedocument.wordprocessingml.document', '57775', 'Ecodesign Ebook format.docx', 'supp', '2', NULL, '2017-09-29 14:56:39', '2017-09-29 14:56:39'
'285', '1', '195', '195-285-1-SP.pdf', 'application/pdf', '882198', 'consent to publish_XB.pdf', 'supp', '2', NULL, '2017-09-29 14:57:10', '2017-09-29 14:57:10'
'288', '1', '215', '215-288-1-SP.pdf', 'application/pdf', '266706', 'Ranaporn_pdf.pdf', 'supp', '2', NULL, '2017-09-29 15:10:23', '2017-09-29 15:10:23'
'289', '1', '215', '215-289-1-SP.pdf', 'application/pdf', '19876', 'Description of the paper revisions_Ranaporn.pdf', 'supp', '2', NULL, '2017-09-29 15:12:28', '2017-09-29 15:12:28'
'287', '1', '215', '215-287-1-SP.docx', 'application/vnd.openxmlformats-officedocument.wordprocessingml.document', '61259', 'paper_ver0.2_20170928.docx', 'supp', '2', NULL, '2017-09-29 15:08:52', '2017-09-29 15:08:52'
'290', '1', '215', '215-290-1-SP.pdf', 'application/pdf', '2019581', 'Consent_Ranaporn.pdf', 'supp', '2', NULL, '2017-09-29 15:13:15', '2017-09-29 15:13:15'
'295', '1', '220', '220-295-1-SP.pdf', 'application/pdf', '1301043', 'Grasping_LaserMarking_EcoDesign_2017_Ebook_format_3a.pdf', 'supp', '2', NULL, '2017-09-29 16:14:10', '2017-09-29 16:14:10'
'186', '1', '222', '222-186-1-SP.pdf', 'application/pdf', '365515', 'ID_222_Quality assessment of Plastics Recyclates from Waste Electrical and Electronic Equipment (WEEE)_EcoDesign format.pdf', 'supp', '2', NULL, '2017-09-16 21:10:01', '2017-09-16 21:10:01'
'184', '1', '222', '222-184-1-SP.pdf', 'application/pdf', '600713', 'ID_222_Consent to Publish.pdf', 'supp', '2', NULL, '2017-09-16 21:03:16', '2017-09-16 21:03:16'
'185', '1', '222', '222-185-1-SP.docx', 'application/vnd.openxmlformats-officedocument.wordprocessingml.document', '2155698', 'ID_222_Quality assessment of Plastics Recyclates from Waste Electrical and Electronic Equipment (WEEE)_Springer format.docx', 'supp', '2', NULL, '2017-09-16 21:07:28', '2017-09-16 21:07:28'
'183', '1', '241', '241-183-1-SP.pdf', 'application/pdf', '904233', 'Hayashi-et-al-Consent-s.pdf', 'supp', '2', NULL, '2017-09-16 20:58:29', '2017-09-16 20:58:29'
'278', '1', '251', '251-278-1-SP.docx', 'application/vnd.openxmlformats-officedocument.wordprocessingml.document', '415362', 'Renewable Energy Substitution Model_Completed Version_1.docx', 'supp', '2', NULL, '2017-09-29 13:51:58', '2017-09-29 13:51:58'
'326', '1', '258', '258-326-1-SP.PNG', 'image/png', '260745', 'consent 1.PNG', 'supp', '2', NULL, '2017-09-29 23:33:08', '2017-09-29 23:33:08'
'327', '1', '258', '258-327-1-SP.PNG', 'image/png', '303262', 'consent 2.PNG', 'supp', '2', NULL, '2017-09-29 23:34:07', '2017-09-29 23:34:07'
'328', '1', '258', '258-328-1-SP.pdf', 'application/pdf', '1221106', 'consent.pdf', 'supp', '2', NULL, '2017-09-29 23:38:32', '2017-09-29 23:38:32'
'375', '1', '259', '259-375-1-SP.doc', 'application/msword', '838144', 'nagasawaEcodesign20170930_ebook_formatfinal.doc', 'supp', '2', NULL, '2017-09-30 14:07:53', '2017-09-30 14:07:53'
'376', '1', '259', '259-376-1-SP.pdf', 'application/pdf', '33439', 'suggestionHH.pdf', 'supp', '2', NULL, '2017-09-30 14:08:20', '2017-09-30 14:08:20'
'378', '1', '259', '259-378-1-SP.PDF', 'application/pdf', '206263', 'SCAN0004.PDF', 'supp', '2', NULL, '2017-09-30 14:23:07', '2017-09-30 14:23:07'
'248', '1', '261', '261-248-1-SP.pdf', 'application/pdf', '133621', 'EcoDesign2017 Format_Final Paper #261(E-book).pdf', 'supp', '2', NULL, '2017-09-27 13:57:16', '2017-09-27 13:57:16'
'246', '1', '261', '261-246-1-SP.pdf', 'application/pdf', '1058267', 'Springer Consent to Publish_Final Paper #261(E-book).pdf', 'supp', '2', NULL, '2017-09-27 13:54:53', '2017-09-27 13:54:53'
'247', '1', '261', '261-247-1-SP.doc', 'application/msword', '2148864', 'Springer Format_Final Paper #261(E-book).doc', 'supp', '2', NULL, '2017-09-27 13:56:24', '2017-09-27 13:56:24'
'371', '1', '275', '275-371-1-SP.docx', 'application/vnd.openxmlformats-officedocument.wordprocessingml.document', '2885273', ' Springer v1.paper.2017.09.29.docx', 'supp', '2', NULL, '2017-09-30 13:27:26', '2017-09-30 13:27:26'
'283', '3', '275', '275-283-3-SP.pdf', 'application/pdf', '913687', 'consent to publish.2017.09.29.pdf', 'supp', '2', NULL, '2017-09-29 14:55:41', '2017-09-29 14:55:41'
'372', '1', '275', '275-372-1-SP.pdf', 'application/pdf', '2938936', ' Springer v1.paper.2017.09.29.pdf', 'supp', '2', NULL, '2017-09-30 13:29:05', '2017-09-30 13:29:05'
'370', '1', '275', '275-370-1-SP.pdf', 'application/pdf', '3282775', 'Ueda E.(Ecodesign2017).2017.09.29.pdf', 'supp', '2', NULL, '2017-09-30 13:26:10', '2017-09-30 13:26:10'
'373', '1', '275', '275-373-1-SP.doc', 'application/msword', '2958336', 'Ueda E.(Ecodesign2017).2017.09.29.doc', 'supp', '2', NULL, '2017-09-30 13:29:50', '2017-09-30 13:29:50'
'395', '1', '283', '283-395-1-SP.pdf', 'application/pdf', '9420', 'Description of the paper revisions.pdf', 'supp', '2', NULL, '2017-09-30 18:21:16', '2017-09-30 18:21:16'
'396', '1', '283', '283-396-1-SP.docx', 'application/vnd.openxmlformats-officedocument.wordprocessingml.document', '5645612', 'Springer Format.docx', 'supp', '2', NULL, '2017-09-30 18:22:33', '2017-09-30 18:22:33'
'400', '1', '283', '283-400-1-SP.PDF', 'application/pdf', '219603', 'SCAN0000.PDF', 'supp', '2', NULL, '2017-09-30 18:45:04', '2017-09-30 18:45:04'
'28', '1', '316', '316-28-1-SP.pdf', 'application/pdf', '393840', 'Buchert_2017_Springer_v1.pdf', 'supp', '2', NULL, '2017-06-09 23:47:46', '2017-06-09 23:47:46'
'29', '1', '316', '316-29-1-SP.pdf', 'application/pdf', '1233509', 'Consent.pdf', 'supp', '2', NULL, '2017-06-09 23:56:02', '2017-06-09 23:56:02'
'197', '1', '325', '325-197-1-SP.docx', 'application/vnd.openxmlformats-officedocument.wordprocessingml.document', '0', 'Consent_To_Publish.docx', 'supp', '2', NULL, '2017-09-19 14:41:06', '2017-09-19 14:41:06'
