# file_id, revision, paper_id, file_name, file_type, file_size, original_file_name, type, stage, viewable, date_uploaded, date_modified
'4', '1', '6', '6-4-1-SP.docx', 'application/vnd.openxmlformats-officedocument.wordprocessingml.document', '0', '01_作者_摘要附件_V1.docx', 'supp', '1', NULL, '2017-03-12 01:47:05', '2017-03-12 01:47:05'
'5', '1', '6', '6-5-1-RV.docx', 'application/vnd.openxmlformats-officedocument.wordprocessingml.document', '0', '03_Review_摘要_V1.docx', 'submission/review', '1', NULL, '2017-03-12 03:03:07', '2017-03-12 03:03:07'
'7', '1', '8', '8-7-1-SM.txt', 'text/plain', '0', 'a.txt', 'submission/original', '2', NULL, '2017-03-12 22:53:30', '2017-03-12 22:53:30'
'8', '1', '8', '8-8-1-RV.txt', 'text/plain', '0', '8-7-1-SM.txt', 'submission/review', '2', NULL, '2017-03-12 22:53:38', '2017-03-12 22:53:38'
'34', '1', '43', '43-34-1-SM.doc', 'application/msword', '2071552', '00Final paper with EcoDesign2017.doc', 'submission/original', '2', NULL, '2017-06-19 20:07:30', '2017-06-19 20:07:30'
'35', '1', '43', '43-35-1-RV.doc', 'application/msword', '2071552', '43-34-1-SM.doc', 'submission/review', '2', NULL, '2017-06-19 20:08:12', '2017-06-19 20:08:12'
'188', '1', '45', '45-188-1-SM.doc', 'application/msword', '88064', 'Iwamoto.doc', 'submission/original', '2', NULL, '2017-09-18 14:11:31', '2017-09-18 14:11:31'
'189', '1', '45', '45-189-1-RV.doc', 'application/msword', '88064', '45-188-1-SM.doc', 'submission/review', '2', NULL, '2017-09-18 14:11:53', '2017-09-18 14:11:53'
'218', '1', '50', '50-218-1-SP.docx', 'application/vnd.openxmlformats-officedocument.wordprocessingml.document', '5404140', 'AR energy monitoring - Ho and Chui - Springer.docx', 'supp', '2', NULL, '2017-09-25 13:42:14', '2017-09-25 13:42:14'
'52', '1', '50', '50-52-1-RV.pdf', 'application/pdf', '2317951', '50-51-1-SM.pdf', 'submission/review', '2', NULL, '2017-07-03 18:53:26', '2017-07-03 18:53:26'
'219', '1', '50', '50-219-1-SP.pdf', 'application/pdf', '135172', 'Consent_to_Publish_(Springer) - Ho and Chui.pdf', 'supp', '2', NULL, '2017-09-25 13:45:19', '2017-09-25 13:45:19'
'51', '1', '50', '50-51-1-SM.pdf', 'application/pdf', '2317951', 'Full Paper - AR energy monitoring - N Ho and CK Chui.pdf', 'submission/original', '2', NULL, '2017-07-03 18:53:06', '2017-07-03 18:53:06'
'216', '1', '50', '50-216-1-DR.pdf', 'application/pdf', '2303644', 'Revised Paper - AR energy monitoring - Ho and Chui.pdf', 'submission/director', '2', NULL, '2017-09-25 13:33:59', '2017-09-25 13:33:59'
'217', '1', '50', '50-217-1-SP.pdf', 'application/pdf', '38195', 'Responses to reviewers\' comments - Ho and Chui.pdf', 'supp', '2', NULL, '2017-09-25 13:39:15', '2017-09-25 13:39:15'
'59', '1', '53', '53-59-1-RV.doc', 'application/msword', '835584', '53-58-1-SM.doc', 'submission/review', '2', NULL, '2017-07-07 17:23:15', '2017-07-07 17:23:15'
'269', '1', '53', '53-269-1-SP.pdf', 'application/pdf', '343378', 'Springer_Consent toPublish＃53Shohei_Kuroda.pdf', 'supp', '2', NULL, '2017-09-29 11:02:12', '2017-09-29 11:02:12'
'380', '1', '53', '53-380-1-SP.docx', 'application/vnd.openxmlformats-officedocument.wordprocessingml.document', '2691798', 'Springer.docx', 'supp', '2', NULL, '2017-09-30 14:58:11', '2017-09-30 14:58:11'
'58', '1', '53', '53-58-1-SM.doc', 'application/msword', '835584', 'Kuroda_Ecodesign.doc', 'submission/original', '2', NULL, '2017-07-07 17:22:13', '2017-07-07 17:22:13'
'381', '1', '53', '53-381-1-DR.doc', 'application/msword', '836096', 'Kuroda_Ecodesign(Ver.2).doc', 'submission/director', '2', NULL, '2017-09-30 15:10:25', '2017-09-30 15:10:25'
'47', '1', '55', '55-47-1-SM.docx', 'application/vnd.openxmlformats-officedocument.wordprocessingml.document', '235927', '20170630_CPPS_Data_Gold_Mine.docx', 'submission/original', '2', NULL, '2017-07-01 14:25:18', '2017-07-01 14:25:18'
'210', '1', '55', '55-210-1-SP.pdf', 'application/pdf', '333531', 'Wehner_Final_Paper.pdf', 'supp', '2', NULL, '2017-09-21 14:23:20', '2017-09-21 14:23:20'
'48', '1', '55', '55-48-1-RV.docx', 'application/vnd.openxmlformats-officedocument.wordprocessingml.document', '235927', '55-47-1-SM.docx', 'submission/review', '2', NULL, '2017-07-01 14:26:33', '2017-07-01 14:26:33'
'211', '1', '55', '55-211-1-SP.pdf', 'application/pdf', '399106', 'Wehner_Final_Paper_Springer.pdf', 'supp', '2', NULL, '2017-09-21 19:39:07', '2017-09-21 19:39:07'
'173', '1', '55', '55-173-1-DR.docx', 'application/vnd.openxmlformats-officedocument.wordprocessingml.document', '235923', '55-48-1-RV.docx', 'submission/director', '2', NULL, '2017-09-13 21:38:55', '2017-09-13 21:38:55'
'212', '1', '55', '55-212-1-SP.docx', 'application/vnd.openxmlformats-officedocument.wordprocessingml.document', '2121173', 'Wehner_Final_Paper_Springer.docx', 'supp', '2', NULL, '2017-09-21 19:39:55', '2017-09-21 19:39:55'
'209', '1', '55', '55-209-1-SP.pdf', 'application/pdf', '1384865', 'Wehner_Consent_to_publish.pdf', 'supp', '2', NULL, '2017-09-21 14:13:36', '2017-09-21 14:13:36'
'38', '1', '60', '60-38-1-SM.docx', 'application/vnd.openxmlformats-officedocument.wordprocessingml.document', '3496897', 'E-book_20170625.docx', 'submission/original', '2', NULL, '2017-06-26 22:30:38', '2017-06-26 22:30:38'
'39', '1', '60', '60-39-1-RV.docx', 'application/vnd.openxmlformats-officedocument.wordprocessingml.document', '3496897', '60-38-1-SM.docx', 'submission/review', '2', NULL, '2017-06-26 22:32:10', '2017-06-26 22:32:10'
'308', '1', '70', '70-308-1-SP.pdf', 'application/pdf', '226849', 'RenaKondo_Consent_to_Publish_(Springer).pdf', 'supp', '2', NULL, '2017-09-29 17:57:07', '2017-09-29 17:57:07'
'280', '1', '70', '70-280-1-DR.pdf', 'application/pdf', '441719', 'RenaKondo_EcoDesign_Finalpaper.pdf', 'submission/director', '2', NULL, '2017-09-29 14:35:30', '2017-09-29 14:35:30'
'304', '1', '70', '70-304-1-SP.docx', 'application/vnd.openxmlformats-officedocument.wordprocessingml.document', '4080220', 'RenaKondo_EcoDesign_FinalPaper_Springer format.docx', 'supp', '2', NULL, '2017-09-29 17:49:28', '2017-09-29 17:49:28'
'111', '3', '70', '70-111-3-SM.pdf', 'application/pdf', '499237', 'Kondo_EcoDesign_Fullpaper.pdf', 'submission/original', '2', NULL, '2017-07-10 19:01:30', '2017-07-10 19:01:30'
'305', '1', '70', '70-305-1-SP.pdf', 'application/pdf', '204051', 'RenaKondo_EcoDesign_Description of the paper revisions.pdf', 'supp', '2', NULL, '2017-09-29 17:55:32', '2017-09-29 17:55:32'
'112', '1', '70', '70-112-1-RV.pdf', 'application/pdf', '499237', '70-111-3-SM.pdf', 'submission/review', '2', NULL, '2017-07-10 19:11:52', '2017-07-10 19:11:52'
'132', '3', '73', '73-132-3-SM.pdf', 'application/pdf', '452704', 'ED17_GRIMAUD_Performance indicators A04.pdf', 'submission/original', '2', NULL, '2017-07-18 20:45:55', '2017-07-18 20:45:55'
'133', '1', '73', '73-133-1-RV.pdf', 'application/pdf', '452704', '73-132-3-SM.pdf', 'submission/review', '2', NULL, '2017-07-18 20:46:14', '2017-07-18 20:46:14'
'227', '1', '73', '73-227-1-DR.docx', 'application/vnd.openxmlformats-officedocument.wordprocessingml.document', '1075118', 'ED17_GRIMAUD_Performance indicators B01.docx', 'submission/director', '2', NULL, '2017-09-26 18:20:46', '2017-09-26 18:20:46'
'23', '1', '77', '77-23-1-SM.docx', 'application/vnd.openxmlformats-officedocument.wordprocessingml.document', '169427', 'Development of an Environmental Management System Framework for Hong Kong Higher Education Institutions.docx', 'submission/original', '2', NULL, '2017-05-26 15:20:59', '2017-05-26 15:20:59'
'24', '1', '77', '77-24-1-RV.docx', 'application/vnd.openxmlformats-officedocument.wordprocessingml.document', '169427', '77-23-1-SM.docx', 'submission/review', '2', NULL, '2017-05-26 15:22:05', '2017-05-26 15:22:05'
'180', '1', '77', '77-180-1-DR.docx', 'application/vnd.openxmlformats-officedocument.wordprocessingml.document', '169097', 'Final Paper - Development of an Environmental Management System Framework for Hong Kong Higher Education Institutions.docx', 'submission/director', '2', NULL, '2017-09-16 13:21:47', '2017-09-16 13:21:47'
'41', '1', '84', '84-41-1-RV.doc', 'application/msword', '656896', '84-40-1-SM.doc', 'submission/review', '2', NULL, '2017-06-28 07:29:04', '2017-06-28 07:29:04'
'379', '1', '84', '84-379-1-SP.pdf', 'application/pdf', '3136930', 'SCN_0001.pdf', 'supp', '2', NULL, '2017-09-30 14:35:46', '2017-09-30 14:35:46'
'421', '1', '84', '84-421-1-SP.docx', 'application/vnd.openxmlformats-officedocument.wordprocessingml.document', '4439460', 'Chapman (84) Springer Format.docx', 'supp', '2', NULL, '2017-09-30 22:35:17', '2017-09-30 22:35:17'
'40', '1', '84', '84-40-1-SM.doc', 'application/msword', '656896', 'E-Book Chapman.doc', 'submission/original', '2', NULL, '2017-06-28 07:28:48', '2017-06-28 07:28:48'
'349', '1', '85', '85-349-1-SP.PDF', 'application/pdf', '630902', 'Consent_to_Publish_(Springer)　HaoHU.PDF', 'supp', '2', NULL, '2017-09-30 11:06:33', '2017-09-30 11:06:33'
'74', '1', '85', '85-74-1-RV.docx', 'application/vnd.openxmlformats-officedocument.wordprocessingml.document', '156282', '85-73-3-SM.docx', 'submission/review', '2', NULL, '2017-07-08 15:58:03', '2017-07-08 15:58:03'
'367', '1', '85', '85-367-1-SP.pdf', 'application/pdf', '353923', 'Description of the paper revisions.pdf', 'supp', '2', NULL, '2017-09-30 12:54:27', '2017-09-30 12:54:27'
'339', '1', '85', '85-339-1-DR.docx', 'application/vnd.openxmlformats-officedocument.wordprocessingml.document', '172181', 'Draft_HU - Revision.docx', 'submission/director', '2', NULL, '2017-09-30 08:26:36', '2017-09-30 08:26:36'
'341', '1', '85', '85-341-1-SP.docx', 'application/vnd.openxmlformats-officedocument.wordprocessingml.document', '2529669', 'Draft_HU - Springer.docx', 'supp', '2', NULL, '2017-09-30 09:58:24', '2017-09-30 09:58:24'
'73', '3', '85', '85-73-3-SM.docx', 'application/vnd.openxmlformats-officedocument.wordprocessingml.document', '156282', 'Draft_HU - Final.docx', 'submission/original', '2', NULL, '2017-07-08 15:57:05', '2017-07-08 15:57:05'
'148', '1', '86', '86-148-1-RV.pdf', 'application/pdf', '264332', '86-68-1-RV reviewed by Chen-Fu Chen-1.pdf', 'submission/review', '2', NULL, '2017-08-18 11:22:03', '2017-08-18 11:22:03'
'338', '1', '86', '86-338-1-SP.pdf', 'application/pdf', '30155', 'Revisions made_Paulson Sundin 2017 Challenges when including sustainability aspects in product development at two large man.pdf', 'supp', '2', NULL, '2017-09-30 03:31:19', '2017-09-30 03:31:19'
'335', '1', '86', '86-335-1-DR.pdf', 'application/pdf', '127996', 'Paulson Sundin 2017 (Ecodesign) Challenges when including sustainability aspects in product development at two large manufa.pdf', 'submission/director', '2', NULL, '2017-09-30 03:17:31', '2017-09-30 03:17:31'
'67', '1', '86', '86-67-1-SM.pdf', 'application/pdf', '124866', 'Paulson Sundin 2017 Challenges when including SustAspects in PD 20170707.pdf', 'submission/original', '2', NULL, '2017-07-08 00:57:52', '2017-07-08 00:57:52'
'336', '1', '86', '86-336-1-SP.pdf', 'application/pdf', '1506024', 'Concent to Publish_Springer_EcoDesign2017_paper_Paulson Sundin.pdf', 'supp', '2', NULL, '2017-09-30 03:24:58', '2017-09-30 03:24:58'
'68', '1', '86', '86-68-1-RV.pdf', 'application/pdf', '124866', '86-67-1-SM.pdf', 'submission/review', '2', NULL, '2017-07-08 00:59:03', '2017-07-08 00:59:03'
'337', '1', '86', '86-337-1-SP.docx', 'application/vnd.openxmlformats-officedocument.wordprocessingml.document', '3139232', 'Paulson Sundin 2017 (Springer) Challenges when including sustainability aspects in product development at two large manufa.docx', 'supp', '2', NULL, '2017-09-30 03:29:29', '2017-09-30 03:29:29'
'136', '1', '89', '89-136-1-SM.doc', 'application/msword', '1841152', 'Ecodesign_2017_Clemm_etal_Circular_Economy_Product_Design_(submit).doc', 'submission/original', '2', NULL, '2017-07-21 01:01:53', '2017-07-21 01:01:53'
'137', '1', '89', '89-137-1-RV.doc', 'application/msword', '1841152', '89-136-1-SM.doc', 'submission/review', '2', NULL, '2017-07-21 01:02:06', '2017-07-21 01:02:06'
'120', '1', '95', '95-120-1-SM.doc', 'application/msword', '348160', 'Energy-Metering Systems for Digital Factory Twins - Full Text v3.1.doc', 'submission/original', '2', NULL, '2017-07-10 21:38:50', '2017-07-10 21:38:50'
'121', '1', '95', '95-121-1-RV.doc', 'application/msword', '348160', '95-120-1-SM.doc', 'submission/review', '2', NULL, '2017-07-10 21:39:09', '2017-07-10 21:39:09'
'135', '1', '97', '97-135-1-RV.doc', 'application/msword', '1759232', '97-134-3-SM.doc', 'submission/review', '2', NULL, '2017-07-21 00:59:30', '2017-07-21 00:59:30'
'163', '1', '97', '97-163-1-RV.docx', 'application/vnd.openxmlformats-officedocument.wordprocessingml.document', '21961', 'paper 97-135-1-RV - comments - Shen.docx', 'submission/review', '2', NULL, '2017-09-05 18:12:03', '2017-09-05 18:12:03'
'134', '3', '97', '97-134-3-SM.doc', 'application/msword', '1759232', 'ecodesign2017 paper Nissen et al (submit).doc', 'submission/original', '2', NULL, '2017-07-21 00:59:00', '2017-07-21 00:59:00'
'72', '1', '100', '100-72-1-RV.pdf', 'application/pdf', '777065', '100-71-1-SM.pdf', 'submission/review', '2', NULL, '2017-07-08 15:25:57', '2017-07-08 15:25:57'
'366', '1', '100', '100-366-1-SP.pdf', 'application/pdf', '531927', '2.4_Consent_to_Publish_(Springer).pdf', 'supp', '2', NULL, '2017-09-30 12:45:06', '2017-09-30 12:45:06'
'363', '1', '100', '100-363-1-DR.doc', 'application/msword', '5270016', 'Final paper Eco2017_gwyntorn.doc', 'submission/director', '2', NULL, '2017-09-30 12:30:29', '2017-09-30 12:30:29'
'363', '2', '100', '100-363-2-DR.pdf', 'application/pdf', '338272', 'Final paper Eco2017_gwyntorn.pdf', 'submission/director', '2', NULL, '2017-09-30 12:33:29', '2017-09-30 12:33:29'
'71', '1', '100', '100-71-1-SM.pdf', 'application/pdf', '777065', '2.1_Final paper Eco2017_gwyntorn.pdf', 'submission/original', '2', NULL, '2017-07-08 15:24:01', '2017-07-08 15:24:01'
'365', '1', '100', '100-365-1-SP.docx', 'application/vnd.openxmlformats-officedocument.wordprocessingml.document', '693268', '2.3_Final paper Springer_gwyntorn.docx', 'supp', '2', NULL, '2017-09-30 12:42:47', '2017-09-30 12:42:47'
'401', '1', '101', '101-401-1-DR.pdf', 'application/pdf', '1331163', 'Proc_inano_ecodesign2017_4.pdf', 'submission/director', '2', NULL, '2017-09-30 21:48:18', '2017-09-30 21:48:18'
'417', '2', '101', '101-417-2-SP.docx', 'application/vnd.openxmlformats-officedocument.wordprocessingml.document', '5137067', 'Springer_inano_2017.docx', 'supp', '2', NULL, '2017-09-30 22:11:01', '2017-09-30 22:11:01'
'53', '1', '101', '101-53-1-SM.docx', 'application/vnd.openxmlformats-officedocument.wordprocessingml.document', '889344', 'エコデProc提出用170704段組変更.docx', 'submission/original', '2', NULL, '2017-07-04 17:26:56', '2017-07-04 17:26:56'
'422', '1', '101', '101-422-1-SP.pdf', 'application/pdf', '249515', 'consent_to_publish_inano.pdf', 'supp', '2', NULL, '2017-09-30 22:39:04', '2017-09-30 22:39:04'
'57', '1', '101', '101-57-1-RV.docx', 'application/vnd.openxmlformats-officedocument.wordprocessingml.document', '889344', '101-53-1-SM.docx', 'submission/review', '2', NULL, '2017-07-05 13:53:28', '2017-07-05 13:53:28'
'175', '1', '102', '102-175-1-RV.pdf', 'application/pdf', '260874', '102-174-1-SM.pdf', 'submission/review', '2', NULL, '2017-09-14 11:49:47', '2017-09-14 11:49:47'
'174', '1', '102', '102-174-1-SM.pdf', 'application/pdf', '260874', 'Paper Recycling as a Service Ecodesign 2017.pdf', 'submission/original', '2', NULL, '2017-09-14 11:49:18', '2017-09-14 11:49:18'
'254', '3', '106', '106-254-3-DR.docx', 'application/vnd.openxmlformats-officedocument.wordprocessingml.document', '1877451', '106-92-1-RV2(springer_format).docx', 'submission/director', '2', NULL, '2017-09-28 08:36:57', '2017-09-28 08:36:57'
'254', '1', '106', '106-254-1-DR.doc', 'application/msword', '119296', '106-92-1-RV2.doc', 'submission/director', '2', NULL, '2017-09-28 08:33:59', '2017-09-28 08:33:59'
'254', '4', '106', '106-254-4-DR.pdf', 'application/pdf', '2603285', 'Consent_to_Publish_Masui.pdf', 'submission/director', '2', NULL, '2017-09-28 08:37:22', '2017-09-28 08:37:22'
'91', '1', '106', '106-91-1-SM.doc', 'application/msword', '113152', 'manuscript for reviewing.doc', 'submission/original', '2', NULL, '2017-07-10 09:05:09', '2017-07-10 09:05:09'
'254', '2', '106', '106-254-2-DR.docx', 'application/vnd.openxmlformats-officedocument.wordprocessingml.document', '18801', 'Replies_to_reviewers.docx', 'submission/director', '2', NULL, '2017-09-28 08:36:14', '2017-09-28 08:36:14'
'92', '1', '106', '106-92-1-RV.doc', 'application/msword', '113152', '106-91-1-SM.doc', 'submission/review', '2', NULL, '2017-07-10 09:08:04', '2017-07-10 09:08:04'
'106', '1', '111', '111-106-1-RV.pdf', 'application/pdf', '213806', '111-105-1-SM.pdf', 'submission/review', '2', NULL, '2017-07-10 14:53:22', '2017-07-10 14:53:22'
'298', '1', '111', '111-298-1-SP.pdf', 'application/pdf', '324859', 'Consent_to_Publish_(Springer).pdf', 'supp', '2', NULL, '2017-09-29 16:38:44', '2017-09-29 16:38:44'
'296', '1', '111', '111-296-1-DR.pdf', 'application/pdf', '215418', 'EcoDesign2017 Proceedings.pdf', 'submission/director', '2', NULL, '2017-09-29 16:20:28', '2017-09-29 16:20:28'
'105', '1', '111', '111-105-1-SM.pdf', 'application/pdf', '213806', 'EcoDesign2017.pdf', 'submission/original', '2', NULL, '2017-07-10 14:52:08', '2017-07-10 14:52:08'
'297', '1', '111', '111-297-1-SP.docx', 'application/vnd.openxmlformats-officedocument.wordprocessingml.document', '56874', 'EcoDesign 2017 eBook.docx', 'supp', '2', NULL, '2017-09-29 16:34:56', '2017-09-29 16:34:56'
'164', '1', '113', '113-164-1-RV.docx', 'application/vnd.openxmlformats-officedocument.wordprocessingml.document', '19225', 'paper 113-46-1-RV - comments - Shen.docx', 'submission/review', '2', NULL, '2017-09-05 23:13:28', '2017-09-05 23:13:28'
'45', '1', '113', '113-45-1-SM.doc', 'application/msword', '159232', 'Towards a Circular Economy：An Analysis of Innovation in Taiwanese SME.doc', 'submission/original', '2', NULL, '2017-06-29 08:40:19', '2017-06-29 08:40:19'
'164', '2', '113', '113-164-2-RV.docx', 'application/vnd.openxmlformats-officedocument.wordprocessingml.document', '14538', 'paper 113-46-1-RV - comments - Shen.docx', 'submission/review', '2', NULL, '2017-09-05 23:23:45', '2017-09-05 23:23:45'
'46', '1', '113', '113-46-1-RV.doc', 'application/msword', '159232', '113-45-1-SM.doc', 'submission/review', '2', NULL, '2017-06-29 08:43:42', '2017-06-29 08:43:42'
'177', '1', '113', '113-177-1-DR.doc', 'application/msword', '159232', 'Towards a Circular Economy：An Analysis of Innovation in Taiwanese SME.doc', 'submission/director', '2', NULL, '2017-09-15 16:36:05', '2017-09-15 16:36:05'
'30', '1', '120', '120-30-1-SM.docx', 'application/vnd.openxmlformats-officedocument.wordprocessingml.document', '2664026', 'Sustainability think design think CLEAN.docx', 'submission/original', '2', NULL, '2017-06-16 16:10:49', '2017-06-16 16:10:49'
'409', '1', '120', '120-409-1-SP.pdf', 'application/pdf', '1822011', 'Permission to publish.pdf', 'supp', '2', NULL, '2017-09-30 21:06:20', '2017-09-30 21:06:20'
'31', '1', '120', '120-31-1-RV.docx', 'application/vnd.openxmlformats-officedocument.wordprocessingml.document', '2664026', '120-30-1-SM.docx', 'submission/review', '2', NULL, '2017-06-16 16:12:16', '2017-06-16 16:12:16'
'412', '1', '120', '120-412-1-SP.docx', 'application/vnd.openxmlformats-officedocument.wordprocessingml.document', '4780081', 'EcoDesign2017 Springer version -Sust dev design thinking.docx', 'supp', '2', NULL, '2017-09-30 21:36:47', '2017-09-30 21:36:47'
'334', '1', '120', '120-334-1-DR.docx', 'application/vnd.openxmlformats-officedocument.wordprocessingml.document', '2666778', 'Gould et al Sust dev design thinking.docx', 'submission/director', '2', NULL, '2017-09-30 02:10:32', '2017-09-30 02:10:32'
'223', '1', '122', '122-223-1-RV.pdf', 'application/pdf', '896348', '122-221-1-SM.pdf', 'submission/review', '2', NULL, '2017-09-25 22:31:48', '2017-09-25 22:31:48'
'346', '1', '122', '122-346-1-DR.pdf', 'application/pdf', '896348', 'R1706646-2A_taka_v07i_s.pdf', 'submission/director', '2', NULL, '2017-09-30 10:46:38', '2017-09-30 10:46:38'
'221', '1', '122', '122-221-1-SM.pdf', 'application/pdf', '896348', 'R1706646-2A_taka_v07i_s.pdf', 'submission/original', '2', NULL, '2017-09-25 22:16:23', '2017-09-25 22:16:23'
'65', '1', '125', '125-65-1-RV.pdf', 'application/pdf', '506659', '125-64-1-SM.pdf', 'submission/review', '2', NULL, '2017-07-07 17:31:36', '2017-07-07 17:31:36'
'64', '1', '125', '125-64-1-SM.pdf', 'application/pdf', '506659', 'SHOTAKONDO.pdf', 'submission/original', '2', NULL, '2017-07-07 17:31:27', '2017-07-07 17:31:27'
'176', '1', '126', '126-176-1-RV.docx', 'application/vnd.openxmlformats-officedocument.wordprocessingml.document', '14155', 'Review comments for the paper No 126.docx', 'submission/review', '2', NULL, '2017-09-15 11:41:50', '2017-09-15 11:41:50'
'62', '1', '126', '126-62-1-SM.doc', 'application/msword', '390144', 'Kiyofumi_Sato_2017.doc', 'submission/original', '2', NULL, '2017-07-07 17:30:02', '2017-07-07 17:30:02'
'63', '1', '126', '126-63-1-RV.doc', 'application/msword', '390144', '126-62-1-SM.doc', 'submission/review', '2', NULL, '2017-07-07 17:30:13', '2017-07-07 17:30:13'
'279', '1', '129', '129-279-1-SM.pdf', 'application/pdf', '266297', 'The Development Trends of International Green Certification and the Experience to Assist Taiwanese Corporations.pdf', 'submission/original', '2', NULL, '2017-09-29 14:31:09', '2017-09-29 14:31:09'
'61', '1', '130', '130-61-1-RV.doc', 'application/msword', '663552', '130-60-1-SM.doc', 'submission/review', '2', NULL, '2017-07-07 17:25:17', '2017-07-07 17:25:17'
'344', '1', '130', '130-344-1-SP.docx', 'application/vnd.openxmlformats-officedocument.wordprocessingml.document', '2860300', 'yasukowatanabe_2017_sample2.docx', 'supp', '2', NULL, '2017-09-30 10:33:54', '2017-09-30 10:33:54'
'342', '1', '130', '130-342-1-DR.pdf', 'application/pdf', '393338', 'yasukowatanabe_2017_submission_RV2.pdf', 'submission/director', '2', NULL, '2017-09-30 10:25:37', '2017-09-30 10:25:37'
'345', '1', '130', '130-345-1-SP.pdf', 'application/pdf', '1944772', 'Consent of publish.pdf', 'supp', '2', NULL, '2017-09-30 10:36:49', '2017-09-30 10:36:49'
'343', '1', '130', '130-343-1-SP.pdf', 'application/pdf', '34932', 'Description of the paper revisions_yasukowatanabe.pdf', 'supp', '2', NULL, '2017-09-30 10:31:56', '2017-09-30 10:31:56'
'60', '1', '130', '130-60-1-SM.doc', 'application/msword', '663552', 'yasukowatanabe_2017.doc', 'submission/original', '2', NULL, '2017-07-07 17:24:58', '2017-07-07 17:24:58'
'300', '1', '134', '134-300-1-SP.doc', 'application/msword', '202752', 'ED_2017kondohSubmit.doc', 'supp', '2', NULL, '2017-09-29 16:57:31', '2017-09-29 16:57:31'
'301', '1', '134', '134-301-1-RV.pdf', 'application/pdf', '711807', '134-299-1-SM.pdf', 'submission/review', '2', NULL, '2017-09-29 17:01:09', '2017-09-29 17:01:09'
'299', '1', '134', '134-299-1-SM.pdf', 'application/pdf', '711807', 'ED2017KondohSubmit.pdf', 'submission/original', '2', NULL, '2017-09-29 16:55:15', '2017-09-29 16:55:15'
'94', '1', '135', '135-94-1-RV.doc', 'application/msword', '1531392', '135-93-1-SM.doc', 'submission/review', '2', NULL, '2017-07-10 09:22:17', '2017-07-10 09:22:17'
'93', '1', '135', '135-93-1-SM.doc', 'application/msword', '1531392', 'Framework_CFP_blockchain.doc', 'submission/original', '2', NULL, '2017-07-10 09:21:34', '2017-07-10 09:21:34'
'66', '1', '138', '138-66-1-SM.pdf', 'application/pdf', '355356', 'E_Book_Ecodesign_2017_T_Ishiyama.pdf', 'submission/original', '2', NULL, '2017-07-07 17:32:21', '2017-07-07 17:32:21'
'194', '1', '138', '138-194-1-RV.pdf', 'application/pdf', '355356', '138-66-1-SM.pdf', 'submission/review', '2', NULL, '2017-09-19 12:47:25', '2017-09-19 12:47:25'
'230', '1', '148', '148-230-1-SP.pdf', 'application/pdf', '2611968', 'SPRINGER Consent to publish Ecodesign 2017.pdf', 'supp', '2', NULL, '2017-09-27 00:37:33', '2017-09-27 00:37:33'
'220', '3', '148', '148-220-3-SM.pdf', 'application/pdf', '1024108', 'ED17_Article_RR Indicator Calculation_FINAL.pdf', 'submission/original', '2', NULL, '2017-09-27 00:21:49', '2017-09-27 00:21:49'
'231', '1', '148', '148-231-1-RV.pdf', 'application/pdf', '1024108', '148-220-3-SM.pdf', 'submission/review', '2', NULL, '2017-09-27 00:39:52', '2017-09-27 00:39:52'
'229', '1', '148', '148-229-1-SP.doc', 'application/msword', '3073024', 'ED17_Article_RR Indicator Calculation_FINAL (Springer).doc', 'supp', '2', NULL, '2017-09-27 00:36:45', '2017-09-27 00:36:45'
'50', '1', '154', '154-50-1-RV.pdf', 'application/pdf', '471418', '154-49-1-SM.pdf', 'submission/review', '2', NULL, '2017-07-01 17:54:17', '2017-07-01 17:54:17'
'410', '1', '154', '154-410-1-SP.docx', 'application/vnd.openxmlformats-officedocument.wordprocessingml.document', '2514068', 'Springer -Designing sustainable functional economy business models - takeaways from a case study in the small household eq.docx', 'supp', '2', NULL, '2017-09-30 21:15:57', '2017-09-30 21:15:57'
'388', '1', '154', '154-388-1-DR.docx', 'application/vnd.openxmlformats-officedocument.wordprocessingml.document', '96583', 'designing sustainable functional economy business models - takeaways from a case study in the small household equipment in.docx', 'submission/director', '2', NULL, '2017-09-30 21:21:16', '2017-09-30 21:21:16'
'411', '1', '154', '154-411-1-SP.pdf', 'application/pdf', '483428', 'Springer -Designing sustainable functional economy business models - takeaways from a case study in the small household equ.pdf', 'supp', '2', NULL, '2017-09-30 21:16:44', '2017-09-30 21:16:44'
'49', '1', '154', '154-49-1-SM.pdf', 'application/pdf', '471418', 'Designing sustainable functional economy business models - takeaways from a case study in the small household equipment ind.pdf', 'submission/original', '2', NULL, '2017-07-01 17:53:13', '2017-07-01 17:53:13'
'389', '1', '154', '154-389-1-SP.pdf', 'application/pdf', '298753', 'Consent_to_Publish_(Springer)_Edvin_Lindgren.pdf', 'supp', '2', NULL, '2017-09-30 16:09:08', '2017-09-30 16:09:08'
'208', '1', '156', '156-208-1-SP.pdf', 'application/pdf', '2268569', 'Consent to publish ID156.pdf', 'supp', '2', NULL, '2017-09-20 16:36:27', '2017-09-20 16:36:27'
'55', '1', '156', '156-55-1-RV.doc', 'application/msword', '776192', '156-54-1-SM.doc', 'submission/review', '2', NULL, '2017-07-05 00:36:21', '2017-07-05 00:36:21'
'213', '1', '156', '156-213-1-SP.docx', 'application/vnd.openxmlformats-officedocument.wordprocessingml.document', '2175919', 'ID156-e-book format-final.docx', 'supp', '2', NULL, '2017-09-22 17:05:52', '2017-09-22 17:05:52'
'204', '1', '156', '156-204-1-DR.doc', 'application/msword', '775680', '156-55-1-final.doc', 'submission/director', '2', NULL, '2017-09-20 15:56:44', '2017-09-20 15:56:44'
'54', '1', '156', '156-54-1-SM.doc', 'application/msword', '776192', 'ED-Mishima_2017.doc', 'submission/original', '2', NULL, '2017-07-05 00:35:55', '2017-07-05 00:35:55'
'76', '1', '157', '157-76-1-RV.pdf', 'application/pdf', '382465', '157-75-1-SM.pdf', 'submission/review', '2', NULL, '2017-07-09 13:01:03', '2017-07-09 13:01:03'
'354', '1', '157', '157-354-1-SP.docx', 'application/vnd.openxmlformats-officedocument.wordprocessingml.document', '3803090', 'Springer Ebook - Modeling and analysis of material flow towards better e-waste recycling system in Malaysia.docx', 'supp', '2', NULL, '2017-09-30 11:38:34', '2017-09-30 11:38:34'
'140', '1', '157', '157-140-1-RV.docx', 'application/vnd.openxmlformats-officedocument.wordprocessingml.document', '13235', 'Review of e-waste.docx', 'submission/review', '2', NULL, '2017-08-01 04:42:46', '2017-08-01 04:42:46'
'356', '1', '157', '157-356-1-SP.pdf', 'application/pdf', '1408002', 'Consent to publish.pdf', 'supp', '2', NULL, '2017-09-30 11:41:24', '2017-09-30 11:41:24'
'361', '1', '157', '157-361-1-SP.pdf', 'application/pdf', '100780', 'Review\'s Comment.pdf', 'supp', '2', NULL, '2017-09-30 12:07:59', '2017-09-30 12:07:59'
'75', '1', '157', '157-75-1-SM.pdf', 'application/pdf', '382465', 'Modeling and analysis of material flow towards better e-waste recycling system in Malaysia.pdf', 'submission/original', '2', NULL, '2017-07-09 13:00:43', '2017-07-09 13:00:43'
'351', '1', '157', '157-351-1-DR.pdf', 'application/pdf', '290418', 'Modeling and analysis of material flow towards better e-waste recycling system in Malaysia.pdf', 'submission/director', '2', NULL, '2017-09-30 11:26:35', '2017-09-30 11:26:35'
'391', '1', '161', '161-391-1-SP.pdf', 'application/pdf', '603868', 'Ecodesign_2017-Hirose-modified.pdf', 'supp', '2', NULL, '2017-09-30 16:18:14', '2017-09-30 16:18:14'
'110', '1', '161', '161-110-1-RV.pdf', 'application/pdf', '602373', '161-109-1-SM.pdf', 'submission/review', '2', NULL, '2017-07-10 16:06:09', '2017-07-10 16:06:09'
'362', '1', '161', '161-362-1-DR.pdf', 'application/pdf', '603868', 'Ecodesign_2017-Hirose-modified.pdf', 'submission/director', '2', NULL, '2017-09-30 12:14:09', '2017-09-30 12:14:09'
'154', '1', '161', '161-154-1-RV.docx', 'application/vnd.openxmlformats-officedocument.wordprocessingml.document', '69855', 'Review161.docx', 'submission/review', '2', NULL, '2017-08-29 18:55:08', '2017-08-29 18:55:08'
'390', '1', '161', '161-390-1-SP.pdf', 'application/pdf', '1396731', 'Consent_to_Publish_(Springer) .pdf', 'supp', '2', NULL, '2017-09-30 16:17:12', '2017-09-30 16:17:12'
'109', '1', '161', '161-109-1-SM.pdf', 'application/pdf', '602373', 'Ecodesign_2017-Hirose2.pdf', 'submission/original', '2', NULL, '2017-07-10 16:05:54', '2017-07-10 16:05:54'
'168', '1', '161', '161-168-1-RV.docx', 'application/vnd.openxmlformats-officedocument.wordprocessingml.document', '19175', 'Comments-161.docx', 'submission/review', '2', NULL, '2017-09-07 00:01:13', '2017-09-07 00:01:13'
'405', '1', '162', '162-405-1-SP.docx', 'application/vnd.openxmlformats-officedocument.wordprocessingml.document', '2959186', 'Ecodesign2017-Chiba-Ebook.docx', 'supp', '2', NULL, '2017-09-30 19:04:36', '2017-09-30 19:04:36'
'116', '1', '162', '162-116-1-SM.pdf', 'application/pdf', '363914', 'EcoDesign_2017Chiba.pdf', 'submission/original', '2', NULL, '2017-07-10 21:25:09', '2017-07-10 21:25:09'
'406', '1', '162', '162-406-1-SP.pdf', 'application/pdf', '2365484', 'copyright-chiba.pdf', 'supp', '2', NULL, '2017-09-30 19:05:58', '2017-09-30 19:05:58'
'117', '1', '162', '162-117-1-RV.pdf', 'application/pdf', '363914', '162-116-1-SM.pdf', 'submission/review', '2', NULL, '2017-07-10 21:25:22', '2017-07-10 21:25:22'
'102', '1', '164', '164-102-1-RV.doc', 'application/msword', '261632', '164-101-1-SM.doc', 'submission/review', '2', NULL, '2017-07-10 13:34:09', '2017-07-10 13:34:09'
'192', '1', '164', '164-192-1-DR.doc', 'application/msword', '262144', 'Attributes of carbon labelling_FINAL.doc', 'submission/director', '2', NULL, '2017-09-19 09:08:02', '2017-09-19 09:08:02'
'101', '1', '164', '164-101-1-SM.doc', 'application/msword', '261632', 'Carbon labelling_ebook_Khan and Lan.doc', 'submission/original', '2', NULL, '2017-07-10 13:33:41', '2017-07-10 13:33:41'
'128', '2', '172', '172-128-2-SM.doc', 'application/msword', '417280', 'Sustainable Rotproof Nursery Pot.doc', 'submission/original', '2', NULL, '2017-07-12 01:56:14', '2017-07-12 01:56:14'
'129', '1', '172', '172-129-1-RV.doc', 'application/msword', '417280', '172-128-2-SM.doc', 'submission/review', '2', NULL, '2017-07-12 01:56:36', '2017-07-12 01:56:36'
'264', '1', '172', '172-264-1-DR.pdf', 'application/pdf', '510981', 'Jute based Np.pdf', 'submission/director', '2', NULL, '2017-09-28 22:09:49', '2017-09-28 22:09:49'
'415', '1', '176', '176-415-1-SM.pdf', 'application/pdf', '354086', 'EcoDesign2017 Min-Hua Wu.pdf', 'submission/original', '2', NULL, '2017-09-30 22:01:53', '2017-09-30 22:01:53'
'436', '1', '176', '176-436-1-SP.pdf', 'application/pdf', '4729567', '版權文件.pdf', 'supp', '2', NULL, '2017-09-30 23:29:09', '2017-09-30 23:29:09'
'418', '1', '176', '176-418-1-RV.pdf', 'application/pdf', '354086', '176-415-1-SM.pdf', 'submission/review', '2', NULL, '2017-09-30 22:08:20', '2017-09-30 22:08:20'
'430', '1', '176', '176-430-1-DR.pdf', 'application/pdf', '354086', 'EcoDesign2017 Min-Hua Wu.pdf', 'submission/director', '2', NULL, '2017-09-30 23:11:52', '2017-09-30 23:11:52'
'226', '1', '184', '184-226-1-DR.doc', 'application/msword', '465408', 'ATTH4YZ5.doc', 'submission/director', '2', NULL, '2017-09-26 16:13:10', '2017-09-26 16:13:10'
'32', '1', '184', '184-32-1-SM.doc', 'application/msword', '460800', 'Sample1_2017.doc', 'submission/original', '2', NULL, '2017-06-19 05:42:02', '2017-06-19 05:42:02'
'226', '2', '184', '184-226-2-DR.doc', 'application/msword', '465408', 'ATTH4YZ5.doc', 'submission/director', '2', NULL, '2017-09-26 16:18:05', '2017-09-26 16:18:05'
'33', '1', '184', '184-33-1-RV.doc', 'application/msword', '460800', '184-32-1-SM.doc', 'submission/review', '2', NULL, '2017-06-19 05:42:35', '2017-06-19 05:42:35'
'43', '1', '188', '188-43-1-RV.doc', 'application/msword', '268288', '188-42-1-SM.doc', 'submission/review', '2', NULL, '2017-06-28 08:42:07', '2017-06-28 08:42:07'
'205', '2', '188', '188-205-2-DR.pdf', 'application/pdf', '109692', 'Description of the paper revisions Juntao Wang.pdf', 'submission/director', '2', NULL, '2017-09-20 16:09:45', '2017-09-20 16:09:45'
'167', '1', '188', '188-167-1-RV.docx', 'application/vnd.openxmlformats-officedocument.wordprocessingml.document', '19226', 'Comments-188.docx', 'submission/review', '2', NULL, '2017-09-06 23:17:00', '2017-09-06 23:17:00'
'206', '1', '188', '188-206-1-SP.docx', 'application/vnd.openxmlformats-officedocument.wordprocessingml.document', '2859771', 'Springer Format-Ecodesign2017 Juntao Wang.docx', 'supp', '2', NULL, '2017-09-20 16:26:55', '2017-09-20 16:26:55'
'42', '1', '188', '188-42-1-SM.doc', 'application/msword', '268288', 'Ecodesign _2017_Juntao Wang .doc', 'submission/original', '2', NULL, '2017-06-28 08:38:51', '2017-06-28 08:38:51'
'205', '1', '188', '188-205-1-DR.pdf', 'application/pdf', '670873', 'Conference Format-Ecodesign2017 Juntao Wang.pdf', 'submission/director', '2', NULL, '2017-09-20 16:09:26', '2017-09-20 16:09:26'
'207', '1', '188', '188-207-1-SP.pdf', 'application/pdf', '209223', 'Consent to Publish(Springer) Juntao Wang.pdf', 'supp', '2', NULL, '2017-09-20 16:28:40', '2017-09-20 16:28:40'
'385', '1', '190', '190-385-1-SP.pdf', 'application/pdf', '2355926', 'IMG_0002_NEW.pdf', 'supp', '2', NULL, '2017-09-30 15:16:40', '2017-09-30 15:16:40'
'98', '1', '190', '190-98-1-RV.doc', 'application/msword', '702976', '190-97-1-SM.doc', 'submission/review', '2', NULL, '2017-07-10 10:11:17', '2017-07-10 10:11:17'
'383', '1', '190', '190-383-1-SP.pdf', 'application/pdf', '674760', 'Ecodesign_2017-naito-modified.pdf', 'supp', '2', NULL, '2017-09-30 15:15:47', '2017-09-30 15:15:47'
'141', '1', '190', '190-141-1-RV.pdf', 'application/pdf', '175518', 'Review  for 190-98-1-RV.pdf', 'submission/review', '2', NULL, '2017-08-03 15:33:49', '2017-08-03 15:33:49'
'384', '1', '190', '190-384-1-SP.docx', 'application/vnd.openxmlformats-officedocument.wordprocessingml.document', '14373', 'Response to the reviewer (naito).docx', 'supp', '2', NULL, '2017-09-30 15:16:08', '2017-09-30 15:16:08'
'97', '1', '190', '190-97-1-SM.doc', 'application/msword', '702976', 'Ecodesign_2017-naito .doc', 'submission/original', '2', NULL, '2017-07-10 10:10:55', '2017-07-10 10:10:55'
'382', '1', '190', '190-382-1-SP.docx', 'application/vnd.openxmlformats-officedocument.wordprocessingml.document', '2395966', 'E-book #190.docx', 'supp', '2', NULL, '2017-09-30 15:14:49', '2017-09-30 15:14:49'
'352', '1', '192', '192-352-1-DR.pdf', 'application/pdf', '475991', '192-77-1-SM revised20170930.pdf', 'submission/director', '2', NULL, '2017-09-30 11:27:39', '2017-09-30 11:27:39'
'77', '2', '192', '192-77-2-SM.pdf', 'application/pdf', '478075', '192- Chen-Fu Chen_Eco-Design 2017.pdf', 'submission/original', '2', NULL, '2017-07-09 15:04:44', '2017-07-09 15:04:44'
'353', '1', '192', '192-353-1-SP.pdf', 'application/pdf', '123167', '192 Consent_to_Publish_(Springer) Chen-Fu Chen.pdf', 'supp', '2', NULL, '2017-09-30 11:38:08', '2017-09-30 11:38:08'
'78', '1', '192', '192-78-1-RV.pdf', 'application/pdf', '478075', '192-77-2-SM.pdf', 'submission/review', '2', NULL, '2017-07-09 15:05:09', '2017-07-09 15:05:09'
'143', '1', '193', '193-143-1-RV.pdf', 'application/pdf', '604670', '193-142-2-SM.pdf', 'submission/review', '2', NULL, '2017-08-07 19:08:02', '2017-08-07 19:08:02'
'425', '1', '193', '193-425-1-SP.docx', 'application/vnd.openxmlformats-officedocument.wordprocessingml.document', '5982977', 'EcoDesign_Springer.docx', 'supp', '2', NULL, '2017-09-30 22:57:05', '2017-09-30 22:57:05'
'423', '1', '193', '193-423-1-DR.docx', 'application/vnd.openxmlformats-officedocument.wordprocessingml.document', '2658138', 'ecodesign_saiki0930.docx', 'submission/director', '2', NULL, '2017-09-30 22:51:34', '2017-09-30 22:51:34'
'426', '1', '193', '193-426-1-SP.pdf', 'application/pdf', '4095799', 'Consent_to_Publish.pdf', 'supp', '2', NULL, '2017-09-30 22:59:01', '2017-09-30 22:59:01'
'142', '2', '193', '193-142-2-SM.pdf', 'application/pdf', '604670', 'ecodesign_fullpaper_saiki.pdf', 'submission/original', '2', NULL, '2017-08-07 19:06:13', '2017-08-07 19:06:13'
'424', '1', '193', '193-424-1-SP.docx', 'application/vnd.openxmlformats-officedocument.wordprocessingml.document', '13641', 'Responses_to_Reviewers.docx', 'supp', '2', NULL, '2017-09-30 22:55:41', '2017-09-30 22:55:41'
'84', '1', '195', '195-84-1-RV.doc', 'application/msword', '198144', '195-83-1-SM.doc', 'submission/review', '2', NULL, '2017-07-09 20:33:56', '2017-07-09 20:33:56'
'265', '3', '195', '195-265-3-DR.pdf', 'application/pdf', '882198', 'consent to publish_XB.pdf', 'submission/director', '2', NULL, '2017-09-29 06:25:14', '2017-09-29 06:25:14'
'265', '1', '195', '195-265-1-DR.docx', 'application/vnd.openxmlformats-officedocument.wordprocessingml.document', '57775', 'Ecodesign Ebook format.docx', 'submission/director', '2', NULL, '2017-09-29 06:24:08', '2017-09-29 06:24:08'
'284', '1', '195', '195-284-1-SP.docx', 'application/vnd.openxmlformats-officedocument.wordprocessingml.document', '57775', 'Ecodesign Ebook format.docx', 'supp', '2', NULL, '2017-09-29 14:56:39', '2017-09-29 14:56:39'
'83', '1', '195', '195-83-1-SM.doc', 'application/msword', '198144', 'Business LCA-XCHEN-Ecodesign 2017.doc', 'submission/original', '2', NULL, '2017-07-09 20:33:17', '2017-07-09 20:33:17'
'265', '2', '195', '195-265-2-DR.doc', 'application/msword', '198144', 'Ecodesign conference format.doc', 'submission/director', '2', NULL, '2017-09-29 06:24:31', '2017-09-29 06:24:31'
'285', '1', '195', '195-285-1-SP.pdf', 'application/pdf', '882198', 'consent to publish_XB.pdf', 'supp', '2', NULL, '2017-09-29 14:57:10', '2017-09-29 14:57:10'
'113', '2', '210', '210-113-2-SM.pdf', 'application/pdf', '910080', '210_Kimura Ecodesign2017.pdf', 'submission/original', '2', NULL, '2017-09-29 15:55:04', '2017-09-29 15:55:04'
'293', '1', '210', '210-293-1-RV.pdf', 'application/pdf', '910080', '210-113-2-SM.pdf', 'submission/review', '2', NULL, '2017-09-29 15:57:48', '2017-09-29 15:57:48'
'104', '1', '215', '215-104-1-RV.pdf', 'application/pdf', '230627', '215-103-1-SM.pdf', 'submission/review', '2', NULL, '2017-07-10 14:08:06', '2017-07-10 14:08:06'
'289', '1', '215', '215-289-1-SP.pdf', 'application/pdf', '19876', 'Description of the paper revisions_Ranaporn.pdf', 'supp', '2', NULL, '2017-09-29 15:12:28', '2017-09-29 15:12:28'
'287', '1', '215', '215-287-1-SP.docx', 'application/vnd.openxmlformats-officedocument.wordprocessingml.document', '61259', 'paper_ver0.2_20170928.docx', 'supp', '2', NULL, '2017-09-29 15:08:52', '2017-09-29 15:08:52'
'290', '1', '215', '215-290-1-SP.pdf', 'application/pdf', '2019581', 'Consent_Ranaporn.pdf', 'supp', '2', NULL, '2017-09-29 15:13:15', '2017-09-29 15:13:15'
'103', '1', '215', '215-103-1-SM.pdf', 'application/pdf', '230627', 'Ranaporn_20170710.pdf', 'submission/original', '2', NULL, '2017-07-10 14:07:44', '2017-07-10 14:07:44'
'288', '1', '215', '215-288-1-SP.pdf', 'application/pdf', '266706', 'Ranaporn_pdf.pdf', 'supp', '2', NULL, '2017-09-29 15:10:23', '2017-09-29 15:10:23'
'80', '1', '220', '220-80-1-RV.pdf', 'application/pdf', '1683681', '220-79-1-SM.pdf', 'submission/review', '2', NULL, '2017-07-09 17:41:42', '2017-07-09 17:41:42'
'295', '1', '220', '220-295-1-SP.pdf', 'application/pdf', '1301043', 'Grasping_LaserMarking_EcoDesign_2017_Ebook_format_3a.pdf', 'supp', '2', NULL, '2017-09-29 16:14:10', '2017-09-29 16:14:10'
'294', '1', '220', '220-294-1-DR.pdf', 'application/pdf', '1301043', 'Grasping_LaserMarking_EcoDesign_2017_Ebook_format_3a.pdf', 'submission/director', '2', NULL, '2017-09-29 16:01:14', '2017-09-29 16:01:14'
'294', '2', '220', '220-294-2-DR.pdf', 'application/pdf', '1747368', 'Grasping & Laser Marking_EcoDesign_2017_r1.1.pdf', 'submission/director', '2', NULL, '2017-09-29 16:01:31', '2017-09-29 16:01:31'
'79', '1', '220', '220-79-1-SM.pdf', 'application/pdf', '1683681', 'Grasping & Laser Marking_EcoDesign_2017.pdf', 'submission/original', '2', NULL, '2017-07-09 17:41:15', '2017-07-09 17:41:15'
'184', '1', '222', '222-184-1-SP.pdf', 'application/pdf', '600713', 'ID_222_Consent to Publish.pdf', 'supp', '2', NULL, '2017-09-16 21:03:16', '2017-09-16 21:03:16'
'144', '1', '222', '222-144-1-SM.doc', 'application/msword', '448000', 'ID 222 Quality assessment of Plastics Recyclates from Waste Electrical and Electronic Equipment (WEEE).doc', 'submission/original', '2', NULL, '2017-08-15 17:11:41', '2017-08-15 17:11:41'
'185', '1', '222', '222-185-1-SP.docx', 'application/vnd.openxmlformats-officedocument.wordprocessingml.document', '2155698', 'ID_222_Quality assessment of Plastics Recyclates from Waste Electrical and Electronic Equipment (WEEE)_Springer format.docx', 'supp', '2', NULL, '2017-09-16 21:07:28', '2017-09-16 21:07:28'
'145', '1', '222', '222-145-1-RV.doc', 'application/msword', '448000', '222-144-1-SM.doc', 'submission/review', '2', NULL, '2017-08-15 17:12:07', '2017-08-15 17:12:07'
'186', '1', '222', '222-186-1-SP.pdf', 'application/pdf', '365515', 'ID_222_Quality assessment of Plastics Recyclates from Waste Electrical and Electronic Equipment (WEEE)_EcoDesign format.pdf', 'supp', '2', NULL, '2017-09-16 21:10:01', '2017-09-16 21:10:01'
'124', '2', '241', '241-124-2-SM.docx', 'application/vnd.openxmlformats-officedocument.wordprocessingml.document', '2370693', 'Hidetaka-Hayashi_2017-rev1.docx', 'submission/original', '2', NULL, '2017-07-17 15:26:19', '2017-07-17 15:26:19'
'181', '1', '241', '241-181-1-DR.docx', 'application/vnd.openxmlformats-officedocument.wordprocessingml.document', '216274', '241-130-2-RV.docx', 'submission/director', '2', NULL, '2017-09-16 20:49:37', '2017-09-16 20:49:37'
'130', '1', '241', '241-130-1-RV.docx', 'application/vnd.openxmlformats-officedocument.wordprocessingml.document', '2370693', '241-124-2-SM.docx', 'submission/review', '2', NULL, '2017-07-17 15:26:40', '2017-07-17 15:26:40'
'183', '1', '241', '241-183-1-SP.pdf', 'application/pdf', '904233', 'Hayashi-et-al-Consent-s.pdf', 'supp', '2', NULL, '2017-09-16 20:58:29', '2017-09-16 20:58:29'
'130', '2', '241', '241-130-2-RV.docx', 'application/vnd.openxmlformats-officedocument.wordprocessingml.document', '216274', 'Hidetaka-Hayashi_Ecodesign2017-rev3.docx', 'submission/review', '2', NULL, '2017-09-16 20:49:37', '2017-09-16 20:49:37'
'187', '1', '241', '241-187-1-RV.docx', 'application/vnd.openxmlformats-officedocument.wordprocessingml.document', '12464', 'Review commnts on No. 241.docx', 'submission/review', '2', NULL, '2017-09-17 23:52:52', '2017-09-17 23:52:52'
'95', '1', '244', '244-95-1-SM.pdf', 'application/pdf', '511583', 'HirotoTAKAKI.pdf', 'submission/original', '2', NULL, '2017-07-10 09:58:59', '2017-07-10 09:58:59'
'96', '1', '244', '244-96-1-RV.pdf', 'application/pdf', '511583', '244-95-1-SM.pdf', 'submission/review', '2', NULL, '2017-07-10 10:03:15', '2017-07-10 10:03:15'
'90', '1', '251', '251-90-1-RV.docx', 'application/vnd.openxmlformats-officedocument.wordprocessingml.document', '413141', '251-89-1-SM.docx', 'submission/review', '2', NULL, '2017-07-10 08:49:32', '2017-07-10 08:49:32'
'275', '1', '251', '251-275-1-DR.docx', 'application/vnd.openxmlformats-officedocument.wordprocessingml.document', '415362', 'Renewable Energy Substitution Model_Completed Version_1.docx', 'submission/director', '2', NULL, '2017-09-29 13:26:48', '2017-09-29 13:26:48'
'89', '1', '251', '251-89-1-SM.docx', 'application/vnd.openxmlformats-officedocument.wordprocessingml.document', '413141', 'Renewable Energy Substitution Model and Environmental Preservation.docx', 'submission/original', '2', NULL, '2017-07-10 08:49:02', '2017-07-10 08:49:02'
'278', '1', '251', '251-278-1-SP.docx', 'application/vnd.openxmlformats-officedocument.wordprocessingml.document', '415362', 'Renewable Energy Substitution Model_Completed Version_1.docx', 'supp', '2', NULL, '2017-09-29 13:51:58', '2017-09-29 13:51:58'
'327', '1', '258', '258-327-1-SP.PNG', 'image/png', '303262', 'consent 2.PNG', 'supp', '2', NULL, '2017-09-29 23:34:07', '2017-09-29 23:34:07'
'44', '3', '258', '258-44-3-SM.doc', 'application/msword', '190976', 'E-book Full Paper.doc', 'submission/original', '2', NULL, '2017-06-28 15:06:44', '2017-06-28 15:06:44'
'324', '2', '258', '258-324-2-DR.doc', 'application/msword', '190976', 'Final Paper.doc', 'submission/director', '2', NULL, '2017-09-29 23:28:34', '2017-09-29 23:28:34'
'328', '1', '258', '258-328-1-SP.pdf', 'application/pdf', '1221106', 'consent.pdf', 'supp', '2', NULL, '2017-09-29 23:38:32', '2017-09-29 23:38:32'
'56', '1', '258', '258-56-1-RV.doc', 'application/msword', '190976', '258-44-3-SM.doc', 'submission/review', '2', NULL, '2017-07-05 08:34:33', '2017-07-05 08:34:33'
'326', '1', '258', '258-326-1-SP.PNG', 'image/png', '260745', 'consent 1.PNG', 'supp', '2', NULL, '2017-09-29 23:33:08', '2017-09-29 23:33:08'
'324', '1', '258', '258-324-1-DR.pdf', 'application/pdf', '337571', 'Final Paper PDF.pdf', 'submission/director', '2', NULL, '2017-09-29 23:28:07', '2017-09-29 23:28:07'
'108', '1', '259', '259-108-1-RV.doc', 'application/msword', '877056', '259-107-1-SM.doc', 'submission/review', '2', NULL, '2017-07-10 15:20:21', '2017-07-10 15:20:21'
'376', '1', '259', '259-376-1-SP.pdf', 'application/pdf', '33439', 'suggestionHH.pdf', 'supp', '2', NULL, '2017-09-30 14:08:20', '2017-09-30 14:08:20'
'374', '1', '259', '259-374-1-DR.pdf', 'application/pdf', '659097', 'nagasawaEcodesign20170930final.pdf', 'submission/director', '2', NULL, '2017-09-30 14:04:53', '2017-09-30 14:04:53'
'107', '1', '259', '259-107-1-SM.doc', 'application/msword', '877056', 'nagasawaEcodesign20170710.doc', 'submission/original', '2', NULL, '2017-07-10 15:19:37', '2017-07-10 15:19:37'
'378', '1', '259', '259-378-1-SP.PDF', 'application/pdf', '206263', 'SCAN0004.PDF', 'supp', '2', NULL, '2017-09-30 14:23:07', '2017-09-30 14:23:07'
'375', '1', '259', '259-375-1-SP.doc', 'application/msword', '838144', 'nagasawaEcodesign20170930_ebook_formatfinal.doc', 'supp', '2', NULL, '2017-09-30 14:07:53', '2017-09-30 14:07:53'
'246', '1', '261', '261-246-1-SP.pdf', 'application/pdf', '1058267', 'Springer Consent to Publish_Final Paper #261(E-book).pdf', 'supp', '2', NULL, '2017-09-27 13:54:53', '2017-09-27 13:54:53'
'123', '1', '261', '261-123-1-SM.pdf', 'application/pdf', '381390', '2017EcoDesign_E-book Paper_Hui-TingTANG.pdf', 'submission/original', '2', NULL, '2017-07-10 22:49:50', '2017-07-10 22:49:50'
'245', '1', '261', '261-245-1-DR.pdf', 'application/pdf', '211429', 'Reply to Reviewer_Final Paper #261(E-book).pdf', 'submission/director', '2', NULL, '2017-09-27 13:53:27', '2017-09-27 13:53:27'
'247', '1', '261', '261-247-1-SP.doc', 'application/msword', '2148864', 'Springer Format_Final Paper #261(E-book).doc', 'supp', '2', NULL, '2017-09-27 13:56:24', '2017-09-27 13:56:24'
'125', '1', '261', '261-125-1-RV.pdf', 'application/pdf', '381390', '261-123-1-SM.pdf', 'submission/review', '2', NULL, '2017-07-10 22:53:21', '2017-07-10 22:53:21'
'245', '2', '261', '261-245-2-DR.pdf', 'application/pdf', '133621', 'EcoDesign2017 Format_Final Paper #261(E-book).pdf', 'submission/director', '2', NULL, '2017-09-27 13:53:50', '2017-09-27 13:53:50'
'248', '1', '261', '261-248-1-SP.pdf', 'application/pdf', '133621', 'EcoDesign2017 Format_Final Paper #261(E-book).pdf', 'supp', '2', NULL, '2017-09-27 13:57:16', '2017-09-27 13:57:16'
'125', '2', '261', '261-125-2-RV.pdf', 'application/pdf', '133621', 'EcoDesign2017 Format_Final Paper #261(E-book).pdf', 'submission/review', '2', NULL, '2017-09-27 11:07:07', '2017-09-27 11:07:07'
'444', '1', '263', '263-444-1-SM.pdf', 'application/pdf', '136784', 'ID 263.pdf', 'submission/original', '2', NULL, '2017-10-01 00:04:20', '2017-10-01 00:04:20'
'445', '1', '263', '263-445-1-RV.pdf', 'application/pdf', '136784', '263-444-1-SM.pdf', 'submission/review', '2', NULL, '2017-10-01 00:06:57', '2017-10-01 00:06:57'
'86', '1', '267', '267-86-1-RV.docx', 'application/vnd.openxmlformats-officedocument.wordprocessingml.document', '679471', '267-85-1-SM.docx', 'submission/review', '2', NULL, '2017-07-10 00:35:42', '2017-07-10 00:35:42'
'85', '1', '267', '267-85-1-SM.docx', 'application/vnd.openxmlformats-officedocument.wordprocessingml.document', '679471', 'eco design Fukunaga　Yoshinori.docx', 'submission/original', '2', NULL, '2017-07-10 00:34:59', '2017-07-10 00:34:59'
'270', '1', '275', '275-270-1-DR.pdf', 'application/pdf', '3282775', 'Ueda E.(Ecodesign2017).2017.09.29.pdf', 'submission/director', '2', NULL, '2017-09-29 14:41:33', '2017-09-29 14:41:33'
'283', '3', '275', '275-283-3-SP.pdf', 'application/pdf', '913687', 'consent to publish.2017.09.29.pdf', 'supp', '2', NULL, '2017-09-29 14:55:41', '2017-09-29 14:55:41'
'372', '1', '275', '275-372-1-SP.pdf', 'application/pdf', '2938936', ' Springer v1.paper.2017.09.29.pdf', 'supp', '2', NULL, '2017-09-30 13:29:05', '2017-09-30 13:29:05'
'36', '2', '275', '275-36-2-SM.pdf', 'application/pdf', '2042581', 'Ueda E.(Ecodesign2017).pdf', 'submission/original', '2', NULL, '2017-06-26 13:08:53', '2017-06-26 13:08:53'
'270', '2', '275', '275-270-2-DR.docx', 'application/vnd.openxmlformats-officedocument.wordprocessingml.document', '2885273', ' Springer v1.paper.2017.09.29.docx', 'submission/director', '2', NULL, '2017-09-29 14:57:15', '2017-09-29 14:57:15'
'370', '1', '275', '275-370-1-SP.pdf', 'application/pdf', '3282775', 'Ueda E.(Ecodesign2017).2017.09.29.pdf', 'supp', '2', NULL, '2017-09-30 13:26:10', '2017-09-30 13:26:10'
'373', '1', '275', '275-373-1-SP.doc', 'application/msword', '2958336', 'Ueda E.(Ecodesign2017).2017.09.29.doc', 'supp', '2', NULL, '2017-09-30 13:29:50', '2017-09-30 13:29:50'
'37', '1', '275', '275-37-1-RV.pdf', 'application/pdf', '2042581', '275-36-2-SM.pdf', 'submission/review', '2', NULL, '2017-06-26 13:09:12', '2017-06-26 13:09:12'
'270', '3', '275', '275-270-3-DR.pdf', 'application/pdf', '2938936', ' Springer v1.paper.2017.09.29.pdf', 'submission/director', '2', NULL, '2017-09-29 14:57:33', '2017-09-29 14:57:33'
'371', '1', '275', '275-371-1-SP.docx', 'application/vnd.openxmlformats-officedocument.wordprocessingml.document', '2885273', ' Springer v1.paper.2017.09.29.docx', 'supp', '2', NULL, '2017-09-30 13:27:26', '2017-09-30 13:27:26'
'115', '1', '283', '283-115-1-RV.pdf', 'application/pdf', '436478', '283-114-1-SM.pdf', 'submission/review', '2', NULL, '2017-07-10 21:24:29', '2017-07-10 21:24:29'
'396', '1', '283', '283-396-1-SP.docx', 'application/vnd.openxmlformats-officedocument.wordprocessingml.document', '5645612', 'Springer Format.docx', 'supp', '2', NULL, '2017-09-30 18:22:33', '2017-09-30 18:22:33'
'394', '1', '283', '283-394-1-DR.pdf', 'application/pdf', '429148', 'Exchange of modules among robot manipulators.pdf', 'submission/director', '2', NULL, '2017-09-30 18:18:36', '2017-09-30 18:18:36'
'400', '1', '283', '283-400-1-SP.PDF', 'application/pdf', '219603', 'SCAN0000.PDF', 'supp', '2', NULL, '2017-09-30 18:45:04', '2017-09-30 18:45:04'
'114', '1', '283', '283-114-1-SM.pdf', 'application/pdf', '436478', 'Exchange of modules among robot manipulators.pdf', 'submission/original', '2', NULL, '2017-07-10 21:21:52', '2017-07-10 21:21:52'
'395', '1', '283', '283-395-1-SP.pdf', 'application/pdf', '9420', 'Description of the paper revisions.pdf', 'supp', '2', NULL, '2017-09-30 18:21:16', '2017-09-30 18:21:16'
'119', '1', '300', '300-119-1-RV.doc', 'application/msword', '541696', '300-118-2-SM.doc', 'submission/review', '2', NULL, '2017-07-10 21:37:14', '2017-07-10 21:37:14'
'325', '1', '300', '300-325-1-DR.doc', 'application/msword', '545280', 'Polcirkeln articel Ecodesign 2017 2017-09-28 FINALE.doc', 'submission/director', '2', NULL, '2017-09-30 00:35:18', '2017-09-30 00:35:18'
'118', '2', '300', '300-118-2-SM.doc', 'application/msword', '541696', 'Jonbrink et al Polcirkeln 2017.doc', 'submission/original', '2', NULL, '2017-07-10 21:36:59', '2017-07-10 21:36:59'
'325', '2', '300', '300-325-2-DR.pdf', 'application/pdf', '271005', 'Polcirkeln articel Ecodesign 2017 2017-09-28 FINALE.pdf', 'submission/director', '2', NULL, '2017-09-30 00:35:37', '2017-09-30 00:35:37'
'443', '1', '306', '306-443-1-SM.pdf', 'application/pdf', '237347', 'EcoDesign2017_Nagase_ENG.pdf', 'submission/original', '2', NULL, '2017-09-30 23:58:13', '2017-09-30 23:58:13'
'28', '1', '316', '316-28-1-SP.pdf', 'application/pdf', '393840', 'Buchert_2017_Springer_v1.pdf', 'supp', '2', NULL, '2017-06-09 23:47:46', '2017-06-09 23:47:46'
'26', '1', '316', '316-26-1-SM.pdf', 'application/pdf', '250310', 'Final_Buchert.pdf', 'submission/original', '2', NULL, '2017-06-09 17:30:35', '2017-06-09 17:30:35'
'29', '1', '316', '316-29-1-SP.pdf', 'application/pdf', '1233509', 'Consent.pdf', 'supp', '2', NULL, '2017-06-09 23:56:02', '2017-06-09 23:56:02'
'27', '1', '316', '316-27-1-RV.pdf', 'application/pdf', '250310', '316-26-1-SM.pdf', 'submission/review', '2', NULL, '2017-06-09 17:31:19', '2017-06-09 17:31:19'
'131', '1', '324', '324-131-1-RV.doc', 'application/msword', '1535488', '324-122-1-SM.doc', 'submission/review', '2', NULL, '2017-07-18 10:25:40', '2017-07-18 10:25:40'
'377', '1', '324', '324-377-1-DR.doc', 'application/msword', '1560576', 'Paper Eco Design Taiwan-NS.doc', 'submission/director', '2', NULL, '2017-09-30 14:17:50', '2017-09-30 14:17:50'
'122', '1', '324', '324-122-1-SM.doc', 'application/msword', '1535488', 'EcoDesign2017 -Novita.doc', 'submission/original', '2', NULL, '2017-07-10 21:50:13', '2017-07-10 21:50:13'
'377', '2', '324', '324-377-2-DR.docx', 'application/vnd.openxmlformats-officedocument.wordprocessingml.document', '16440', 'Author Respond Paper #324 Taiwan.docx', 'submission/director', '2', NULL, '2017-09-30 14:18:05', '2017-09-30 14:18:05'
'195', '1', '325', '325-195-1-SM.docx', 'application/vnd.openxmlformats-officedocument.wordprocessingml.document', '0', 'test0919.docx', 'submission/original', '2', NULL, '2017-09-19 13:56:58', '2017-09-19 13:56:58'
'196', '1', '325', '325-196-1-RV.docx', 'application/vnd.openxmlformats-officedocument.wordprocessingml.document', '0', '325-195-1-SM.docx', 'submission/review', '2', NULL, '2017-09-19 13:57:06', '2017-09-19 13:57:06'
'197', '1', '325', '325-197-1-SP.docx', 'application/vnd.openxmlformats-officedocument.wordprocessingml.document', '0', 'Consent_To_Publish.docx', 'supp', '2', NULL, '2017-09-19 14:41:06', '2017-09-19 14:41:06'
