# file_id, revision, paper_id, file_name, file_type, file_size, original_file_name, type, stage, viewable, date_uploaded, date_modified
'34', '1', '43', '43-34-1-SM.doc', 'application/msword', '2071552', '00Final paper with EcoDesign2017.doc', 'submission/original', '2', NULL, '2017-06-19 20:07:30', '2017-06-19 20:07:30'
'188', '1', '45', '45-188-1-SM.doc', 'application/msword', '88064', 'Iwamoto.doc', 'submission/original', '2', NULL, '2017-09-18 14:11:31', '2017-09-18 14:11:31'
'51', '1', '50', '50-51-1-SM.pdf', 'application/pdf', '2317951', 'Full Paper - AR energy monitoring - N Ho and CK Chui.pdf', 'submission/original', '2', NULL, '2017-07-03 18:53:06', '2017-07-03 18:53:06'
'58', '1', '53', '53-58-1-SM.doc', 'application/msword', '835584', 'Kuroda_Ecodesign.doc', 'submission/original', '2', NULL, '2017-07-07 17:22:13', '2017-07-07 17:22:13'
'47', '1', '55', '55-47-1-SM.docx', 'application/vnd.openxmlformats-officedocument.wordprocessingml.document', '235927', '20170630_CPPS_Data_Gold_Mine.docx', 'submission/original', '2', NULL, '2017-07-01 14:25:18', '2017-07-01 14:25:18'
'38', '1', '60', '60-38-1-SM.docx', 'application/vnd.openxmlformats-officedocument.wordprocessingml.document', '3496897', 'E-book_20170625.docx', 'submission/original', '2', NULL, '2017-06-26 22:30:38', '2017-06-26 22:30:38'
'111', '3', '70', '70-111-3-SM.pdf', 'application/pdf', '499237', 'Kondo_EcoDesign_Fullpaper.pdf', 'submission/original', '2', NULL, '2017-07-10 19:01:30', '2017-07-10 19:01:30'
'132', '3', '73', '73-132-3-SM.pdf', 'application/pdf', '452704', 'ED17_GRIMAUD_Performance indicators A04.pdf', 'submission/original', '2', NULL, '2017-07-18 20:45:55', '2017-07-18 20:45:55'
'23', '1', '77', '77-23-1-SM.docx', 'application/vnd.openxmlformats-officedocument.wordprocessingml.document', '169427', 'Development of an Environmental Management System Framework for Hong Kong Higher Education Institutions.docx', 'submission/original', '2', NULL, '2017-05-26 15:20:59', '2017-05-26 15:20:59'
'40', '1', '84', '84-40-1-SM.doc', 'application/msword', '656896', 'E-Book Chapman.doc', 'submission/original', '2', NULL, '2017-06-28 07:28:48', '2017-06-28 07:28:48'
'73', '3', '85', '85-73-3-SM.docx', 'application/vnd.openxmlformats-officedocument.wordprocessingml.document', '156282', 'Draft_HU - Final.docx', 'submission/original', '2', NULL, '2017-07-08 15:57:05', '2017-07-08 15:57:05'
'67', '1', '86', '86-67-1-SM.pdf', 'application/pdf', '124866', 'Paulson Sundin 2017 Challenges when including SustAspects in PD 20170707.pdf', 'submission/original', '2', NULL, '2017-07-08 00:57:52', '2017-07-08 00:57:52'
'136', '1', '89', '89-136-1-SM.doc', 'application/msword', '1841152', 'Ecodesign_2017_Clemm_etal_Circular_Economy_Product_Design_(submit).doc', 'submission/original', '2', NULL, '2017-07-21 01:01:53', '2017-07-21 01:01:53'
'120', '1', '95', '95-120-1-SM.doc', 'application/msword', '348160', 'Energy-Metering Systems for Digital Factory Twins - Full Text v3.1.doc', 'submission/original', '2', NULL, '2017-07-10 21:38:50', '2017-07-10 21:38:50'
'134', '3', '97', '97-134-3-SM.doc', 'application/msword', '1759232', 'ecodesign2017 paper Nissen et al (submit).doc', 'submission/original', '2', NULL, '2017-07-21 00:59:00', '2017-07-21 00:59:00'
'71', '1', '100', '100-71-1-SM.pdf', 'application/pdf', '777065', '2.1_Final paper Eco2017_gwyntorn.pdf', 'submission/original', '2', NULL, '2017-07-08 15:24:01', '2017-07-08 15:24:01'
'53', '1', '101', '101-53-1-SM.docx', 'application/vnd.openxmlformats-officedocument.wordprocessingml.document', '889344', 'エコデProc提出用170704段組変更.docx', 'submission/original', '2', NULL, '2017-07-04 17:26:56', '2017-07-04 17:26:56'
'174', '1', '102', '102-174-1-SM.pdf', 'application/pdf', '260874', 'Paper Recycling as a Service Ecodesign 2017.pdf', 'submission/original', '2', NULL, '2017-09-14 11:49:18', '2017-09-14 11:49:18'
'91', '1', '106', '106-91-1-SM.doc', 'application/msword', '113152', 'manuscript for reviewing.doc', 'submission/original', '2', NULL, '2017-07-10 09:05:09', '2017-07-10 09:05:09'
'105', '1', '111', '111-105-1-SM.pdf', 'application/pdf', '213806', 'EcoDesign2017.pdf', 'submission/original', '2', NULL, '2017-07-10 14:52:08', '2017-07-10 14:52:08'
'45', '1', '113', '113-45-1-SM.doc', 'application/msword', '159232', 'Towards a Circular Economy：An Analysis of Innovation in Taiwanese SME.doc', 'submission/original', '2', NULL, '2017-06-29 08:40:19', '2017-06-29 08:40:19'
'30', '1', '120', '120-30-1-SM.docx', 'application/vnd.openxmlformats-officedocument.wordprocessingml.document', '2664026', 'Sustainability think design think CLEAN.docx', 'submission/original', '2', NULL, '2017-06-16 16:10:49', '2017-06-16 16:10:49'
'221', '1', '122', '122-221-1-SM.pdf', 'application/pdf', '896348', 'R1706646-2A_taka_v07i_s.pdf', 'submission/original', '2', NULL, '2017-09-25 22:16:23', '2017-09-25 22:16:23'
'64', '1', '125', '125-64-1-SM.pdf', 'application/pdf', '506659', 'SHOTAKONDO.pdf', 'submission/original', '2', NULL, '2017-07-07 17:31:27', '2017-07-07 17:31:27'
'62', '1', '126', '126-62-1-SM.doc', 'application/msword', '390144', 'Kiyofumi_Sato_2017.doc', 'submission/original', '2', NULL, '2017-07-07 17:30:02', '2017-07-07 17:30:02'
'279', '1', '129', '129-279-1-SM.pdf', 'application/pdf', '266297', 'The Development Trends of International Green Certification and the Experience to Assist Taiwanese Corporations.pdf', 'submission/original', '2', NULL, '2017-09-29 14:31:09', '2017-09-29 14:31:09'
'60', '1', '130', '130-60-1-SM.doc', 'application/msword', '663552', 'yasukowatanabe_2017.doc', 'submission/original', '2', NULL, '2017-07-07 17:24:58', '2017-07-07 17:24:58'
'299', '1', '134', '134-299-1-SM.pdf', 'application/pdf', '711807', 'ED2017KondohSubmit.pdf', 'submission/original', '2', NULL, '2017-09-29 16:55:15', '2017-09-29 16:55:15'
'93', '1', '135', '135-93-1-SM.doc', 'application/msword', '1531392', 'Framework_CFP_blockchain.doc', 'submission/original', '2', NULL, '2017-07-10 09:21:34', '2017-07-10 09:21:34'
'66', '1', '138', '138-66-1-SM.pdf', 'application/pdf', '355356', 'E_Book_Ecodesign_2017_T_Ishiyama.pdf', 'submission/original', '2', NULL, '2017-07-07 17:32:21', '2017-07-07 17:32:21'
'220', '3', '148', '148-220-3-SM.pdf', 'application/pdf', '1024108', 'ED17_Article_RR Indicator Calculation_FINAL.pdf', 'submission/original', '2', NULL, '2017-09-27 00:21:49', '2017-09-27 00:21:49'
'49', '1', '154', '154-49-1-SM.pdf', 'application/pdf', '471418', 'Designing sustainable functional economy business models - takeaways from a case study in the small household equipment ind.pdf', 'submission/original', '2', NULL, '2017-07-01 17:53:13', '2017-07-01 17:53:13'
'54', '1', '156', '156-54-1-SM.doc', 'application/msword', '776192', 'ED-Mishima_2017.doc', 'submission/original', '2', NULL, '2017-07-05 00:35:55', '2017-07-05 00:35:55'
'75', '1', '157', '157-75-1-SM.pdf', 'application/pdf', '382465', 'Modeling and analysis of material flow towards better e-waste recycling system in Malaysia.pdf', 'submission/original', '2', NULL, '2017-07-09 13:00:43', '2017-07-09 13:00:43'
'109', '1', '161', '161-109-1-SM.pdf', 'application/pdf', '602373', 'Ecodesign_2017-Hirose2.pdf', 'submission/original', '2', NULL, '2017-07-10 16:05:54', '2017-07-10 16:05:54'
'116', '1', '162', '162-116-1-SM.pdf', 'application/pdf', '363914', 'EcoDesign_2017Chiba.pdf', 'submission/original', '2', NULL, '2017-07-10 21:25:09', '2017-07-10 21:25:09'
'101', '1', '164', '164-101-1-SM.doc', 'application/msword', '261632', 'Carbon labelling_ebook_Khan and Lan.doc', 'submission/original', '2', NULL, '2017-07-10 13:33:41', '2017-07-10 13:33:41'
'128', '2', '172', '172-128-2-SM.doc', 'application/msword', '417280', 'Sustainable Rotproof Nursery Pot.doc', 'submission/original', '2', NULL, '2017-07-12 01:56:14', '2017-07-12 01:56:14'
'415', '1', '176', '176-415-1-SM.pdf', 'application/pdf', '354086', 'EcoDesign2017 Min-Hua Wu.pdf', 'submission/original', '2', NULL, '2017-09-30 22:01:53', '2017-09-30 22:01:53'
'32', '1', '184', '184-32-1-SM.doc', 'application/msword', '460800', 'Sample1_2017.doc', 'submission/original', '2', NULL, '2017-06-19 05:42:02', '2017-06-19 05:42:02'
'42', '1', '188', '188-42-1-SM.doc', 'application/msword', '268288', 'Ecodesign _2017_Juntao Wang .doc', 'submission/original', '2', NULL, '2017-06-28 08:38:51', '2017-06-28 08:38:51'
'97', '1', '190', '190-97-1-SM.doc', 'application/msword', '702976', 'Ecodesign_2017-naito .doc', 'submission/original', '2', NULL, '2017-07-10 10:10:55', '2017-07-10 10:10:55'
'77', '2', '192', '192-77-2-SM.pdf', 'application/pdf', '478075', '192- Chen-Fu Chen_Eco-Design 2017.pdf', 'submission/original', '2', NULL, '2017-07-09 15:04:44', '2017-07-09 15:04:44'
'142', '2', '193', '193-142-2-SM.pdf', 'application/pdf', '604670', 'ecodesign_fullpaper_saiki.pdf', 'submission/original', '2', NULL, '2017-08-07 19:06:13', '2017-08-07 19:06:13'
'83', '1', '195', '195-83-1-SM.doc', 'application/msword', '198144', 'Business LCA-XCHEN-Ecodesign 2017.doc', 'submission/original', '2', NULL, '2017-07-09 20:33:17', '2017-07-09 20:33:17'
'113', '2', '210', '210-113-2-SM.pdf', 'application/pdf', '910080', '210_Kimura Ecodesign2017.pdf', 'submission/original', '2', NULL, '2017-09-29 15:55:04', '2017-09-29 15:55:04'
'103', '1', '215', '215-103-1-SM.pdf', 'application/pdf', '230627', 'Ranaporn_20170710.pdf', 'submission/original', '2', NULL, '2017-07-10 14:07:44', '2017-07-10 14:07:44'
'79', '1', '220', '220-79-1-SM.pdf', 'application/pdf', '1683681', 'Grasping & Laser Marking_EcoDesign_2017.pdf', 'submission/original', '2', NULL, '2017-07-09 17:41:15', '2017-07-09 17:41:15'
'144', '1', '222', '222-144-1-SM.doc', 'application/msword', '448000', 'ID 222 Quality assessment of Plastics Recyclates from Waste Electrical and Electronic Equipment (WEEE).doc', 'submission/original', '2', NULL, '2017-08-15 17:11:41', '2017-08-15 17:11:41'
'124', '2', '241', '241-124-2-SM.docx', 'application/vnd.openxmlformats-officedocument.wordprocessingml.document', '2370693', 'Hidetaka-Hayashi_2017-rev1.docx', 'submission/original', '2', NULL, '2017-07-17 15:26:19', '2017-07-17 15:26:19'
'95', '1', '244', '244-95-1-SM.pdf', 'application/pdf', '511583', 'HirotoTAKAKI.pdf', 'submission/original', '2', NULL, '2017-07-10 09:58:59', '2017-07-10 09:58:59'
'89', '1', '251', '251-89-1-SM.docx', 'application/vnd.openxmlformats-officedocument.wordprocessingml.document', '413141', 'Renewable Energy Substitution Model and Environmental Preservation.docx', 'submission/original', '2', NULL, '2017-07-10 08:49:02', '2017-07-10 08:49:02'
'44', '3', '258', '258-44-3-SM.doc', 'application/msword', '190976', 'E-book Full Paper.doc', 'submission/original', '2', NULL, '2017-06-28 15:06:44', '2017-06-28 15:06:44'
'107', '1', '259', '259-107-1-SM.doc', 'application/msword', '877056', 'nagasawaEcodesign20170710.doc', 'submission/original', '2', NULL, '2017-07-10 15:19:37', '2017-07-10 15:19:37'
'123', '1', '261', '261-123-1-SM.pdf', 'application/pdf', '381390', '2017EcoDesign_E-book Paper_Hui-TingTANG.pdf', 'submission/original', '2', NULL, '2017-07-10 22:49:50', '2017-07-10 22:49:50'
'444', '1', '263', '263-444-1-SM.pdf', 'application/pdf', '136784', 'ID 263.pdf', 'submission/original', '2', NULL, '2017-10-01 00:04:20', '2017-10-01 00:04:20'
'85', '1', '267', '267-85-1-SM.docx', 'application/vnd.openxmlformats-officedocument.wordprocessingml.document', '679471', 'eco design Fukunaga　Yoshinori.docx', 'submission/original', '2', NULL, '2017-07-10 00:34:59', '2017-07-10 00:34:59'
'36', '2', '275', '275-36-2-SM.pdf', 'application/pdf', '2042581', 'Ueda E.(Ecodesign2017).pdf', 'submission/original', '2', NULL, '2017-06-26 13:08:53', '2017-06-26 13:08:53'
'114', '1', '283', '283-114-1-SM.pdf', 'application/pdf', '436478', 'Exchange of modules among robot manipulators.pdf', 'submission/original', '2', NULL, '2017-07-10 21:21:52', '2017-07-10 21:21:52'
'118', '2', '300', '300-118-2-SM.doc', 'application/msword', '541696', 'Jonbrink et al Polcirkeln 2017.doc', 'submission/original', '2', NULL, '2017-07-10 21:36:59', '2017-07-10 21:36:59'
'443', '1', '306', '306-443-1-SM.pdf', 'application/pdf', '237347', 'EcoDesign2017_Nagase_ENG.pdf', 'submission/original', '2', NULL, '2017-09-30 23:58:13', '2017-09-30 23:58:13'
'26', '1', '316', '316-26-1-SM.pdf', 'application/pdf', '250310', 'Final_Buchert.pdf', 'submission/original', '2', NULL, '2017-06-09 17:30:35', '2017-06-09 17:30:35'
'122', '1', '324', '324-122-1-SM.doc', 'application/msword', '1535488', 'EcoDesign2017 -Novita.doc', 'submission/original', '2', NULL, '2017-07-10 21:50:13', '2017-07-10 21:50:13'
'195', '1', '325', '325-195-1-SM.docx', 'application/vnd.openxmlformats-officedocument.wordprocessingml.document', '0', 'test0919.docx', 'submission/original', '2', NULL, '2017-09-19 13:56:58', '2017-09-19 13:56:58'
